INFO: cmd_ln.c(691): Parsing command line:
/home/ssitaram/projects/tts_no_text/English/accEngCB/bin/tiestate \
	-imoddeffn /home/ssitaram/projects/tts_no_text/English/accEngCB//model_architecture/accEngCB.alltriphones.mdef \
	-omoddeffn /home/ssitaram/projects/tts_no_text/English/accEngCB//model_architecture/accEngCB.1000.mdef \
	-treedir /home/ssitaram/projects/tts_no_text/English/accEngCB//trees/accEngCB.1000 \
	-psetfn /home/ssitaram/projects/tts_no_text/English/accEngCB//model_architecture/accEngCB.tree_questions 

Current configuration:
[NAME]		[DEFLT]	[VALUE]
-allphones	no	no
-example	no	no
-help		no	no
-imoddeffn		/home/ssitaram/projects/tts_no_text/English/accEngCB//model_architecture/accEngCB.alltriphones.mdef
-omoddeffn		/home/ssitaram/projects/tts_no_text/English/accEngCB//model_architecture/accEngCB.1000.mdef
-psetfn			/home/ssitaram/projects/tts_no_text/English/accEngCB//model_architecture/accEngCB.tree_questions
-treedir		/home/ssitaram/projects/tts_no_text/English/accEngCB//trees/accEngCB.1000

INFO: model_def_io.c(587): Model definition info:
INFO: model_def_io.c(588): 34881 total models defined (33 base, 34848 tri)
INFO: model_def_io.c(589): 139524 total states
INFO: model_def_io.c(590): 104643 total tied states
INFO: model_def_io.c(591): 99 total tied CI states
INFO: model_def_io.c(592): 33 total tied transition matrices
INFO: model_def_io.c(593): 4 max state/model
INFO: model_def_io.c(594): 4 min state/model
INFO: main.c(92): Reading: /home/ssitaram/projects/tts_no_text/English/accEngCB//model_architecture/accEngCB.tree_questions
INFO: main.c(122): AH-0: offset 99
INFO: main.c(122): AH-1: offset 151
INFO: main.c(122): AH-2: offset 208
INFO: main.c(122): AO-0: offset 256
INFO: main.c(122): AO-1: offset 272
INFO: main.c(122): AO-2: offset 287
INFO: main.c(122): AY-0: offset 299
INFO: main.c(122): AY-1: offset 310
INFO: main.c(122): AY-2: offset 322
INFO: main.c(122): B-0: offset 334
INFO: main.c(122): B-1: offset 342
INFO: main.c(122): B-2: offset 348
INFO: main.c(122): CH-0: offset 352
INFO: main.c(122): CH-1: offset 354
INFO: main.c(122): CH-2: offset 356
INFO: main.c(122): D-0: offset 358
INFO: main.c(122): D-1: offset 372
INFO: main.c(122): D-2: offset 386
INFO: main.c(122): EH-0: offset 398
INFO: main.c(122): EH-1: offset 419
INFO: main.c(122): EH-2: offset 442
INFO: main.c(122): EY-0: offset 457
INFO: main.c(122): EY-1: offset 460
INFO: main.c(122): EY-2: offset 465
INFO: main.c(122): F-0: offset 471
INFO: main.c(122): F-1: offset 479
INFO: main.c(122): F-2: offset 486
INFO: main.c(122): G-0: offset 493
INFO: main.c(122): G-1: offset 498
INFO: main.c(122): G-2: offset 501
INFO: main.c(122): HH-0: offset 502
INFO: main.c(122): HH-1: offset 511
INFO: main.c(122): HH-2: offset 520
INFO: main.c(122): IH-0: offset 526
INFO: main.c(122): IH-1: offset 529
INFO: main.c(122): IH-2: offset 532
INFO: main.c(122): IY-0: offset 535
INFO: main.c(122): IY-1: offset 553
INFO: main.c(122): IY-2: offset 582
INFO: main.c(122): JH-0: offset 603
INFO: main.c(122): JH-1: offset 605
INFO: main.c(122): JH-2: offset 607
INFO: main.c(122): K-0: offset 609
INFO: main.c(122): K-1: offset 621
INFO: main.c(122): K-2: offset 632
INFO: main.c(122): L-0: offset 642
INFO: main.c(122): L-1: offset 658
INFO: main.c(122): L-2: offset 673
INFO: main.c(122): M-0: offset 684
INFO: main.c(122): M-1: offset 696
INFO: main.c(122): M-2: offset 709
INFO: main.c(122): N-0: offset 722
INFO: main.c(122): N-1: offset 739
INFO: main.c(122): N-2: offset 763
INFO: main.c(122): NG-0: offset 784
INFO: main.c(122): NG-1: offset 786
INFO: main.c(122): NG-2: offset 789
INFO: main.c(122): OW-0: offset 795
INFO: main.c(122): OW-1: offset 806
INFO: main.c(122): OW-2: offset 820
INFO: main.c(122): OY-0: offset 831
INFO: main.c(122): OY-1: offset 832
INFO: main.c(122): OY-2: offset 833
INFO: main.c(122): P-0: offset 834
INFO: main.c(122): P-1: offset 845
INFO: main.c(122): P-2: offset 853
INFO: main.c(122): R-0: offset 862
INFO: main.c(122): R-1: offset 884
INFO: main.c(122): R-2: offset 909
INFO: main.c(122): S-0: offset 927
INFO: main.c(122): S-1: offset 941
INFO: main.c(122): S-2: offset 956
INFO: main.c(122): SH-0: offset 969
INFO: main.c(122): SH-1: offset 974
INFO: main.c(122): SH-2: offset 979
INFO: main.c(122): T-0: offset 984
INFO: main.c(122): T-1: offset 998
INFO: main.c(122): T-2: offset 1017
INFO: main.c(122): UH-0: offset 1037
INFO: main.c(122): UH-1: offset 1038
INFO: main.c(122): UH-2: offset 1039
INFO: main.c(122): UW-0: offset 1040
INFO: main.c(122): UW-1: offset 1047
INFO: main.c(122): UW-2: offset 1054
INFO: main.c(122): V-0: offset 1063
INFO: main.c(122): V-1: offset 1067
INFO: main.c(122): V-2: offset 1070
INFO: main.c(122): Y-0: offset 1073
INFO: main.c(122): Y-1: offset 1078
INFO: main.c(122): Y-2: offset 1081
INFO: main.c(122): Z-0: offset 1083
INFO: main.c(122): Z-1: offset 1088
INFO: main.c(122): Z-2: offset 1092
INFO: main.c(122): ZH-0: offset 1096
INFO: main.c(122): ZH-1: offset 1097
INFO: main.c(122): ZH-2: offset 1098
INFO: main.c(144): n_seno= 1099
Mon May  6 20:57:31 2013
