INFO: cmd_ln.c(691): Parsing command line:
/home/ssitaram/projects/tts_no_text/English/accEngCB/bin/bldtree \
	-treefn /home/ssitaram/projects/tts_no_text/English/accEngCB//trees/accEngCB.unpruned/D-0.dtree \
	-moddeffn /home/ssitaram/projects/tts_no_text/English/accEngCB//model_architecture/accEngCB.untied.mdef \
	-mixwfn /home/ssitaram/projects/tts_no_text/English/accEngCB//model_parameters/accEngCB.cd_cont_untied/mixture_weights \
	-ts2cbfn .cont. \
	-mwfloor 1e-08 \
	-psetfn /home/ssitaram/projects/tts_no_text/English/accEngCB//model_architecture/accEngCB.tree_questions \
	-phone D \
	-state 0 \
	-stwt 1.0,0.05,0.0 \
	-meanfn /home/ssitaram/projects/tts_no_text/English/accEngCB//model_parameters/accEngCB.cd_cont_untied/means \
	-varfn /home/ssitaram/projects/tts_no_text/English/accEngCB//model_parameters/accEngCB.cd_cont_untied/variances \
	-fullvar no \
	-ssplitmin 1 \
	-ssplitmax 7 \
	-ssplitthr 0 \
	-csplitmin 1 \
	-csplitmax 2000 \
	-csplitthr 0 

Current configuration:
[NAME]		[DEFLT]	[VALUE]
-allphones	no	no
-cntthresh	0.00001	1.000000e-05
-csplitmax	100	2000
-csplitmin	1	1
-csplitthr	8e-4	0.000000e+00
-example	no	no
-fullvar	no	no
-help		no	no
-meanfn			/home/ssitaram/projects/tts_no_text/English/accEngCB//model_parameters/accEngCB.cd_cont_untied/means
-mixwfn			/home/ssitaram/projects/tts_no_text/English/accEngCB//model_parameters/accEngCB.cd_cont_untied/mixture_weights
-moddeffn		/home/ssitaram/projects/tts_no_text/English/accEngCB//model_architecture/accEngCB.untied.mdef
-mwfloor	1e-4	1.000000e-08
-phone			D
-psetfn			/home/ssitaram/projects/tts_no_text/English/accEngCB//model_architecture/accEngCB.tree_questions
-ssplitmax	5	7
-ssplitmin	1	1
-ssplitthr	8e-4	0.000000e+00
-state			0
-stwt			1.0,0.05,0.0,
-treefn			/home/ssitaram/projects/tts_no_text/English/accEngCB//trees/accEngCB.unpruned/D-0.dtree
-ts2cbfn	.semi.	.cont.
-varfloor	0.00001	1.000000e-05
-varfn			/home/ssitaram/projects/tts_no_text/English/accEngCB//model_parameters/accEngCB.cd_cont_untied/variances

INFO: main.c(228): Reading: /home/ssitaram/projects/tts_no_text/English/accEngCB//model_architecture/accEngCB.untied.mdef
INFO: model_def_io.c(587): Model definition info:
INFO: model_def_io.c(588): 8263 total models defined (33 base, 8230 tri)
INFO: model_def_io.c(589): 33052 total states
INFO: model_def_io.c(590): 24789 total tied states
INFO: model_def_io.c(591): 99 total tied CI states
INFO: model_def_io.c(592): 33 total tied transition matrices
INFO: model_def_io.c(593): 4 max state/model
INFO: model_def_io.c(594): 4 min state/model
INFO: main.c(247): Building trees for [D AH AH s] through [D UW Y s]
INFO: main.c(275): Covering states |[4950 5525]| == 576
INFO: main.c(282): Reading: /home/ssitaram/projects/tts_no_text/English/accEngCB//model_parameters/accEngCB.cd_cont_untied/mixture_weights
INFO: s3mixw_io.c(172): Read /home/ssitaram/projects/tts_no_text/English/accEngCB//model_parameters/accEngCB.cd_cont_untied/mixture_weights [576x1x1 array]
INFO: main.c(320): 192 of 192 models have observation count greater than 0.000010
INFO: main.c(94): nrm stwt: 0.952 0.048 0.000 
INFO: s3gau_io.c(166): Read /home/ssitaram/projects/tts_no_text/English/accEngCB//model_parameters/accEngCB.cd_cont_untied/means [24789x1x1 array]
INFO: s3gau_io.c(166): Read /home/ssitaram/projects/tts_no_text/English/accEngCB//model_parameters/accEngCB.cd_cont_untied/variances [24789x1x1 array]
INFO: main.c(576): Reading: /home/ssitaram/projects/tts_no_text/English/accEngCB//model_architecture/accEngCB.tree_questions
INFO: main.c(619): 180 total simple questions (172 phone; 8 word bndry)
INFO: main.c(621): 42 Left Only questions, and 42 Right Only questions
INFO: dtree.c(1524): Final simple tree
|( QUESTION2_0_L -1 -4.861e+05 3.530e+05 5.515e+04
|    ( QUESTION2_3_L -1 2.856e+05 1.099e+05 3.106e+04
|        ( - 3.208e+05 14 0 SILENCE 1 7.422e+03 1.456e+04)
|        ( SILENCE 1 7.468e+04 2.439e+04 1.650e+04
|            ( - 9.230e+04 6 0 QUESTION4 -1 1.744e+03 8.190e+03)
|            ( - 6.765e+03 42 0 QUESTION4 -1 1.523e+04 8.307e+03)))
|    ( QUESTION17 -1 -4.187e+05 5.478e+04 2.409e+04
|        ( SILENCE 1 -1.114e+05 3.700e+04 8.378e+03
|            ( - 5.059e+03 2 0)
|            ( - -7.947e+04 16 0 QUESTION14 1 7.363e+03 6.666e+03))
|        ( SILENCE -1 -2.525e+05 2.847e+04 1.571e+04
|            ( - -1.307e+02 8 0 QUESTION0_0_R 1 2.328e+02 1.051e+03)
|            ( SILENCE 1 -2.239e+05 2.645e+04 1.466e+04
|                ( - 6.902e+03 7 0 QUESTION14 -1 5.601e+02 1.275e+03)
|                ( - -2.043e+05 97 0 QUESTION2_18_L -1 1.865e+04 1.338e+04)))))
s>    ( QUESTION2_0_L -1 -4.861e+05 3.530e+05 5.515e+04
s>        ( QUESTION2_3_L -1 2.856e+05 1.099e+05 3.106e+04
s>            ( - 3.208e+05 14 0 SILENCE 1 7.422e+03 1.456e+04)
s>            ( SILENCE 1 7.468e+04 2.439e+04 1.650e+04
s>                ( - 9.230e+04 6 0 QUESTION4 -1 1.744e+03 8.190e+03)
s>                ( - 6.765e+03 42 0 QUESTION4 -1 1.523e+04 8.307e+03)))
s>        ( QUESTION17 -1 -4.187e+05 5.478e+04 2.409e+04
s>            ( SILENCE 1 -1.114e+05 3.700e+04 8.378e+03
s>                ( - 5.059e+03 2 0)
s>                ( - -7.947e+04 16 0 QUESTION14 1 7.363e+03 6.666e+03))
s>            ( SILENCE -1 -2.525e+05 2.847e+04 1.571e+04
s>                ( - -1.307e+02 8 0 QUESTION0_0_R 1 2.328e+02 1.051e+03)
s>                ( SILENCE 1 -2.239e+05 2.645e+04 1.466e+04
s>                    ( - 6.902e+03 7 0 QUESTION14 -1 5.601e+02 1.275e+03)
s>                    ( - -2.043e+05 97 0 QUESTION2_18_L -1 1.865e+04 1.338e+04)))))INFO: dtree.c(1351): Comp split 0
INFO: dtree.c(1524): Final simple tree
|( QUESTION2_3_L -1 2.888e+05 1.101e+05 3.405e+04
|    ( SILENCE 1 3.208e+05 7.422e+03 1.456e+04
|        ( - 1.492e+04 1 0)
|        ( - 3.133e+05 13 0 QUESTION14 1 1.014e+03 1.388e+04))
|    ( SILENCE 1 7.802e+04 2.451e+04 1.948e+04
|        ( QUESTION2_2_L -1 9.577e+04 7.398e+03 1.118e+04
|            ( - 9.224e+04 5 0 QUESTION4 -1 1.736e+03 8.169e+03)
|            ( - 1.092e+04 10 0 QUESTION15 -1 1.380e+03 3.008e+03))
|        ( QUESTION4 -1 6.765e+03 1.523e+04 8.307e+03
|            ( QUESTION15 1 -3.471e+03 2.833e+03 1.667e+03
|                ( - 2.780e+03 2 0 QUESTION0_17_R 1 1.337e+02 3.481e+02)
|                ( - -3.418e+03 6 0 QUESTION0_0_R 1 2.361e+02 1.319e+03))
|            ( QUESTION9 -1 2.546e+04 3.592e+03 6.639e+03
|                ( - 1.082e+04 12 0 QUESTION15 1 8.631e+02 1.797e+03)
|                ( - 1.823e+04 22 0 QUESTION14 1 1.777e+03 4.842e+03)))))
s>    ( QUESTION2_3_L -1 2.888e+05 1.101e+05 3.405e+04
s>        ( SILENCE 1 3.208e+05 7.422e+03 1.456e+04
s>            ( - 1.492e+04 1 0)
s>            ( - 3.133e+05 13 0 QUESTION14 1 1.014e+03 1.388e+04))
s>        ( SILENCE 1 7.802e+04 2.451e+04 1.948e+04
s>            ( QUESTION2_2_L -1 9.577e+04 7.398e+03 1.118e+04
s>                ( - 9.224e+04 5 0 QUESTION4 -1 1.736e+03 8.169e+03)
s>                ( - 1.092e+04 10 0 QUESTION15 -1 1.380e+03 3.008e+03))
s>            ( QUESTION4 -1 6.765e+03 1.523e+04 8.307e+03
s>                ( QUESTION15 1 -3.471e+03 2.833e+03 1.667e+03
s>                    ( - 2.780e+03 2 0 QUESTION0_17_R 1 1.337e+02 3.481e+02)
s>                    ( - -3.418e+03 6 0 QUESTION0_0_R 1 2.361e+02 1.319e+03))
s>                ( QUESTION9 -1 2.546e+04 3.592e+03 6.639e+03
s>                    ( - 1.082e+04 12 0 QUESTION15 1 8.631e+02 1.797e+03)
s>                    ( - 1.823e+04 22 0 QUESTION14 1 1.777e+03 4.842e+03)))))INFO: dtree.c(1524): Final simple tree
|( QUESTION17 -1 -3.784e+05 6.287e+04 2.110e+04
|    ( QUESTION14 1 -7.947e+04 7.363e+03 6.666e+03
|        ( - -4.910e+04 11 0 QUESTION0_17_R 1 1.908e+02 4.759e+03)
|        ( - -2.301e+04 5 0 QUESTION0_0_R 1 3.360e+02 1.907e+03))
|    ( SILENCE -1 -2.361e+05 3.162e+04 1.444e+04
|        ( - -1.307e+02 8 0 QUESTION0_0_R 1 2.328e+02 1.051e+03)
|        ( QUESTION2_18_L -1 -2.043e+05 1.865e+04 1.338e+04
|            ( QUESTION14 -1 -3.516e+04 6.435e+03 2.468e+03
|                ( - -1.483e+04 7 0 QUESTION14 1 6.254e+02 1.541e+03)
|                ( - -1.389e+04 10 0 QUESTION14 1 2.179e+03 9.278e+02))
|            ( QUESTION20 -1 -1.505e+05 1.335e+04 1.092e+04
|                ( - -1.515e+04 17 0 QUESTION20 1 6.699e+02 1.913e+03)
|                ( QUESTION15 1 -1.220e+05 7.630e+03 9.004e+03
|                    ( - -4.246e+04 18 0 QUESTION0_17_R 1 3.615e+03 2.690e+03)
|                    ( - -7.191e+04 45 0 QUESTION2_16_L -1 1.232e+03 6.314e+03))))))
s>    ( QUESTION17 -1 -3.784e+05 6.287e+04 2.110e+04
s>        ( QUESTION14 1 -7.947e+04 7.363e+03 6.666e+03
s>            ( - -4.910e+04 11 0 QUESTION0_17_R 1 1.908e+02 4.759e+03)
s>            ( - -2.301e+04 5 0 QUESTION0_0_R 1 3.360e+02 1.907e+03))
s>        ( SILENCE -1 -2.361e+05 3.162e+04 1.444e+04
s>            ( - -1.307e+02 8 0 QUESTION0_0_R 1 2.328e+02 1.051e+03)
s>            ( QUESTION2_18_L -1 -2.043e+05 1.865e+04 1.338e+04
s>                ( QUESTION14 -1 -3.516e+04 6.435e+03 2.468e+03
s>                    ( - -1.483e+04 7 0 QUESTION14 1 6.254e+02 1.541e+03)
s>                    ( - -1.389e+04 10 0 QUESTION14 1 2.179e+03 9.278e+02))
s>                ( QUESTION20 -1 -1.505e+05 1.335e+04 1.092e+04
s>                    ( - -1.515e+04 17 0 QUESTION20 1 6.699e+02 1.913e+03)
s>                    ( QUESTION15 1 -1.220e+05 7.630e+03 9.004e+03
s>                        ( - -4.246e+04 18 0 QUESTION0_17_R 1 3.615e+03 2.690e+03)
s>                        ( - -7.191e+04 45 0 QUESTION2_16_L -1 1.232e+03 6.314e+03))))))INFO: dtree.c(1351): Comp split 1
INFO: dtree.c(1483): stop. leaf nodes are specific
INFO: dtree.c(1524): Final simple tree
|( QUESTION14 1 3.133e+05 1.014e+03 1.388e+04
|    ( QUESTION1 -1 2.656e+05 6.239e+02 1.154e+04
|        ( - 1.167e+02 1 0)
|        ( - 2.661e+05 6 0))
|    ( QUESTION1 -1 4.876e+04 3.850e+02 2.340e+03
|        ( - 7.918e+01 1 0)
|        ( QUESTION0_3_R 1 4.907e+04 1.529e+02 2.337e+03
|            ( - 2.641e+03 1 0)
|            ( QUESTION0_17_R 1 4.658e+04 1.338e+02 2.214e+03
|                ( - 1.215e+03 1 0)
|                ( QUESTION0_0_R 1 4.550e+04 1.254e+02 2.162e+03
|                    ( - 8.895e+02 1 0)
|                    ( - 4.473e+04 2 0))))))
s>    ( QUESTION14 1 3.133e+05 1.014e+03 1.388e+04
s>        ( QUESTION1 -1 2.656e+05 6.239e+02 1.154e+04
s>            ( - 1.167e+02 1 0)
s>            ( - 2.661e+05 6 0))
s>        ( QUESTION1 -1 4.876e+04 3.850e+02 2.340e+03
s>            ( - 7.918e+01 1 0)
s>            ( QUESTION0_3_R 1 4.907e+04 1.529e+02 2.337e+03
s>                ( - 2.641e+03 1 0)
s>                ( QUESTION0_17_R 1 4.658e+04 1.338e+02 2.214e+03
s>                    ( - 1.215e+03 1 0)
s>                    ( QUESTION0_0_R 1 4.550e+04 1.254e+02 2.162e+03
s>                        ( - 8.895e+02 1 0)
s>                        ( - 4.473e+04 2 0))))))INFO: dtree.c(1524): Final simple tree
|( SILENCE 1 8.818e+04 2.593e+04 2.017e+04
|    ( QUESTION2_2_L -1 1.073e+05 8.193e+03 1.186e+04
|        ( QUESTION9 -1 1.046e+05 2.546e+03 8.855e+03
|            ( - 1.492e+04 1 0)
|            ( - 9.224e+04 5 0 QUESTION4 -1 1.736e+03 8.169e+03))
|        ( - 1.092e+04 10 0 QUESTION15 -1 1.380e+03 3.008e+03))
|    ( QUESTION4 -1 6.765e+03 1.523e+04 8.307e+03
|        ( QUESTION15 1 -3.471e+03 2.833e+03 1.667e+03
|            ( - 2.780e+03 2 0 QUESTION0_17_R 1 1.337e+02 3.481e+02)
|            ( - -3.418e+03 6 0 QUESTION0_0_R 1 2.361e+02 1.319e+03))
|        ( QUESTION9 -1 2.546e+04 3.592e+03 6.639e+03
|            ( - 1.082e+04 12 0 QUESTION15 1 8.631e+02 1.797e+03)
|            ( QUESTION14 1 1.823e+04 1.777e+03 4.842e+03
|                ( - 1.025e+04 15 0 QUESTION3 -1 9.429e+02 3.373e+03)
|                ( - 9.759e+03 7 0 QUESTION2_12_L -1 1.018e+03 1.469e+03)))))
s>    ( SILENCE 1 8.818e+04 2.593e+04 2.017e+04
s>        ( QUESTION2_2_L -1 1.073e+05 8.193e+03 1.186e+04
s>            ( QUESTION9 -1 1.046e+05 2.546e+03 8.855e+03
s>                ( - 1.492e+04 1 0)
s>                ( - 9.224e+04 5 0 QUESTION4 -1 1.736e+03 8.169e+03))
s>            ( - 1.092e+04 10 0 QUESTION15 -1 1.380e+03 3.008e+03))
s>        ( QUESTION4 -1 6.765e+03 1.523e+04 8.307e+03
s>            ( QUESTION15 1 -3.471e+03 2.833e+03 1.667e+03
s>                ( - 2.780e+03 2 0 QUESTION0_17_R 1 1.337e+02 3.481e+02)
s>                ( - -3.418e+03 6 0 QUESTION0_0_R 1 2.361e+02 1.319e+03))
s>            ( QUESTION9 -1 2.546e+04 3.592e+03 6.639e+03
s>                ( - 1.082e+04 12 0 QUESTION15 1 8.631e+02 1.797e+03)
s>                ( QUESTION14 1 1.823e+04 1.777e+03 4.842e+03
s>                    ( - 1.025e+04 15 0 QUESTION3 -1 9.429e+02 3.373e+03)
s>                    ( - 9.759e+03 7 0 QUESTION2_12_L -1 1.018e+03 1.469e+03)))))INFO: dtree.c(1351): Comp split 2
INFO: dtree.c(1524): Final simple tree
|( QUESTION2_18_L -1 -2.043e+05 1.865e+04 1.338e+04
|    ( QUESTION14 -1 -3.516e+04 6.435e+03 2.468e+03
|        ( - -1.483e+04 7 0 QUESTION14 1 6.254e+02 1.541e+03)
|        ( QUESTION14 1 -1.389e+04 2.179e+03 9.278e+02
|            ( - -9.216e+03 8 0)
|            ( - -2.498e+03 2 0)))
|    ( QUESTION20 -1 -1.505e+05 1.335e+04 1.092e+04
|        ( - -1.515e+04 17 0 QUESTION20 1 6.699e+02 1.913e+03)
|        ( QUESTION15 1 -1.220e+05 7.630e+03 9.004e+03
|            ( QUESTION0_17_R 1 -4.246e+04 3.615e+03 2.690e+03
|                ( - -4.905e+01 4 0)
|                ( QUESTION2_16_L -1 -3.879e+04 1.408e+03 2.376e+03
|                    ( - -3.508e+04 10 0 QUESTION0 -1 2.468e+02 2.216e+03)
|                    ( - -2.300e+03 4 0 QUESTION14 -1 6.042e+02 1.596e+02)))
|            ( - -7.191e+04 45 0 QUESTION2_16_L -1 1.232e+03 6.314e+03))))
s>    ( QUESTION2_18_L -1 -2.043e+05 1.865e+04 1.338e+04
s>        ( QUESTION14 -1 -3.516e+04 6.435e+03 2.468e+03
s>            ( - -1.483e+04 7 0 QUESTION14 1 6.254e+02 1.541e+03)
s>            ( QUESTION14 1 -1.389e+04 2.179e+03 9.278e+02
s>                ( - -9.216e+03 8 0)
s>                ( - -2.498e+03 2 0)))
s>        ( QUESTION20 -1 -1.505e+05 1.335e+04 1.092e+04
s>            ( - -1.515e+04 17 0 QUESTION20 1 6.699e+02 1.913e+03)
s>            ( QUESTION15 1 -1.220e+05 7.630e+03 9.004e+03
s>                ( QUESTION0_17_R 1 -4.246e+04 3.615e+03 2.690e+03
s>                    ( - -4.905e+01 4 0)
s>                    ( QUESTION2_16_L -1 -3.879e+04 1.408e+03 2.376e+03
s>                        ( - -3.508e+04 10 0 QUESTION0 -1 2.468e+02 2.216e+03)
s>                        ( - -2.300e+03 4 0 QUESTION14 -1 6.042e+02 1.596e+02)))
s>                ( - -7.191e+04 45 0 QUESTION2_16_L -1 1.232e+03 6.314e+03))))INFO: dtree.c(1524): Final simple tree
|( SILENCE -1 -1.066e+05 2.695e+04 7.716e+03
|    ( QUESTION0_0_R 1 -1.307e+02 2.328e+02 1.051e+03
|        ( - 2.384e+02 1 0)
|        ( QUESTION14 1 -1.364e+02 1.402e+02 1.050e+03
|            ( - -5.110e+01 5 0)
|            ( - 5.496e+01 2 0)))
|    ( QUESTION14 1 -7.947e+04 7.363e+03 6.666e+03
|        ( QUESTION0_17_R 1 -4.910e+04 1.908e+02 4.759e+03
|            ( - 4.258e+01 1 0)
|            ( - -4.895e+04 10 0))
|        ( QUESTION0_0_R 1 -2.301e+04 3.360e+02 1.907e+03
|            ( - -5.624e+02 1 0)
|            ( QUESTION0_17_R 1 -2.211e+04 9.699e+01 1.851e+03
|                ( - 7.654e+01 1 0)
|                ( - -2.209e+04 3 0)))))
s>    ( SILENCE -1 -1.066e+05 2.695e+04 7.716e+03
s>        ( QUESTION0_0_R 1 -1.307e+02 2.328e+02 1.051e+03
s>            ( - 2.384e+02 1 0)
s>            ( QUESTION14 1 -1.364e+02 1.402e+02 1.050e+03
s>                ( - -5.110e+01 5 0)
s>                ( - 5.496e+01 2 0)))
s>        ( QUESTION14 1 -7.947e+04 7.363e+03 6.666e+03
s>            ( QUESTION0_17_R 1 -4.910e+04 1.908e+02 4.759e+03
s>                ( - 4.258e+01 1 0)
s>                ( - -4.895e+04 10 0))
s>            ( QUESTION0_0_R 1 -2.301e+04 3.360e+02 1.907e+03
s>                ( - -5.624e+02 1 0)
s>                ( QUESTION0_17_R 1 -2.211e+04 9.699e+01 1.851e+03
s>                    ( - 7.654e+01 1 0)
s>                    ( - -2.209e+04 3 0)))))INFO: dtree.c(1351): Comp split 3
INFO: dtree.c(1483): stop. leaf nodes are specific
INFO: dtree.c(1524): Final simple tree
|( QUESTION0_0_R 1 -3.418e+03 2.361e+02 1.319e+03
|    ( - 2.573e+01 1 0)
|    ( - -3.207e+03 5 0))
s>    ( QUESTION0_0_R 1 -3.418e+03 2.361e+02 1.319e+03
s>        ( - 2.573e+01 1 0)
s>        ( - -3.207e+03 5 0))INFO: dtree.c(1524): Final simple tree
|( SILENCE 1 1.197e+05 1.524e+04 1.885e+04
|    ( QUESTION2_2_L -1 1.073e+05 8.193e+03 1.186e+04
|        ( QUESTION9 -1 1.046e+05 2.546e+03 8.855e+03
|            ( - 1.492e+04 1 0)
|            ( QUESTION4 -1 9.224e+04 1.736e+03 8.169e+03
|                ( - 2.680e+04 1 0)
|                ( - 6.718e+04 4 0 QUESTION3 -1 9.969e+02 5.280e+03)))
|        ( - 1.092e+04 10 0 QUESTION15 -1 1.380e+03 3.008e+03))
|    ( QUESTION8 -1 2.759e+04 3.474e+03 6.987e+03
|        ( QUESTION2_12_L -1 1.861e+04 1.927e+03 4.616e+03
|            ( - 7.574e+02 6 0 QUESTION15 1 3.674e+02 4.249e+02)
|            ( QUESTION14 1 1.977e+04 1.529e+03 4.191e+03
|                ( - 1.184e+04 6 0)
|                ( - 9.466e+03 4 0 QUESTION0_0_R 1 1.603e+02 1.117e+03)))
|        ( - 1.246e+04 20 0 QUESTION2_6_L -1 1.184e+03 2.371e+03)))
s>    ( SILENCE 1 1.197e+05 1.524e+04 1.885e+04
s>        ( QUESTION2_2_L -1 1.073e+05 8.193e+03 1.186e+04
s>            ( QUESTION9 -1 1.046e+05 2.546e+03 8.855e+03
s>                ( - 1.492e+04 1 0)
s>                ( QUESTION4 -1 9.224e+04 1.736e+03 8.169e+03
s>                    ( - 2.680e+04 1 0)
s>                    ( - 6.718e+04 4 0 QUESTION3 -1 9.969e+02 5.280e+03)))
s>            ( - 1.092e+04 10 0 QUESTION15 -1 1.380e+03 3.008e+03))
s>        ( QUESTION8 -1 2.759e+04 3.474e+03 6.987e+03
s>            ( QUESTION2_12_L -1 1.861e+04 1.927e+03 4.616e+03
s>                ( - 7.574e+02 6 0 QUESTION15 1 3.674e+02 4.249e+02)
s>                ( QUESTION14 1 1.977e+04 1.529e+03 4.191e+03
s>                    ( - 1.184e+04 6 0)
s>                    ( - 9.466e+03 4 0 QUESTION0_0_R 1 1.603e+02 1.117e+03)))
s>            ( - 1.246e+04 20 0 QUESTION2_6_L -1 1.184e+03 2.371e+03)))INFO: dtree.c(1351): Comp split 4
INFO: dtree.c(1483): stop. leaf nodes are specific
INFO: dtree.c(1524): Final simple tree
|( QUESTION14 1 -7.947e+04 7.363e+03 6.666e+03
|    ( QUESTION0_17_R 1 -4.910e+04 1.908e+02 4.759e+03
|        ( - 4.258e+01 1 0)
|        ( - -4.895e+04 10 0))
|    ( QUESTION0_0_R 1 -2.301e+04 3.360e+02 1.907e+03
|        ( - -5.624e+02 1 0)
|        ( QUESTION0_17_R 1 -2.211e+04 9.699e+01 1.851e+03
|            ( - 7.654e+01 1 0)
|            ( - -2.209e+04 3 0))))
s>    ( QUESTION14 1 -7.947e+04 7.363e+03 6.666e+03
s>        ( QUESTION0_17_R 1 -4.910e+04 1.908e+02 4.759e+03
s>            ( - 4.258e+01 1 0)
s>            ( - -4.895e+04 10 0))
s>        ( QUESTION0_0_R 1 -2.301e+04 3.360e+02 1.907e+03
s>            ( - -5.624e+02 1 0)
s>            ( QUESTION0_17_R 1 -2.211e+04 9.699e+01 1.851e+03
s>                ( - 7.654e+01 1 0)
s>                ( - -2.209e+04 3 0))))INFO: dtree.c(1483): stop. leaf nodes are specific
INFO: dtree.c(1524): Final simple tree
|( QUESTION0_0_R 1 -1.307e+02 2.328e+02 1.051e+03
|    ( - 2.384e+02 1 0)
|    ( QUESTION14 1 -1.364e+02 1.402e+02 1.050e+03
|        ( - -5.110e+01 5 0)
|        ( - 5.496e+01 2 0)))
s>    ( QUESTION0_0_R 1 -1.307e+02 2.328e+02 1.051e+03
s>        ( - 2.384e+02 1 0)
s>        ( QUESTION14 1 -1.364e+02 1.402e+02 1.050e+03
s>            ( - -5.110e+01 5 0)
s>            ( - 5.496e+01 2 0)))INFO: dtree.c(1351): Comp split 5
INFO: dtree.c(1524): Final simple tree
|( QUESTION20 -1 -1.505e+05 1.335e+04 1.092e+04
|    ( QUESTION20 1 -1.515e+04 6.699e+02 1.913e+03
|        ( - -4.276e+03 3 0)
|        ( - -1.021e+04 14 0 QUESTION0_17_R 1 2.979e+02 1.277e+03))
|    ( QUESTION15 1 -1.220e+05 7.630e+03 9.004e+03
|        ( QUESTION0_17_R 1 -4.246e+04 3.615e+03 2.690e+03
|            ( - -4.905e+01 4 0)
|            ( QUESTION2_16_L -1 -3.879e+04 1.408e+03 2.376e+03
|                ( - -3.508e+04 10 0 QUESTION0 -1 2.468e+02 2.216e+03)
|                ( - -2.300e+03 4 0 QUESTION14 -1 6.042e+02 1.596e+02)))
|        ( QUESTION2_16_L -1 -7.191e+04 1.232e+03 6.314e+03
|            ( - -6.761e+04 32 0 QUESTION0 -1 3.974e+02 6.053e+03)
|            ( QUESTION14 -1 -3.067e+03 6.921e+02 2.608e+02
|                ( - -1.580e+03 8 0 QUESTION0_0_R 1 2.695e+02 1.777e+02)
|                ( - -7.956e+02 5 0)))))
s>    ( QUESTION20 -1 -1.505e+05 1.335e+04 1.092e+04
s>        ( QUESTION20 1 -1.515e+04 6.699e+02 1.913e+03
s>            ( - -4.276e+03 3 0)
s>            ( - -1.021e+04 14 0 QUESTION0_17_R 1 2.979e+02 1.277e+03))
s>        ( QUESTION15 1 -1.220e+05 7.630e+03 9.004e+03
s>            ( QUESTION0_17_R 1 -4.246e+04 3.615e+03 2.690e+03
s>                ( - -4.905e+01 4 0)
s>                ( QUESTION2_16_L -1 -3.879e+04 1.408e+03 2.376e+03
s>                    ( - -3.508e+04 10 0 QUESTION0 -1 2.468e+02 2.216e+03)
s>                    ( - -2.300e+03 4 0 QUESTION14 -1 6.042e+02 1.596e+02)))
s>            ( QUESTION2_16_L -1 -7.191e+04 1.232e+03 6.314e+03
s>                ( - -6.761e+04 32 0 QUESTION0 -1 3.974e+02 6.053e+03)
s>                ( QUESTION14 -1 -3.067e+03 6.921e+02 2.608e+02
s>                    ( - -1.580e+03 8 0 QUESTION0_0_R 1 2.695e+02 1.777e+02)
s>                    ( - -7.956e+02 5 0)))))INFO: dtree.c(1483): stop. leaf nodes are specific
INFO: dtree.c(1524): Final simple tree
|( QUESTION14 -1 -3.516e+04 6.435e+03 2.468e+03
|    ( QUESTION14 1 -1.483e+04 6.254e+02 1.541e+03
|        ( - -1.276e+04 5 0)
|        ( - -1.452e+03 2 0))
|    ( QUESTION14 1 -1.389e+04 2.179e+03 9.278e+02
|        ( - -9.216e+03 8 0)
|        ( - -2.498e+03 2 0)))
s>    ( QUESTION14 -1 -3.516e+04 6.435e+03 2.468e+03
s>        ( QUESTION14 1 -1.483e+04 6.254e+02 1.541e+03
s>            ( - -1.276e+04 5 0)
s>            ( - -1.452e+03 2 0))
s>        ( QUESTION14 1 -1.389e+04 2.179e+03 9.278e+02
s>            ( - -9.216e+03 8 0)
s>            ( - -2.498e+03 2 0)))INFO: dtree.c(1351): Comp split 6
INFO: dtree.c(1483): stop. leaf nodes are specific
INFO: dtree.c(1524): Final simple tree
|( QUESTION9 -1 1.046e+05 2.546e+03 8.855e+03
|    ( - 1.492e+04 1 0)
|    ( QUESTION4 -1 9.224e+04 1.736e+03 8.169e+03
|        ( - 2.680e+04 1 0)
|        ( QUESTION3 -1 6.718e+04 9.969e+02 5.280e+03
|            ( QUESTION6 -1 7.898e+03 5.157e+02 4.281e+02
|                ( - 1.108e+03 1 0)
|                ( - 7.305e+03 1 0))
|            ( QUESTION2_12_L -1 6.028e+04 2.066e+02 4.851e+03
|                ( - 1.951e+03 1 0)
|                ( - 5.853e+04 1 0)))))
s>    ( QUESTION9 -1 1.046e+05 2.546e+03 8.855e+03
s>        ( - 1.492e+04 1 0)
s>        ( QUESTION4 -1 9.224e+04 1.736e+03 8.169e+03
s>            ( - 2.680e+04 1 0)
s>            ( QUESTION3 -1 6.718e+04 9.969e+02 5.280e+03
s>                ( QUESTION6 -1 7.898e+03 5.157e+02 4.281e+02
s>                    ( - 1.108e+03 1 0)
s>                    ( - 7.305e+03 1 0))
s>                ( QUESTION2_12_L -1 6.028e+04 2.066e+02 4.851e+03
s>                    ( - 1.951e+03 1 0)
s>                    ( - 5.853e+04 1 0)))))INFO: dtree.c(1524): Final simple tree
|( QUESTION0 -1 3.209e+04 6.511e+03 9.995e+03
|    ( QUESTION8 -1 2.775e+04 3.506e+03 7.008e+03
|        ( QUESTION2_12_L -1 1.861e+04 1.927e+03 4.616e+03
|            ( - 7.574e+02 6 0 QUESTION15 1 3.674e+02 4.249e+02)
|            ( QUESTION14 1 1.977e+04 1.529e+03 4.191e+03
|                ( - 1.184e+04 6 0)
|                ( - 9.466e+03 4 0 QUESTION0_0_R 1 1.603e+02 1.117e+03)))
|        ( QUESTION2_6_L -1 1.265e+04 1.179e+03 2.392e+03
|            ( - 2.807e+03 9 0 QUESTION14 1 6.362e+02 5.801e+02)
|            ( QUESTION15 1 1.102e+04 8.719e+02 1.812e+03
|                ( - 3.038e+03 5 0 QUESTION0_19_R 1 3.989e+02 4.513e+02)
|                ( - 8.854e+03 7 0 QUESTION10 -1 2.578e+02 1.360e+03))))
|    ( QUESTION14 -1 1.085e+04 1.304e+03 2.988e+03
|        ( - 7.391e+03 5 0 QUESTION2_16_L -1 2.820e+02 1.063e+03)
|        ( - 4.768e+03 4 0 QUESTION16 -1 3.627e+02 1.924e+03)))
s>    ( QUESTION0 -1 3.209e+04 6.511e+03 9.995e+03
s>        ( QUESTION8 -1 2.775e+04 3.506e+03 7.008e+03
s>            ( QUESTION2_12_L -1 1.861e+04 1.927e+03 4.616e+03
s>                ( - 7.574e+02 6 0 QUESTION15 1 3.674e+02 4.249e+02)
s>                ( QUESTION14 1 1.977e+04 1.529e+03 4.191e+03
s>                    ( - 1.184e+04 6 0)
s>                    ( - 9.466e+03 4 0 QUESTION0_0_R 1 1.603e+02 1.117e+03)))
s>            ( QUESTION2_6_L -1 1.265e+04 1.179e+03 2.392e+03
s>                ( - 2.807e+03 9 0 QUESTION14 1 6.362e+02 5.801e+02)
s>                ( QUESTION15 1 1.102e+04 8.719e+02 1.812e+03
s>                    ( - 3.038e+03 5 0 QUESTION0_19_R 1 3.989e+02 4.513e+02)
s>                    ( - 8.854e+03 7 0 QUESTION10 -1 2.578e+02 1.360e+03))))
s>        ( QUESTION14 -1 1.085e+04 1.304e+03 2.988e+03
s>            ( - 7.391e+03 5 0 QUESTION2_16_L -1 2.820e+02 1.063e+03)
s>            ( - 4.768e+03 4 0 QUESTION16 -1 3.627e+02 1.924e+03)))INFO: dtree.c(1351): Comp split 7
INFO: dtree.c(1483): stop. leaf nodes are specific
INFO: dtree.c(1524): Final simple tree
|( QUESTION20 1 -1.515e+04 6.699e+02 1.913e+03
|    ( - -4.276e+03 3 0)
|    ( QUESTION0_17_R 1 -1.021e+04 2.979e+02 1.277e+03
|        ( - 2.731e+02 2 0)
|        ( QUESTION0_0_R 1 -1.018e+04 1.224e+02 1.253e+03
|            ( - 7.881e+01 1 0)
|            ( - -1.014e+04 11 0))))
s>    ( QUESTION20 1 -1.515e+04 6.699e+02 1.913e+03
s>        ( - -4.276e+03 3 0)
s>        ( QUESTION0_17_R 1 -1.021e+04 2.979e+02 1.277e+03
s>            ( - 2.731e+02 2 0)
s>            ( QUESTION0_0_R 1 -1.018e+04 1.224e+02 1.253e+03
s>                ( - 7.881e+01 1 0)
s>                ( - -1.014e+04 11 0))))INFO: dtree.c(1524): Final simple tree
|( QUESTION15 1 -1.220e+05 7.630e+03 9.004e+03
|    ( QUESTION0_17_R 1 -4.246e+04 3.615e+03 2.690e+03
|        ( - -4.905e+01 4 0)
|        ( QUESTION2_16_L -1 -3.879e+04 1.408e+03 2.376e+03
|            ( - -3.508e+04 10 0 QUESTION0 -1 2.468e+02 2.216e+03)
|            ( QUESTION14 -1 -2.300e+03 6.042e+02 1.596e+02
|                ( - -7.233e+02 3 0)
|                ( - -9.725e+02 1 0))))
|    ( QUESTION2_16_L -1 -7.191e+04 1.232e+03 6.314e+03
|        ( QUESTION0 -1 -6.761e+04 3.974e+02 6.053e+03
|            ( - -6.645e+02 4 0 QUESTION0_0_R 1 8.925e+01 5.849e+01)
|            ( - -6.655e+04 28 0 QUESTION0_20_R 1 2.906e+02 5.995e+03))
|        ( QUESTION14 -1 -3.067e+03 6.921e+02 2.608e+02
|            ( - -1.580e+03 8 0 QUESTION0_0_R 1 2.695e+02 1.777e+02)
|            ( - -7.956e+02 5 0))))
s>    ( QUESTION15 1 -1.220e+05 7.630e+03 9.004e+03
s>        ( QUESTION0_17_R 1 -4.246e+04 3.615e+03 2.690e+03
s>            ( - -4.905e+01 4 0)
s>            ( QUESTION2_16_L -1 -3.879e+04 1.408e+03 2.376e+03
s>                ( - -3.508e+04 10 0 QUESTION0 -1 2.468e+02 2.216e+03)
s>                ( QUESTION14 -1 -2.300e+03 6.042e+02 1.596e+02
s>                    ( - -7.233e+02 3 0)
s>                    ( - -9.725e+02 1 0))))
s>        ( QUESTION2_16_L -1 -7.191e+04 1.232e+03 6.314e+03
s>            ( QUESTION0 -1 -6.761e+04 3.974e+02 6.053e+03
s>                ( - -6.645e+02 4 0 QUESTION0_0_R 1 8.925e+01 5.849e+01)
s>                ( - -6.655e+04 28 0 QUESTION0_20_R 1 2.906e+02 5.995e+03))
s>            ( QUESTION14 -1 -3.067e+03 6.921e+02 2.608e+02
s>                ( - -1.580e+03 8 0 QUESTION0_0_R 1 2.695e+02 1.777e+02)
s>                ( - -7.956e+02 5 0))))INFO: dtree.c(1351): Comp split 8
INFO: dtree.c(1483): stop. leaf nodes are specific
INFO: dtree.c(1524): Final simple tree
|( QUESTION14 -1 -7.272e+04 1.790e+03 6.328e+03
|    ( QUESTION2_16_L -1 -6.898e+04 8.529e+02 6.172e+03
|        ( QUESTION0_20_R 1 -6.655e+04 2.906e+02 5.995e+03
|            ( - -6.540e+04 24 0)
|            ( QUESTION0_0_R 1 -8.640e+02 1.025e+02 6.391e+01
|                ( - -8.108e+02 3 0)
|                ( - 4.939e+01 1 0)))
|        ( QUESTION0_0_R 1 -1.580e+03 2.695e+02 1.777e+02
|            ( - 2.400e+02 1 0)
|            ( - -1.550e+03 7 0)))
|    ( QUESTION14 1 -1.947e+03 1.789e+02 1.551e+02
|        ( - -7.956e+02 5 0)
|        ( - -9.725e+02 1 0)))
s>    ( QUESTION14 -1 -7.272e+04 1.790e+03 6.328e+03
s>        ( QUESTION2_16_L -1 -6.898e+04 8.529e+02 6.172e+03
s>            ( QUESTION0_20_R 1 -6.655e+04 2.906e+02 5.995e+03
s>                ( - -6.540e+04 24 0)
s>                ( QUESTION0_0_R 1 -8.640e+02 1.025e+02 6.391e+01
s>                    ( - -8.108e+02 3 0)
s>                    ( - 4.939e+01 1 0)))
s>            ( QUESTION0_0_R 1 -1.580e+03 2.695e+02 1.777e+02
s>                ( - 2.400e+02 1 0)
s>                ( - -1.550e+03 7 0)))
s>        ( QUESTION14 1 -1.947e+03 1.789e+02 1.551e+02
s>            ( - -7.956e+02 5 0)
s>            ( - -9.725e+02 1 0)))INFO: dtree.c(1483): stop. leaf nodes are specific
INFO: dtree.c(1524): Final simple tree
|( QUESTION0_17_R 1 -4.147e+04 3.545e+03 2.676e+03
|    ( - -4.905e+01 4 0)
|    ( QUESTION2_16_L -1 -3.788e+04 1.035e+03 2.362e+03
|        ( QUESTION0 -1 -3.612e+04 4.760e+02 2.275e+03
|            ( QUESTION15 1 -9.010e+02 1.426e+02 8.456e+01
|                ( - -9.393e+01 1 0)
|                ( QUESTION0_0_R 1 -6.645e+02 8.925e+01 5.849e+01
|                    ( - 3.833e+01 1 0)
|                    ( - -6.136e+02 3 0)))
|            ( QUESTION0_0_R 1 -3.474e+04 9.902e+01 2.190e+03
|                ( - 6.666e+01 1 0)
|                ( - -3.471e+04 8 0)))
|        ( - -7.233e+02 3 0)))
s>    ( QUESTION0_17_R 1 -4.147e+04 3.545e+03 2.676e+03
s>        ( - -4.905e+01 4 0)
s>        ( QUESTION2_16_L -1 -3.788e+04 1.035e+03 2.362e+03
s>            ( QUESTION0 -1 -3.612e+04 4.760e+02 2.275e+03
s>                ( QUESTION15 1 -9.010e+02 1.426e+02 8.456e+01
s>                    ( - -9.393e+01 1 0)
s>                    ( QUESTION0_0_R 1 -6.645e+02 8.925e+01 5.849e+01
s>                        ( - 3.833e+01 1 0)
s>                        ( - -6.136e+02 3 0)))
s>                ( QUESTION0_0_R 1 -3.474e+04 9.902e+01 2.190e+03
s>                    ( - 6.666e+01 1 0)
s>                    ( - -3.471e+04 8 0)))
s>            ( - -7.233e+02 3 0)))INFO: dtree.c(1351): Comp split 9
INFO: dtree.c(1483): stop. leaf nodes are specific
INFO: dtree.c(1524): Final simple tree
|( QUESTION15 1 -2.311e+04 3.799e+02 1.914e+03
|    ( QUESTION0_17_R 1 -2.211e+04 9.699e+01 1.851e+03
|        ( - 7.654e+01 1 0)
|        ( - -2.209e+04 3 0))
|    ( QUESTION0_0_R 1 -6.161e+02 9.626e+01 6.254e+01
|        ( - -5.624e+02 1 0)
|        ( - 4.258e+01 1 0)))
s>    ( QUESTION15 1 -2.311e+04 3.799e+02 1.914e+03
s>        ( QUESTION0_17_R 1 -2.211e+04 9.699e+01 1.851e+03
s>            ( - 7.654e+01 1 0)
s>            ( - -2.209e+04 3 0))
s>        ( QUESTION0_0_R 1 -6.161e+02 9.626e+01 6.254e+01
s>            ( - -5.624e+02 1 0)
s>            ( - 4.258e+01 1 0)))INFO: dtree.c(1351): Comp split 10
INFO: dtree.c(1524): Final simple tree
|( QUESTION8 -1 2.775e+04 3.506e+03 7.008e+03
|    ( QUESTION2_12_L -1 1.861e+04 1.927e+03 4.616e+03
|        ( - 7.574e+02 6 0 QUESTION15 1 3.674e+02 4.249e+02)
|        ( QUESTION14 1 1.977e+04 1.529e+03 4.191e+03
|            ( - 1.184e+04 6 0)
|            ( - 9.466e+03 4 0 QUESTION0_0_R 1 1.603e+02 1.117e+03)))
|    ( QUESTION2_6_L -1 1.265e+04 1.179e+03 2.392e+03
|        ( QUESTION14 1 2.807e+03 6.362e+02 5.801e+02
|            ( - -2.122e+02 5 0 QUESTION6 -1 1.561e+02 8.858e+01)
|            ( - 3.656e+03 4 0 QUESTION5 -1 2.062e+02 4.915e+02))
|        ( QUESTION15 1 1.102e+04 8.719e+02 1.812e+03
|            ( QUESTION0_19_R 1 3.038e+03 3.989e+02 4.513e+02
|                ( - 6.298e+02 1 0)
|                ( - 2.807e+03 4 0 QUESTION17 1 2.329e+02 4.183e+02))
|            ( - 8.854e+03 7 0 QUESTION10 -1 2.578e+02 1.360e+03))))
s>    ( QUESTION8 -1 2.775e+04 3.506e+03 7.008e+03
s>        ( QUESTION2_12_L -1 1.861e+04 1.927e+03 4.616e+03
s>            ( - 7.574e+02 6 0 QUESTION15 1 3.674e+02 4.249e+02)
s>            ( QUESTION14 1 1.977e+04 1.529e+03 4.191e+03
s>                ( - 1.184e+04 6 0)
s>                ( - 9.466e+03 4 0 QUESTION0_0_R 1 1.603e+02 1.117e+03)))
s>        ( QUESTION2_6_L -1 1.265e+04 1.179e+03 2.392e+03
s>            ( QUESTION14 1 2.807e+03 6.362e+02 5.801e+02
s>                ( - -2.122e+02 5 0 QUESTION6 -1 1.561e+02 8.858e+01)
s>                ( - 3.656e+03 4 0 QUESTION5 -1 2.062e+02 4.915e+02))
s>            ( QUESTION15 1 1.102e+04 8.719e+02 1.812e+03
s>                ( QUESTION0_19_R 1 3.038e+03 3.989e+02 4.513e+02
s>                    ( - 6.298e+02 1 0)
s>                    ( - 2.807e+03 4 0 QUESTION17 1 2.329e+02 4.183e+02))
s>                ( - 8.854e+03 7 0 QUESTION10 -1 2.578e+02 1.360e+03))))INFO: dtree.c(1483): stop. leaf nodes are specific
INFO: dtree.c(1524): Final simple tree
|( QUESTION14 -1 1.085e+04 1.304e+03 2.988e+03
|    ( QUESTION2_16_L -1 7.391e+03 2.820e+02 1.063e+03
|        ( - 7.019e+03 4 0)
|        ( - 6.533e+02 1 0))
|    ( QUESTION16 -1 4.768e+03 3.627e+02 1.924e+03
|        ( - 5.059e+03 2 0)
|        ( - 7.152e+01 2 0)))
s>    ( QUESTION14 -1 1.085e+04 1.304e+03 2.988e+03
s>        ( QUESTION2_16_L -1 7.391e+03 2.820e+02 1.063e+03
s>            ( - 7.019e+03 4 0)
s>            ( - 6.533e+02 1 0))
s>        ( QUESTION16 -1 4.768e+03 3.627e+02 1.924e+03
s>            ( - 5.059e+03 2 0)
s>            ( - 7.152e+01 2 0)))INFO: dtree.c(1351): Comp split 11
INFO: dtree.c(1483): stop. leaf nodes are specific
INFO: dtree.c(1524): Final simple tree
|( QUESTION14 1 -1.389e+04 2.179e+03 9.278e+02
|    ( - -9.216e+03 8 0)
|    ( - -2.498e+03 2 0))
s>    ( QUESTION14 1 -1.389e+04 2.179e+03 9.278e+02
s>        ( - -9.216e+03 8 0)
s>        ( - -2.498e+03 2 0))INFO: dtree.c(1483): stop. leaf nodes are specific
INFO: dtree.c(1524): Final simple tree
|( QUESTION14 1 -1.483e+04 6.254e+02 1.541e+03
|    ( - -1.276e+04 5 0)
|    ( - -1.452e+03 2 0))
s>    ( QUESTION14 1 -1.483e+04 6.254e+02 1.541e+03
s>        ( - -1.276e+04 5 0)
s>        ( - -1.452e+03 2 0))INFO: dtree.c(1351): Comp split 12
INFO: dtree.c(1483): stop. leaf nodes are specific
INFO: dtree.c(1524): Final simple tree
|( QUESTION14 1 1.977e+04 1.529e+03 4.191e+03
|    ( - 1.184e+04 6 0)
|    ( QUESTION0_0_R 1 9.466e+03 1.603e+02 1.117e+03
|        ( - 4.380e+02 1 0)
|        ( QUESTION0_17_R 1 9.189e+03 1.463e+02 1.092e+03
|            ( - 1.153e+02 1 0)
|            ( - 9.220e+03 2 0))))
s>    ( QUESTION14 1 1.977e+04 1.529e+03 4.191e+03
s>        ( - 1.184e+04 6 0)
s>        ( QUESTION0_0_R 1 9.466e+03 1.603e+02 1.117e+03
s>            ( - 4.380e+02 1 0)
s>            ( QUESTION0_17_R 1 9.189e+03 1.463e+02 1.092e+03
s>                ( - 1.153e+02 1 0)
s>                ( - 9.220e+03 2 0))))INFO: dtree.c(1524): Final simple tree
|( QUESTION2_6_L -1 1.202e+04 1.978e+03 2.816e+03
|    ( QUESTION4 -1 2.978e+03 6.463e+02 1.005e+03
|        ( - 2.780e+03 2 0 QUESTION0_17_R 1 1.337e+02 3.481e+02)
|        ( QUESTION3 -1 8.440e+02 3.759e+02 6.569e+02
|            ( QUESTION14 1 4.701e+02 4.131e+02 2.260e+02
|                ( - -2.122e+02 5 0 QUESTION6 -1 1.561e+02 8.858e+01)
|                ( - 1.095e+03 1 0))
|            ( QUESTION15 1 7.498e+02 3.639e+02 4.309e+02
|                ( - 2.237e+02 2 0 QUESTION8 -1 1.153e+02 1.848e+02)
|                ( - 8.900e+02 5 0 QUESTION0_0_R 1 2.362e+02 2.460e+02))))
|    ( QUESTION15 1 1.102e+04 8.719e+02 1.812e+03
|        ( QUESTION0_19_R 1 3.038e+03 3.989e+02 4.513e+02
|            ( - 6.298e+02 1 0)
|            ( - 2.807e+03 4 0 QUESTION17 1 2.329e+02 4.183e+02))
|        ( - 8.854e+03 7 0 QUESTION10 -1 2.578e+02 1.360e+03)))
s>    ( QUESTION2_6_L -1 1.202e+04 1.978e+03 2.816e+03
s>        ( QUESTION4 -1 2.978e+03 6.463e+02 1.005e+03
s>            ( - 2.780e+03 2 0 QUESTION0_17_R 1 1.337e+02 3.481e+02)
s>            ( QUESTION3 -1 8.440e+02 3.759e+02 6.569e+02
s>                ( QUESTION14 1 4.701e+02 4.131e+02 2.260e+02
s>                    ( - -2.122e+02 5 0 QUESTION6 -1 1.561e+02 8.858e+01)
s>                    ( - 1.095e+03 1 0))
s>                ( QUESTION15 1 7.498e+02 3.639e+02 4.309e+02
s>                    ( - 2.237e+02 2 0 QUESTION8 -1 1.153e+02 1.848e+02)
s>                    ( - 8.900e+02 5 0 QUESTION0_0_R 1 2.362e+02 2.460e+02))))
s>        ( QUESTION15 1 1.102e+04 8.719e+02 1.812e+03
s>            ( QUESTION0_19_R 1 3.038e+03 3.989e+02 4.513e+02
s>                ( - 6.298e+02 1 0)
s>                ( - 2.807e+03 4 0 QUESTION17 1 2.329e+02 4.183e+02))
s>            ( - 8.854e+03 7 0 QUESTION10 -1 2.578e+02 1.360e+03)))INFO: dtree.c(1351): Comp split 13
INFO: dtree.c(1483): stop. leaf nodes are specific
INFO: dtree.c(1524): Final simple tree
|( QUESTION3 -1 2.176e+04 4.699e+02 1.028e+03
|    ( - 7.305e+03 1 0)
|    ( - 1.492e+04 1 0))
s>    ( QUESTION3 -1 2.176e+04 4.699e+02 1.028e+03
s>        ( - 7.305e+03 1 0)
s>        ( - 1.492e+04 1 0))INFO: dtree.c(1483): stop. leaf nodes are specific
INFO: dtree.c(1524): Final simple tree
|( QUESTION4 -1 8.649e+04 1.539e+03 7.827e+03
|    ( - 2.680e+04 1 0)
|    ( QUESTION2_12_L -1 6.123e+04 2.054e+02 4.937e+03
|        ( - 1.951e+03 1 0)
|        ( QUESTION3 -1 5.948e+04 1.588e+02 4.826e+03
|            ( - 1.108e+03 1 0)
|            ( - 5.853e+04 1 0))))
s>    ( QUESTION4 -1 8.649e+04 1.539e+03 7.827e+03
s>        ( - 2.680e+04 1 0)
s>        ( QUESTION2_12_L -1 6.123e+04 2.054e+02 4.937e+03
s>            ( - 1.951e+03 1 0)
s>            ( QUESTION3 -1 5.948e+04 1.588e+02 4.826e+03
s>                ( - 1.108e+03 1 0)
s>                ( - 5.853e+04 1 0))))INFO: dtree.c(1351): Comp split 14
INFO: dtree.c(1483): stop. leaf nodes are specific
INFO: dtree.c(1524): Final simple tree
|( QUESTION2_16_L -1 -3.788e+04 1.035e+03 2.362e+03
|    ( QUESTION0 -1 -3.612e+04 4.760e+02 2.275e+03
|        ( QUESTION15 1 -9.010e+02 1.426e+02 8.456e+01
|            ( - -9.393e+01 1 0)
|            ( QUESTION0_0_R 1 -6.645e+02 8.925e+01 5.849e+01
|                ( - 3.833e+01 1 0)
|                ( - -6.136e+02 3 0)))
|        ( QUESTION0_0_R 1 -3.474e+04 9.902e+01 2.190e+03
|            ( - 6.666e+01 1 0)
|            ( - -3.471e+04 8 0)))
|    ( - -7.233e+02 3 0))
s>    ( QUESTION2_16_L -1 -3.788e+04 1.035e+03 2.362e+03
s>        ( QUESTION0 -1 -3.612e+04 4.760e+02 2.275e+03
s>            ( QUESTION15 1 -9.010e+02 1.426e+02 8.456e+01
s>                ( - -9.393e+01 1 0)
s>                ( QUESTION0_0_R 1 -6.645e+02 8.925e+01 5.849e+01
s>                    ( - 3.833e+01 1 0)
s>                    ( - -6.136e+02 3 0)))
s>            ( QUESTION0_0_R 1 -3.474e+04 9.902e+01 2.190e+03
s>                ( - 6.666e+01 1 0)
s>                ( - -3.471e+04 8 0)))
s>        ( - -7.233e+02 3 0))INFO: dtree.c(1351): Comp split 15
INFO: dtree.c(1351): Comp split 16
INFO: dtree.c(1524): Final simple tree
|( QUESTION4 -1 2.978e+03 6.463e+02 1.005e+03
|    ( QUESTION0_17_R 1 2.780e+03 1.337e+02 3.481e+02
|        ( - 1.918e+02 1 0)
|        ( - 2.722e+03 1 0))
|    ( QUESTION3 -1 8.440e+02 3.759e+02 6.569e+02
|        ( QUESTION14 1 4.701e+02 4.131e+02 2.260e+02
|            ( QUESTION6 -1 -2.122e+02 1.561e+02 8.858e+01
|                ( - 1.570e+02 2 0)
|                ( - -2.131e+02 3 0))
|            ( - 1.095e+03 1 0))
|        ( QUESTION15 1 7.498e+02 3.639e+02 4.309e+02
|            ( - 2.237e+02 2 0 QUESTION8 -1 1.153e+02 1.848e+02)
|            ( QUESTION0_0_R 1 8.900e+02 2.362e+02 2.460e+02
|                ( - 5.213e+02 1 0)
|                ( - 6.049e+02 4 0)))))
s>    ( QUESTION4 -1 2.978e+03 6.463e+02 1.005e+03
s>        ( QUESTION0_17_R 1 2.780e+03 1.337e+02 3.481e+02
s>            ( - 1.918e+02 1 0)
s>            ( - 2.722e+03 1 0))
s>        ( QUESTION3 -1 8.440e+02 3.759e+02 6.569e+02
s>            ( QUESTION14 1 4.701e+02 4.131e+02 2.260e+02
s>                ( QUESTION6 -1 -2.122e+02 1.561e+02 8.858e+01
s>                    ( - 1.570e+02 2 0)
s>                    ( - -2.131e+02 3 0))
s>                ( - 1.095e+03 1 0))
s>            ( QUESTION15 1 7.498e+02 3.639e+02 4.309e+02
s>                ( - 2.237e+02 2 0 QUESTION8 -1 1.153e+02 1.848e+02)
s>                ( QUESTION0_0_R 1 8.900e+02 2.362e+02 2.460e+02
s>                    ( - 5.213e+02 1 0)
s>                    ( - 6.049e+02 4 0)))))INFO: dtree.c(1524): Final simple tree
|( QUESTION15 1 1.102e+04 8.719e+02 1.812e+03
|    ( QUESTION0_19_R 1 3.038e+03 3.989e+02 4.513e+02
|        ( - 6.298e+02 1 0)
|        ( QUESTION17 1 2.807e+03 2.329e+02 4.183e+02
|            ( - 2.395e+02 1 0)
|            ( QUESTION0_17_R 1 2.800e+03 1.076e+02 4.173e+02
|                ( - 1.158e+02 1 0)
|                ( - 2.792e+03 2 0))))
|    ( QUESTION10 -1 8.854e+03 2.578e+02 1.360e+03
|        ( SILENCE 1 8.605e+03 1.528e+02 1.344e+03
|            ( - 3.449e+02 1 0)
|            ( QUESTION0_0_R 1 8.413e+03 1.382e+02 1.324e+03
|                ( - 1.550e+02 1 0)
|                ( - 8.396e+03 4 0)))
|        ( - 5.066e+02 1 0)))
s>    ( QUESTION15 1 1.102e+04 8.719e+02 1.812e+03
s>        ( QUESTION0_19_R 1 3.038e+03 3.989e+02 4.513e+02
s>            ( - 6.298e+02 1 0)
s>            ( QUESTION17 1 2.807e+03 2.329e+02 4.183e+02
s>                ( - 2.395e+02 1 0)
s>                ( QUESTION0_17_R 1 2.800e+03 1.076e+02 4.173e+02
s>                    ( - 1.158e+02 1 0)
s>                    ( - 2.792e+03 2 0))))
s>        ( QUESTION10 -1 8.854e+03 2.578e+02 1.360e+03
s>            ( SILENCE 1 8.605e+03 1.528e+02 1.344e+03
s>                ( - 3.449e+02 1 0)
s>                ( QUESTION0_0_R 1 8.413e+03 1.382e+02 1.324e+03
s>                    ( - 1.550e+02 1 0)
s>                    ( - 8.396e+03 4 0)))
s>            ( - 5.066e+02 1 0)))INFO: dtree.c(1351): Comp split 17
INFO: dtree.c(1483): stop. leaf nodes are specific
INFO: dtree.c(1524): Final simple tree
|( QUESTION2_16_L -1 -6.898e+04 8.529e+02 6.172e+03
|    ( QUESTION0_20_R 1 -6.655e+04 2.906e+02 5.995e+03
|        ( - -6.540e+04 24 0)
|        ( QUESTION0_0_R 1 -8.640e+02 1.025e+02 6.391e+01
|            ( - -8.108e+02 3 0)
|            ( - 4.939e+01 1 0)))
|    ( QUESTION0_0_R 1 -1.580e+03 2.695e+02 1.777e+02
|        ( - 2.400e+02 1 0)
|        ( - -1.550e+03 7 0)))
s>    ( QUESTION2_16_L -1 -6.898e+04 8.529e+02 6.172e+03
s>        ( QUESTION0_20_R 1 -6.655e+04 2.906e+02 5.995e+03
s>            ( - -6.540e+04 24 0)
s>            ( QUESTION0_0_R 1 -8.640e+02 1.025e+02 6.391e+01
s>                ( - -8.108e+02 3 0)
s>                ( - 4.939e+01 1 0)))
s>        ( QUESTION0_0_R 1 -1.580e+03 2.695e+02 1.777e+02
s>            ( - 2.400e+02 1 0)
s>            ( - -1.550e+03 7 0)))INFO: dtree.c(1483): stop. leaf nodes are specific
INFO: dtree.c(1524): Final simple tree
|( QUESTION14 1 -1.947e+03 1.789e+02 1.551e+02
|    ( - -7.956e+02 5 0)
|    ( - -9.725e+02 1 0))
s>    ( QUESTION14 1 -1.947e+03 1.789e+02 1.551e+02
s>        ( - -7.956e+02 5 0)
s>        ( - -9.725e+02 1 0))INFO: dtree.c(1351): Comp split 18
INFO: dtree.c(1483): stop. leaf nodes are specific
INFO: dtree.c(1524): Final simple tree
|( QUESTION0_0_R 1 9.498e+03 1.598e+02 1.113e+03
|    ( - 4.380e+02 1 0)
|    ( - 9.220e+03 2 0))
s>    ( QUESTION0_0_R 1 9.498e+03 1.598e+02 1.113e+03
s>        ( - 4.380e+02 1 0)
s>        ( - 9.220e+03 2 0))INFO: dtree.c(1483): stop. leaf nodes are specific
INFO: dtree.c(1524): Final simple tree
|( QUESTION0_17_R 1 1.183e+04 1.176e+02 3.079e+03
|    ( - 1.153e+02 1 0)
|    ( - 1.184e+04 6 0))
s>    ( QUESTION0_17_R 1 1.183e+04 1.176e+02 3.079e+03
s>        ( - 1.153e+02 1 0)
s>        ( - 1.184e+04 6 0))INFO: dtree.c(1351): Comp split 19
INFO: dtree.c(1483): stop. leaf nodes are specific
INFO: dtree.c(1524): Final simple tree
|( QUESTION2_12_L -1 6.123e+04 2.054e+02 4.937e+03
|    ( - 1.951e+03 1 0)
|    ( QUESTION3 -1 5.948e+04 1.588e+02 4.826e+03
|        ( - 1.108e+03 1 0)
|        ( - 5.853e+04 1 0)))
s>    ( QUESTION2_12_L -1 6.123e+04 2.054e+02 4.937e+03
s>        ( - 1.951e+03 1 0)
s>        ( QUESTION3 -1 5.948e+04 1.588e+02 4.826e+03
s>            ( - 1.108e+03 1 0)
s>            ( - 5.853e+04 1 0)))INFO: dtree.c(1351): Comp split 20
INFO: dtree.c(1483): stop. leaf nodes are specific
INFO: dtree.c(1524): Final simple tree
|( QUESTION16 -1 4.768e+03 3.627e+02 1.924e+03
|    ( - 5.059e+03 2 0)
|    ( - 7.152e+01 2 0))
s>    ( QUESTION16 -1 4.768e+03 3.627e+02 1.924e+03
s>        ( - 5.059e+03 2 0)
s>        ( - 7.152e+01 2 0))INFO: dtree.c(1483): stop. leaf nodes are specific
INFO: dtree.c(1524): Final simple tree
|( QUESTION2_16_L -1 7.391e+03 2.820e+02 1.063e+03
|    ( - 7.019e+03 4 0)
|    ( - 6.533e+02 1 0))
s>    ( QUESTION2_16_L -1 7.391e+03 2.820e+02 1.063e+03
s>        ( - 7.019e+03 4 0)
s>        ( - 6.533e+02 1 0))INFO: dtree.c(1351): Comp split 21
INFO: dtree.c(1483): stop. leaf nodes are specific
INFO: dtree.c(1524): Final simple tree
|( QUESTION0_0_R 1 2.669e+05 9.864e+01 1.157e+04
|    ( - 8.895e+02 1 0)
|    ( - 2.661e+05 6 0))
s>    ( QUESTION0_0_R 1 2.669e+05 9.864e+01 1.157e+04
s>        ( - 8.895e+02 1 0)
s>        ( - 2.661e+05 6 0))INFO: dtree.c(1483): stop. leaf nodes are specific
INFO: dtree.c(1524): Final simple tree
|( QUESTION1 -1 4.765e+04 7.398e+02 2.307e+03
|    ( QUESTION14 1 8.102e+01 1.148e+02 6.000e+00
|        ( - 1.167e+02 1 0)
|        ( - 7.918e+01 1 0))
|    ( QUESTION0_0_R 1 4.830e+04 1.520e+02 2.301e+03
|        ( - 2.641e+03 1 0)
|        ( QUESTION0_17_R 1 4.581e+04 1.339e+02 2.178e+03
|            ( - 1.215e+03 1 0)
|            ( - 4.473e+04 2 0))))
s>    ( QUESTION1 -1 4.765e+04 7.398e+02 2.307e+03
s>        ( QUESTION14 1 8.102e+01 1.148e+02 6.000e+00
s>            ( - 1.167e+02 1 0)
s>            ( - 7.918e+01 1 0))
s>        ( QUESTION0_0_R 1 4.830e+04 1.520e+02 2.301e+03
s>            ( - 2.641e+03 1 0)
s>            ( QUESTION0_17_R 1 4.581e+04 1.339e+02 2.178e+03
s>                ( - 1.215e+03 1 0)
s>                ( - 4.473e+04 2 0))))INFO: dtree.c(1351): Comp split 22
INFO: dtree.c(1483): stop. leaf nodes are specific
INFO: dtree.c(1524): Final simple tree
|( QUESTION0 -1 -3.612e+04 4.760e+02 2.275e+03
|    ( QUESTION15 1 -9.010e+02 1.426e+02 8.456e+01
|        ( - -9.393e+01 1 0)
|        ( QUESTION0_0_R 1 -6.645e+02 8.925e+01 5.849e+01
|            ( - 3.833e+01 1 0)
|            ( - -6.136e+02 3 0)))
|    ( QUESTION0_0_R 1 -3.474e+04 9.902e+01 2.190e+03
|        ( - 6.666e+01 1 0)
|        ( - -3.471e+04 8 0)))
s>    ( QUESTION0 -1 -3.612e+04 4.760e+02 2.275e+03
s>        ( QUESTION15 1 -9.010e+02 1.426e+02 8.456e+01
s>            ( - -9.393e+01 1 0)
s>            ( QUESTION0_0_R 1 -6.645e+02 8.925e+01 5.849e+01
s>                ( - 3.833e+01 1 0)
s>                ( - -6.136e+02 3 0)))
s>        ( QUESTION0_0_R 1 -3.474e+04 9.902e+01 2.190e+03
s>            ( - 6.666e+01 1 0)
s>            ( - -3.471e+04 8 0)))INFO: dtree.c(1351): Comp split 23
INFO: dtree.c(1483): stop. leaf nodes are specific
INFO: dtree.c(1524): Final simple tree
|( QUESTION14 1 -8.670e+01 4.026e+02 4.835e+02
|    ( QUESTION3 -1 9.221e+01 3.005e+02 2.987e+02
|        ( QUESTION6 -1 -2.122e+02 1.561e+02 8.858e+01
|            ( - 1.570e+02 2 0)
|            ( - -2.131e+02 3 0))
|        ( - 6.049e+02 4 0))
|    ( QUESTION8 -1 2.237e+02 1.153e+02 1.848e+02
|        ( - 2.348e+02 1 0)
|        ( - 1.042e+02 1 0)))
s>    ( QUESTION14 1 -8.670e+01 4.026e+02 4.835e+02
s>        ( QUESTION3 -1 9.221e+01 3.005e+02 2.987e+02
s>            ( QUESTION6 -1 -2.122e+02 1.561e+02 8.858e+01
s>                ( - 1.570e+02 2 0)
s>                ( - -2.131e+02 3 0))
s>            ( - 6.049e+02 4 0))
s>        ( QUESTION8 -1 2.237e+02 1.153e+02 1.848e+02
s>            ( - 2.348e+02 1 0)
s>            ( - 1.042e+02 1 0)))INFO: dtree.c(1483): stop. leaf nodes are specific
INFO: dtree.c(1524): Final simple tree
|( QUESTION0_20_R 1 3.991e+03 2.116e+02 5.214e+02
|    ( QUESTION4 -1 3.613e+03 2.042e+02 4.795e+02
|        ( - 2.722e+03 1 0)
|        ( - 1.095e+03 1 0))
|    ( QUESTION0_0_R 1 5.894e+02 1.237e+02 4.195e+01
|        ( - 5.213e+02 1 0)
|        ( - 1.918e+02 1 0)))
s>    ( QUESTION0_20_R 1 3.991e+03 2.116e+02 5.214e+02
s>        ( QUESTION4 -1 3.613e+03 2.042e+02 4.795e+02
s>            ( - 2.722e+03 1 0)
s>            ( - 1.095e+03 1 0))
s>        ( QUESTION0_0_R 1 5.894e+02 1.237e+02 4.195e+01
s>            ( - 5.213e+02 1 0)
s>            ( - 1.918e+02 1 0)))INFO: dtree.c(1351): Comp split 24
INFO: dtree.c(1483): stop. leaf nodes are specific
INFO: dtree.c(1524): Final simple tree
|( QUESTION10 -1 8.865e+03 2.581e+02 1.365e+03
|    ( SILENCE 1 8.616e+03 1.527e+02 1.349e+03
|        ( - 3.449e+02 1 0)
|        ( QUESTION0_0_R 1 8.424e+03 1.383e+02 1.329e+03
|            ( - 1.550e+02 1 0)
|            ( QUESTION0_17_R 1 8.407e+03 1.049e+02 1.327e+03
|                ( - 1.158e+02 1 0)
|                ( - 8.396e+03 4 0))))
|    ( - 5.066e+02 1 0))
s>    ( QUESTION10 -1 8.865e+03 2.581e+02 1.365e+03
s>        ( SILENCE 1 8.616e+03 1.527e+02 1.349e+03
s>            ( - 3.449e+02 1 0)
s>            ( QUESTION0_0_R 1 8.424e+03 1.383e+02 1.329e+03
s>                ( - 1.550e+02 1 0)
s>                ( QUESTION0_17_R 1 8.407e+03 1.049e+02 1.327e+03
s>                    ( - 1.158e+02 1 0)
s>                    ( - 8.396e+03 4 0))))
s>        ( - 5.066e+02 1 0))INFO: dtree.c(1483): stop. leaf nodes are specific
INFO: dtree.c(1524): Final simple tree
|( QUESTION0_19_R 1 3.029e+03 3.988e+02 4.463e+02
|    ( - 6.298e+02 1 0)
|    ( QUESTION0_17_R 1 2.798e+03 2.333e+02 4.133e+02
|        ( - 2.395e+02 1 0)
|        ( - 2.792e+03 2 0)))
s>    ( QUESTION0_19_R 1 3.029e+03 3.988e+02 4.463e+02
s>        ( - 6.298e+02 1 0)
s>        ( QUESTION0_17_R 1 2.798e+03 2.333e+02 4.133e+02
s>            ( - 2.395e+02 1 0)
s>            ( - 2.792e+03 2 0)))INFO: dtree.c(1351): Comp split 25
INFO: dtree.c(1483): stop. leaf nodes are specific
INFO: dtree.c(1524): Final simple tree
|( QUESTION0_0_R 1 -1.644e+03 2.693e+02 1.807e+02
|    ( - 2.400e+02 1 0)
|    ( QUESTION0_17_R 1 -1.614e+03 1.136e+02 1.797e+02
|        ( - 4.939e+01 1 0)
|        ( - -1.550e+03 7 0)))
s>    ( QUESTION0_0_R 1 -1.644e+03 2.693e+02 1.807e+02
s>        ( - 2.400e+02 1 0)
s>        ( QUESTION0_17_R 1 -1.614e+03 1.136e+02 1.797e+02
s>            ( - 4.939e+01 1 0)
s>            ( - -1.550e+03 7 0)))INFO: dtree.c(1483): stop. leaf nodes are specific
INFO: dtree.c(1524): Final simple tree
|( QUESTION0_0_R 1 -6.648e+04 2.737e+02 5.992e+03
|    ( - -8.108e+02 3 0)
|    ( - -6.540e+04 24 0))
s>    ( QUESTION0_0_R 1 -6.648e+04 2.737e+02 5.992e+03
s>        ( - -8.108e+02 3 0)
s>        ( - -6.540e+04 24 0))INFO: dtree.c(1351): Comp split 26
INFO: dtree.c(1483): stop. leaf nodes are specific
INFO: dtree.c(1524): Final simple tree
|( QUESTION0_0_R 1 4.830e+04 1.520e+02 2.301e+03
|    ( - 2.641e+03 1 0)
|    ( QUESTION0_17_R 1 4.581e+04 1.339e+02 2.178e+03
|        ( - 1.215e+03 1 0)
|        ( - 4.473e+04 2 0)))
s>    ( QUESTION0_0_R 1 4.830e+04 1.520e+02 2.301e+03
s>        ( - 2.641e+03 1 0)
s>        ( QUESTION0_17_R 1 4.581e+04 1.339e+02 2.178e+03
s>            ( - 1.215e+03 1 0)
s>            ( - 4.473e+04 2 0)))INFO: dtree.c(1483): stop. leaf nodes are specific
INFO: dtree.c(1524): Final simple tree
|( QUESTION14 1 8.102e+01 1.148e+02 6.000e+00
|    ( - 1.167e+02 1 0)
|    ( - 7.918e+01 1 0))
s>    ( QUESTION14 1 8.102e+01 1.148e+02 6.000e+00
s>        ( - 1.167e+02 1 0)
s>        ( - 7.918e+01 1 0))INFO: dtree.c(1351): Comp split 27
INFO: dtree.c(1483): stop. leaf nodes are specific
INFO: dtree.c(1524): Final simple tree
|( QUESTION0_17_R 1 -1.016e+04 2.978e+02 1.271e+03
|    ( - 2.731e+02 2 0)
|    ( - -1.014e+04 11 0))
s>    ( QUESTION0_17_R 1 -1.016e+04 2.978e+02 1.271e+03
s>        ( - 2.731e+02 2 0)
s>        ( - -1.014e+04 11 0))INFO: dtree.c(1483): stop. leaf nodes are specific
INFO: dtree.c(1524): Final simple tree
|( QUESTION0_0_R 1 -4.318e+03 1.200e+02 6.419e+02
|    ( - 7.881e+01 1 0)
|    ( - -4.276e+03 3 0))
s>    ( QUESTION0_0_R 1 -4.318e+03 1.200e+02 6.419e+02
s>        ( - 7.881e+01 1 0)
s>        ( - -4.276e+03 3 0))INFO: dtree.c(1351): Comp split 28
INFO: dtree.c(1351): Comp split 29
INFO: dtree.c(1483): stop. leaf nodes are specific
INFO: dtree.c(1524): Final simple tree
|( QUESTION15 1 -9.010e+02 1.426e+02 8.456e+01
|    ( - -9.393e+01 1 0)
|    ( QUESTION0_0_R 1 -6.645e+02 8.925e+01 5.849e+01
|        ( - 3.833e+01 1 0)
|        ( - -6.136e+02 3 0)))
s>    ( QUESTION15 1 -9.010e+02 1.426e+02 8.456e+01
s>        ( - -9.393e+01 1 0)
s>        ( QUESTION0_0_R 1 -6.645e+02 8.925e+01 5.849e+01
s>            ( - 3.833e+01 1 0)
s>            ( - -6.136e+02 3 0)))INFO: dtree.c(1483): stop. leaf nodes are specific
INFO: dtree.c(1524): Final simple tree
|( QUESTION0_0_R 1 -3.474e+04 9.902e+01 2.190e+03
|    ( - 6.666e+01 1 0)
|    ( - -3.471e+04 8 0))
s>    ( QUESTION0_0_R 1 -3.474e+04 9.902e+01 2.190e+03
s>        ( - 6.666e+01 1 0)
s>        ( - -3.471e+04 8 0))INFO: dtree.c(1351): Comp split 30
INFO: dtree.c(1351): Comp split 31
INFO: dtree.c(1483): stop. leaf nodes are specific
INFO: dtree.c(1524): Final simple tree
|( QUESTION3 -1 8.186e+01 3.016e+02 3.047e+02
|    ( QUESTION6 -1 -2.122e+02 1.561e+02 8.858e+01
|        ( - 1.570e+02 2 0)
|        ( - -2.131e+02 3 0))
|    ( QUESTION8 -1 5.957e+02 1.134e+02 2.161e+02
|        ( - 6.049e+02 4 0)
|        ( - 1.042e+02 1 0)))
s>    ( QUESTION3 -1 8.186e+01 3.016e+02 3.047e+02
s>        ( QUESTION6 -1 -2.122e+02 1.561e+02 8.858e+01
s>            ( - 1.570e+02 2 0)
s>            ( - -2.131e+02 3 0))
s>        ( QUESTION8 -1 5.957e+02 1.134e+02 2.161e+02
s>            ( - 6.049e+02 4 0)
s>            ( - 1.042e+02 1 0)))INFO: dtree.c(1351): Comp split 32
INFO: dtree.c(1483): stop. leaf nodes are specific
INFO: dtree.c(1524): Final simple tree
|( QUESTION0_17_R 1 2.798e+03 2.333e+02 4.133e+02
|    ( - 2.395e+02 1 0)
|    ( - 2.792e+03 2 0))
s>    ( QUESTION0_17_R 1 2.798e+03 2.333e+02 4.133e+02
s>        ( - 2.395e+02 1 0)
s>        ( - 2.792e+03 2 0))INFO: dtree.c(1351): Comp split 33
INFO: dtree.c(1483): stop. leaf nodes are specific
INFO: dtree.c(1524): Final simple tree
|( QUESTION0_0_R 1 -6.161e+02 9.626e+01 6.254e+01
|    ( - -5.624e+02 1 0)
|    ( - 4.258e+01 1 0))
s>    ( QUESTION0_0_R 1 -6.161e+02 9.626e+01 6.254e+01
s>        ( - -5.624e+02 1 0)
s>        ( - 4.258e+01 1 0))INFO: dtree.c(1483): stop. leaf nodes are specific
INFO: dtree.c(1524): Final simple tree
|( QUESTION0_17_R 1 -2.211e+04 9.699e+01 1.851e+03
|    ( - 7.654e+01 1 0)
|    ( - -2.209e+04 3 0))
s>    ( QUESTION0_17_R 1 -2.211e+04 9.699e+01 1.851e+03
s>        ( - 7.654e+01 1 0)
s>        ( - -2.209e+04 3 0))INFO: dtree.c(1351): Comp split 34
INFO: dtree.c(1351): Comp split 35
INFO: dtree.c(1483): stop. leaf nodes are specific
INFO: dtree.c(1524): Final simple tree
|( QUESTION8 -1 5.957e+02 1.134e+02 2.161e+02
|    ( - 6.049e+02 4 0)
|    ( - 1.042e+02 1 0))
s>    ( QUESTION8 -1 5.957e+02 1.134e+02 2.161e+02
s>        ( - 6.049e+02 4 0)
s>        ( - 1.042e+02 1 0))INFO: dtree.c(1483): stop. leaf nodes are specific
INFO: dtree.c(1524): Final simple tree
|( QUESTION6 -1 -2.122e+02 1.561e+02 8.858e+01
|    ( - 1.570e+02 2 0)
|    ( - -2.131e+02 3 0))
s>    ( QUESTION6 -1 -2.122e+02 1.561e+02 8.858e+01
s>        ( - 1.570e+02 2 0)
s>        ( - -2.131e+02 3 0))INFO: dtree.c(1351): Comp split 36
INFO: dtree.c(1351): Comp split 37
INFO: dtree.c(1351): Comp split 38
INFO: dtree.c(1351): Comp split 39
INFO: dtree.c(1483): stop. leaf nodes are specific
INFO: dtree.c(1524): Final simple tree
|( QUESTION0_17_R 1 -1.614e+03 1.136e+02 1.797e+02
|    ( - 4.939e+01 1 0)
|    ( - -1.550e+03 7 0))
s>    ( QUESTION0_17_R 1 -1.614e+03 1.136e+02 1.797e+02
s>        ( - 4.939e+01 1 0)
s>        ( - -1.550e+03 7 0))INFO: dtree.c(1351): Comp split 40
INFO: dtree.c(1483): stop. leaf nodes are specific
INFO: dtree.c(1524): Final simple tree
|( SILENCE 1 8.616e+03 1.527e+02 1.349e+03
|    ( - 3.449e+02 1 0)
|    ( QUESTION0_0_R 1 8.424e+03 1.383e+02 1.329e+03
|        ( - 1.550e+02 1 0)
|        ( QUESTION0_17_R 1 8.407e+03 1.049e+02 1.327e+03
|            ( - 1.158e+02 1 0)
|            ( - 8.396e+03 4 0))))
s>    ( SILENCE 1 8.616e+03 1.527e+02 1.349e+03
s>        ( - 3.449e+02 1 0)
s>        ( QUESTION0_0_R 1 8.424e+03 1.383e+02 1.329e+03
s>            ( - 1.550e+02 1 0)
s>            ( QUESTION0_17_R 1 8.407e+03 1.049e+02 1.327e+03
s>                ( - 1.158e+02 1 0)
s>                ( - 8.396e+03 4 0))))INFO: dtree.c(1351): Comp split 41
INFO: dtree.c(1351): Comp split 42
INFO: dtree.c(1351): Comp split 43
INFO: dtree.c(1483): stop. leaf nodes are specific
INFO: dtree.c(1524): Final simple tree
|( QUESTION14 1 -1.364e+02 1.402e+02 1.050e+03
|    ( - -5.110e+01 5 0)
|    ( - 5.496e+01 2 0))
s>    ( QUESTION14 1 -1.364e+02 1.402e+02 1.050e+03
s>        ( - -5.110e+01 5 0)
s>        ( - 5.496e+01 2 0))INFO: dtree.c(1351): Comp split 44
INFO: dtree.c(1483): stop. leaf nodes are specific
INFO: dtree.c(1524): Final simple tree
|( QUESTION0_0_R 1 5.894e+02 1.237e+02 4.195e+01
|    ( - 5.213e+02 1 0)
|    ( - 1.918e+02 1 0))
s>    ( QUESTION0_0_R 1 5.894e+02 1.237e+02 4.195e+01
s>        ( - 5.213e+02 1 0)
s>        ( - 1.918e+02 1 0))INFO: dtree.c(1483): stop. leaf nodes are specific
INFO: dtree.c(1524): Final simple tree
|( QUESTION4 -1 3.613e+03 2.042e+02 4.795e+02
|    ( - 2.722e+03 1 0)
|    ( - 1.095e+03 1 0))
s>    ( QUESTION4 -1 3.613e+03 2.042e+02 4.795e+02
s>        ( - 2.722e+03 1 0)
s>        ( - 1.095e+03 1 0))INFO: dtree.c(1351): Comp split 45
INFO: dtree.c(1483): stop. leaf nodes are specific
INFO: dtree.c(1524): Final simple tree
|( QUESTION3 -1 2.906e+03 1.533e+02 1.960e+02
|    ( - 1.108e+03 1 0)
|    ( - 1.951e+03 1 0))
s>    ( QUESTION3 -1 2.906e+03 1.533e+02 1.960e+02
s>        ( - 1.108e+03 1 0)
s>        ( - 1.951e+03 1 0))INFO: dtree.c(1351): Comp split 46
INFO: dtree.c(1351): Comp split 47
INFO: dtree.c(1351): Comp split 48
INFO: dtree.c(1351): Comp split 49
INFO: dtree.c(1351): Comp split 50
INFO: dtree.c(1351): Comp split 51
INFO: dtree.c(1483): stop. leaf nodes are specific
INFO: dtree.c(1524): Final simple tree
|( QUESTION0_0_R 1 8.424e+03 1.383e+02 1.329e+03
|    ( - 1.550e+02 1 0)
|    ( QUESTION0_17_R 1 8.407e+03 1.049e+02 1.327e+03
|        ( - 1.158e+02 1 0)
|        ( - 8.396e+03 4 0)))
s>    ( QUESTION0_0_R 1 8.424e+03 1.383e+02 1.329e+03
s>        ( - 1.550e+02 1 0)
s>        ( QUESTION0_17_R 1 8.407e+03 1.049e+02 1.327e+03
s>            ( - 1.158e+02 1 0)
s>            ( - 8.396e+03 4 0)))INFO: dtree.c(1351): Comp split 52
INFO: dtree.c(1483): stop. leaf nodes are specific
INFO: dtree.c(1524): Final simple tree
|( QUESTION0_17_R 1 4.581e+04 1.339e+02 2.178e+03
|    ( - 1.215e+03 1 0)
|    ( - 4.473e+04 2 0))
s>    ( QUESTION0_17_R 1 4.581e+04 1.339e+02 2.178e+03
s>        ( - 1.215e+03 1 0)
s>        ( - 4.473e+04 2 0))INFO: dtree.c(1351): Comp split 53
INFO: dtree.c(1483): stop. leaf nodes are specific
INFO: dtree.c(1524): Final simple tree
|( QUESTION0_0_R 1 -6.645e+02 8.925e+01 5.849e+01
|    ( - 3.833e+01 1 0)
|    ( - -6.136e+02 3 0))
s>    ( QUESTION0_0_R 1 -6.645e+02 8.925e+01 5.849e+01
s>        ( - 3.833e+01 1 0)
s>        ( - -6.136e+02 3 0))INFO: dtree.c(1351): Comp split 54
INFO: dtree.c(1351): Comp split 55
INFO: dtree.c(1483): stop. leaf nodes are specific
INFO: dtree.c(1524): Final simple tree
|( QUESTION0_17_R 1 8.407e+03 1.049e+02 1.327e+03
|    ( - 1.158e+02 1 0)
|    ( - 8.396e+03 4 0))
s>    ( QUESTION0_17_R 1 8.407e+03 1.049e+02 1.327e+03
s>        ( - 1.158e+02 1 0)
s>        ( - 8.396e+03 4 0))INFO: dtree.c(1351): Comp split 56
INFO: dtree.c(1351): Comp split 57
INFO: dtree.c(1351): Comp split 58
INFO: dtree.c(1351): Comp split 59
INFO: dtree.c(1351): Comp split 60
INFO: dtree.c(1351): Comp split 61
INFO: dtree.c(1351): Comp split 62
INFO: dtree.c(1351): Comp split 63
INFO: dtree.c(1351): Comp split 64
INFO: dtree.c(1351): Comp split 65
INFO: dtree.c(1351): Comp split 66
INFO: dtree.c(1351): Comp split 67
INFO: dtree.c(1351): Comp split 68
INFO: dtree.c(1351): Comp split 69
INFO: dtree.c(1354): stop. leaf nodes are specific
Mon May  6 20:56:15 2013
