INFO: cmd_ln.c(691): Parsing command line:
/home/ssitaram/projects/tts_no_text/English/accEngCB/bin/bldtree \
	-treefn /home/ssitaram/projects/tts_no_text/English/accEngCB//trees/accEngCB.unpruned/Z-2.dtree \
	-moddeffn /home/ssitaram/projects/tts_no_text/English/accEngCB//model_architecture/accEngCB.untied.mdef \
	-mixwfn /home/ssitaram/projects/tts_no_text/English/accEngCB//model_parameters/accEngCB.cd_cont_untied/mixture_weights \
	-ts2cbfn .cont. \
	-mwfloor 1e-08 \
	-psetfn /home/ssitaram/projects/tts_no_text/English/accEngCB//model_architecture/accEngCB.tree_questions \
	-phone Z \
	-state 2 \
	-stwt 1.0,0.05,0.0 \
	-meanfn /home/ssitaram/projects/tts_no_text/English/accEngCB//model_parameters/accEngCB.cd_cont_untied/means \
	-varfn /home/ssitaram/projects/tts_no_text/English/accEngCB//model_parameters/accEngCB.cd_cont_untied/variances \
	-fullvar no \
	-ssplitmin 1 \
	-ssplitmax 7 \
	-ssplitthr 0 \
	-csplitmin 1 \
	-csplitmax 2000 \
	-csplitthr 0 

Current configuration:
[NAME]		[DEFLT]	[VALUE]
-allphones	no	no
-cntthresh	0.00001	1.000000e-05
-csplitmax	100	2000
-csplitmin	1	1
-csplitthr	8e-4	0.000000e+00
-example	no	no
-fullvar	no	no
-help		no	no
-meanfn			/home/ssitaram/projects/tts_no_text/English/accEngCB//model_parameters/accEngCB.cd_cont_untied/means
-mixwfn			/home/ssitaram/projects/tts_no_text/English/accEngCB//model_parameters/accEngCB.cd_cont_untied/mixture_weights
-moddeffn		/home/ssitaram/projects/tts_no_text/English/accEngCB//model_architecture/accEngCB.untied.mdef
-mwfloor	1e-4	1.000000e-08
-phone			Z
-psetfn			/home/ssitaram/projects/tts_no_text/English/accEngCB//model_architecture/accEngCB.tree_questions
-ssplitmax	5	7
-ssplitmin	1	1
-ssplitthr	8e-4	0.000000e+00
-state			2
-stwt			1.0,0.05,0.0,
-treefn			/home/ssitaram/projects/tts_no_text/English/accEngCB//trees/accEngCB.unpruned/Z-2.dtree
-ts2cbfn	.semi.	.cont.
-varfloor	0.00001	1.000000e-05
-varfn			/home/ssitaram/projects/tts_no_text/English/accEngCB//model_parameters/accEngCB.cd_cont_untied/variances

INFO: main.c(228): Reading: /home/ssitaram/projects/tts_no_text/English/accEngCB//model_architecture/accEngCB.untied.mdef
INFO: model_def_io.c(587): Model definition info:
INFO: model_def_io.c(588): 8263 total models defined (33 base, 8230 tri)
INFO: model_def_io.c(589): 33052 total states
INFO: model_def_io.c(590): 24789 total tied states
INFO: model_def_io.c(591): 99 total tied CI states
INFO: model_def_io.c(592): 33 total tied transition matrices
INFO: model_def_io.c(593): 4 max state/model
INFO: model_def_io.c(594): 4 min state/model
INFO: main.c(247): Building trees for [Z AH AH s] through [Z UW UW s]
INFO: main.c(275): Covering states |[24303 24740]| == 438
INFO: main.c(282): Reading: /home/ssitaram/projects/tts_no_text/English/accEngCB//model_parameters/accEngCB.cd_cont_untied/mixture_weights
INFO: s3mixw_io.c(172): Read /home/ssitaram/projects/tts_no_text/English/accEngCB//model_parameters/accEngCB.cd_cont_untied/mixture_weights [438x1x1 array]
INFO: main.c(320): 146 of 146 models have observation count greater than 0.000010
INFO: main.c(94): nrm stwt: 0.000 0.048 0.952 
INFO: s3gau_io.c(166): Read /home/ssitaram/projects/tts_no_text/English/accEngCB//model_parameters/accEngCB.cd_cont_untied/means [24789x1x1 array]
INFO: s3gau_io.c(166): Read /home/ssitaram/projects/tts_no_text/English/accEngCB//model_parameters/accEngCB.cd_cont_untied/variances [24789x1x1 array]
INFO: main.c(576): Reading: /home/ssitaram/projects/tts_no_text/English/accEngCB//model_architecture/accEngCB.tree_questions
INFO: main.c(619): 180 total simple questions (172 phone; 8 word bndry)
INFO: main.c(621): 42 Left Only questions, and 42 Right Only questions
INFO: dtree.c(1524): Final simple tree
|( SILENCE 1 -1.241e+05 8.171e+04 1.277e+04
|    ( - 2.894e+04 13 0 QUESTION2_18_L -1 3.168e+02 2.696e+03)
|    ( QUESTION14 1 -7.129e+04 1.166e+04 1.008e+04
|        ( QUESTION17 -1 -5.353e+04 5.713e+03 8.710e+03
|            ( - -9.799e+03 11 0)
|            ( QUESTION2_18_L -1 -3.802e+04 2.130e+03 5.877e+03
|                ( QUESTION14 -1 -4.593e+03 2.066e+03 9.019e+02
|                    ( - -7.393e+02 6 0)
|                    ( - -1.787e+03 7 0))
|                ( QUESTION16 -1 -3.130e+04 1.315e+03 4.975e+03
|                    ( - -7.271e+02 6 0)
|                    ( QUESTION15 -1 -2.925e+04 8.982e+02 4.587e+03
|                        ( - -4.913e+03 9 0)
|                        ( - -2.344e+04 57 0 QUESTION7 -1 4.837e+02 3.764e+03)))))
|        ( - -6.107e+03 37 0 QUESTION0_7_R 1 8.576e+02 1.368e+03)))
s>    ( SILENCE 1 -1.241e+05 8.171e+04 1.277e+04
s>        ( - 2.894e+04 13 0 QUESTION2_18_L -1 3.168e+02 2.696e+03)
s>        ( QUESTION14 1 -7.129e+04 1.166e+04 1.008e+04
s>            ( QUESTION17 -1 -5.353e+04 5.713e+03 8.710e+03
s>                ( - -9.799e+03 11 0)
s>                ( QUESTION2_18_L -1 -3.802e+04 2.130e+03 5.877e+03
s>                    ( QUESTION14 -1 -4.593e+03 2.066e+03 9.019e+02
s>                        ( - -7.393e+02 6 0)
s>                        ( - -1.787e+03 7 0))
s>                    ( QUESTION16 -1 -3.130e+04 1.315e+03 4.975e+03
s>                        ( - -7.271e+02 6 0)
s>                        ( QUESTION15 -1 -2.925e+04 8.982e+02 4.587e+03
s>                            ( - -4.913e+03 9 0)
s>                            ( - -2.344e+04 57 0 QUESTION7 -1 4.837e+02 3.764e+03)))))
s>            ( - -6.107e+03 37 0 QUESTION0_7_R 1 8.576e+02 1.368e+03)))INFO: dtree.c(1351): Comp split 0
INFO: dtree.c(1524): Final simple tree
|( QUESTION14 1 -7.129e+04 1.166e+04 1.008e+04
|    ( QUESTION17 -1 -5.353e+04 5.713e+03 8.710e+03
|        ( - -9.799e+03 11 0)
|        ( QUESTION2_18_L -1 -3.802e+04 2.130e+03 5.877e+03
|            ( QUESTION14 -1 -4.593e+03 2.066e+03 9.019e+02
|                ( - -7.393e+02 6 0)
|                ( - -1.787e+03 7 0))
|            ( QUESTION16 -1 -3.130e+04 1.315e+03 4.975e+03
|                ( - -7.271e+02 6 0)
|                ( QUESTION15 -1 -2.925e+04 8.982e+02 4.587e+03
|                    ( - -4.913e+03 9 0)
|                    ( - -2.344e+04 57 0 QUESTION7 -1 4.837e+02 3.764e+03)))))
|    ( QUESTION0_7_R 1 -6.107e+03 8.576e+02 1.368e+03
|        ( - -3.891e+02 11 0 QUESTION2_17_L -1 3.176e+02 6.905e+01)
|        ( - -4.860e+03 26 0 QUESTION17 -1 7.542e+02 1.299e+03)))
s>    ( QUESTION14 1 -7.129e+04 1.166e+04 1.008e+04
s>        ( QUESTION17 -1 -5.353e+04 5.713e+03 8.710e+03
s>            ( - -9.799e+03 11 0)
s>            ( QUESTION2_18_L -1 -3.802e+04 2.130e+03 5.877e+03
s>                ( QUESTION14 -1 -4.593e+03 2.066e+03 9.019e+02
s>                    ( - -7.393e+02 6 0)
s>                    ( - -1.787e+03 7 0))
s>                ( QUESTION16 -1 -3.130e+04 1.315e+03 4.975e+03
s>                    ( - -7.271e+02 6 0)
s>                    ( QUESTION15 -1 -2.925e+04 8.982e+02 4.587e+03
s>                        ( - -4.913e+03 9 0)
s>                        ( - -2.344e+04 57 0 QUESTION7 -1 4.837e+02 3.764e+03)))))
s>        ( QUESTION0_7_R 1 -6.107e+03 8.576e+02 1.368e+03
s>            ( - -3.891e+02 11 0 QUESTION2_17_L -1 3.176e+02 6.905e+01)
s>            ( - -4.860e+03 26 0 QUESTION17 -1 7.542e+02 1.299e+03)))INFO: dtree.c(1524): Final simple tree
|( QUESTION2_18_L -1 2.894e+04 3.168e+02 2.696e+03
|    ( QUESTION14 -1 8.382e+02 1.309e+02 1.250e+02
|        ( - 4.804e+02 1 0)
|        ( - 4.887e+02 1 0))
|    ( QUESTION2_4_L -1 2.842e+04 2.568e+02 2.571e+03
|        ( - 2.226e+03 2 0 QUESTION3 -1 1.269e+02 2.176e+02)
|        ( QUESTION18 -1 2.645e+04 1.850e+02 2.354e+03
|            ( - 1.119e+03 1 0)
|            ( QUESTION20 -1 2.551e+04 1.425e+02 2.266e+03
|                ( - 2.909e+02 1 0)
|                ( QUESTION2_17_L -1 2.537e+04 1.413e+02 2.239e+03
|                    ( - 3.890e+02 1 0)
|                    ( QUESTION0 -1 2.512e+04 1.411e+02 2.213e+03
|                        ( - 1.927e+02 1 0)
|                        ( - 2.507e+04 5 0 QUESTION14 -1 1.108e+02 2.211e+03)))))))
s>    ( QUESTION2_18_L -1 2.894e+04 3.168e+02 2.696e+03
s>        ( QUESTION14 -1 8.382e+02 1.309e+02 1.250e+02
s>            ( - 4.804e+02 1 0)
s>            ( - 4.887e+02 1 0))
s>        ( QUESTION2_4_L -1 2.842e+04 2.568e+02 2.571e+03
s>            ( - 2.226e+03 2 0 QUESTION3 -1 1.269e+02 2.176e+02)
s>            ( QUESTION18 -1 2.645e+04 1.850e+02 2.354e+03
s>                ( - 1.119e+03 1 0)
s>                ( QUESTION20 -1 2.551e+04 1.425e+02 2.266e+03
s>                    ( - 2.909e+02 1 0)
s>                    ( QUESTION2_17_L -1 2.537e+04 1.413e+02 2.239e+03
s>                        ( - 3.890e+02 1 0)
s>                        ( QUESTION0 -1 2.512e+04 1.411e+02 2.213e+03
s>                            ( - 1.927e+02 1 0)
s>                            ( - 2.507e+04 5 0 QUESTION14 -1 1.108e+02 2.211e+03)))))))INFO: dtree.c(1351): Comp split 1
INFO: dtree.c(1524): Final simple tree
|( QUESTION17 -1 -5.353e+04 5.713e+03 8.710e+03
|    ( - -9.799e+03 11 0)
|    ( QUESTION2_18_L -1 -3.802e+04 2.130e+03 5.877e+03
|        ( QUESTION14 -1 -4.593e+03 2.066e+03 9.019e+02
|            ( - -7.393e+02 6 0)
|            ( - -1.787e+03 7 0))
|        ( QUESTION16 -1 -3.130e+04 1.315e+03 4.975e+03
|            ( - -7.271e+02 6 0)
|            ( QUESTION15 -1 -2.925e+04 8.982e+02 4.587e+03
|                ( - -4.913e+03 9 0)
|                ( QUESTION7 -1 -2.344e+04 4.837e+02 3.764e+03
|                    ( QUESTION2_3_L -1 -3.096e+03 2.603e+02 3.686e+02
|                        ( - -7.502e+02 4 0)
|                        ( - -2.086e+03 13 0 QUESTION2_12_L -1 1.701e+02 1.891e+02))
|                    ( - -1.986e+04 40 0 QUESTION2_17_L -1 2.377e+02 3.395e+03))))))
s>    ( QUESTION17 -1 -5.353e+04 5.713e+03 8.710e+03
s>        ( - -9.799e+03 11 0)
s>        ( QUESTION2_18_L -1 -3.802e+04 2.130e+03 5.877e+03
s>            ( QUESTION14 -1 -4.593e+03 2.066e+03 9.019e+02
s>                ( - -7.393e+02 6 0)
s>                ( - -1.787e+03 7 0))
s>            ( QUESTION16 -1 -3.130e+04 1.315e+03 4.975e+03
s>                ( - -7.271e+02 6 0)
s>                ( QUESTION15 -1 -2.925e+04 8.982e+02 4.587e+03
s>                    ( - -4.913e+03 9 0)
s>                    ( QUESTION7 -1 -2.344e+04 4.837e+02 3.764e+03
s>                        ( QUESTION2_3_L -1 -3.096e+03 2.603e+02 3.686e+02
s>                            ( - -7.502e+02 4 0)
s>                            ( - -2.086e+03 13 0 QUESTION2_12_L -1 1.701e+02 1.891e+02))
s>                        ( - -1.986e+04 40 0 QUESTION2_17_L -1 2.377e+02 3.395e+03))))))INFO: dtree.c(1524): Final simple tree
|( QUESTION0_7_R 1 -6.107e+03 8.576e+02 1.368e+03
|    ( QUESTION2_17_L -1 -3.891e+02 3.176e+02 6.905e+01
|        ( QUESTION0_8_R 1 -1.069e+02 1.656e+02 1.100e+01
|            ( - -9.029e+01 3 0 QUESTION2_18_L -1 1.493e+02 9.000e+00)
|            ( - 1.490e+02 1 0))
|        ( - 3.533e+01 7 0 QUESTION15 -1 1.409e+02 5.805e+01))
|    ( QUESTION17 -1 -4.860e+03 7.542e+02 1.299e+03
|        ( QUESTION0_0_R 1 -9.132e+02 2.237e+02 3.920e+02
|            ( - 1.654e+02 1 0)
|            ( - -8.550e+02 3 0))
|        ( QUESTION20 -1 -3.193e+03 4.375e+02 9.067e+02
|            ( - -9.788e+01 2 0)
|            ( QUESTION2_20_L -1 -2.658e+03 1.587e+02 7.330e+02
|                ( - -1.429e+02 3 0)
|                ( - -2.356e+03 17 0 QUESTION2_14_L -1 1.319e+02 6.832e+02)))))
s>    ( QUESTION0_7_R 1 -6.107e+03 8.576e+02 1.368e+03
s>        ( QUESTION2_17_L -1 -3.891e+02 3.176e+02 6.905e+01
s>            ( QUESTION0_8_R 1 -1.069e+02 1.656e+02 1.100e+01
s>                ( - -9.029e+01 3 0 QUESTION2_18_L -1 1.493e+02 9.000e+00)
s>                ( - 1.490e+02 1 0))
s>            ( - 3.533e+01 7 0 QUESTION15 -1 1.409e+02 5.805e+01))
s>        ( QUESTION17 -1 -4.860e+03 7.542e+02 1.299e+03
s>            ( QUESTION0_0_R 1 -9.132e+02 2.237e+02 3.920e+02
s>                ( - 1.654e+02 1 0)
s>                ( - -8.550e+02 3 0))
s>            ( QUESTION20 -1 -3.193e+03 4.375e+02 9.067e+02
s>                ( - -9.788e+01 2 0)
s>                ( QUESTION2_20_L -1 -2.658e+03 1.587e+02 7.330e+02
s>                    ( - -1.429e+02 3 0)
s>                    ( - -2.356e+03 17 0 QUESTION2_14_L -1 1.319e+02 6.832e+02)))))INFO: dtree.c(1351): Comp split 2
INFO: dtree.c(1524): Final simple tree
|( QUESTION20 -1 -3.167e+04 9.465e+02 4.902e+03
|    ( - -4.913e+03 9 0)
|    ( QUESTION2_17_L -1 -2.581e+04 6.114e+02 4.078e+03
|        ( QUESTION14 -1 -2.803e+03 2.023e+02 4.325e+02
|            ( - -8.135e+02 10 0)
|            ( - -1.787e+03 7 0))
|        ( QUESTION7 -1 -2.239e+04 4.863e+02 3.646e+03
|            ( QUESTION2_3_L -1 -3.096e+03 2.603e+02 3.686e+02
|                ( - -7.502e+02 4 0)
|                ( QUESTION2_12_L -1 -2.086e+03 1.701e+02 1.891e+02
|                    ( - -1.338e+02 4 0)
|                    ( QUESTION2_0_L -1 -1.782e+03 1.384e+02 1.651e+02
|                        ( - -1.307e+03 6 0 QUESTION8 -1 1.120e+02 1.372e+02)
|                        ( - -3.359e+02 3 0))))
|            ( - -1.881e+04 30 0 QUESTION6 -1 1.287e+02 3.277e+03))))
s>    ( QUESTION20 -1 -3.167e+04 9.465e+02 4.902e+03
s>        ( - -4.913e+03 9 0)
s>        ( QUESTION2_17_L -1 -2.581e+04 6.114e+02 4.078e+03
s>            ( QUESTION14 -1 -2.803e+03 2.023e+02 4.325e+02
s>                ( - -8.135e+02 10 0)
s>                ( - -1.787e+03 7 0))
s>            ( QUESTION7 -1 -2.239e+04 4.863e+02 3.646e+03
s>                ( QUESTION2_3_L -1 -3.096e+03 2.603e+02 3.686e+02
s>                    ( - -7.502e+02 4 0)
s>                    ( QUESTION2_12_L -1 -2.086e+03 1.701e+02 1.891e+02
s>                        ( - -1.338e+02 4 0)
s>                        ( QUESTION2_0_L -1 -1.782e+03 1.384e+02 1.651e+02
s>                            ( - -1.307e+03 6 0 QUESTION8 -1 1.120e+02 1.372e+02)
s>                            ( - -3.359e+02 3 0))))
s>                ( - -1.881e+04 30 0 QUESTION6 -1 1.287e+02 3.277e+03))))INFO: dtree.c(1483): stop. leaf nodes are specific
INFO: dtree.c(1524): Final simple tree
|( QUESTION14 -1 -1.332e+04 1.716e+03 3.808e+03
|    ( - -7.393e+02 6 0)
|    ( QUESTION17 -1 -1.086e+04 3.346e+02 3.221e+03
|        ( - -9.799e+03 11 0)
|        ( - -7.271e+02 6 0)))
s>    ( QUESTION14 -1 -1.332e+04 1.716e+03 3.808e+03
s>        ( - -7.393e+02 6 0)
s>        ( QUESTION17 -1 -1.086e+04 3.346e+02 3.221e+03
s>            ( - -9.799e+03 11 0)
s>            ( - -7.271e+02 6 0)))INFO: dtree.c(1351): Comp split 3
INFO: dtree.c(1483): stop. leaf nodes are specific
INFO: dtree.c(1524): Final simple tree
|( QUESTION17 -1 -1.086e+04 3.346e+02 3.221e+03
|    ( - -9.799e+03 11 0)
|    ( - -7.271e+02 6 0))
s>    ( QUESTION17 -1 -1.086e+04 3.346e+02 3.221e+03
s>        ( - -9.799e+03 11 0)
s>        ( - -7.271e+02 6 0))INFO: dtree.c(1351): Comp split 4
INFO: dtree.c(1483): stop. leaf nodes are specific
INFO: dtree.c(1524): Final simple tree
|( QUESTION0_0_R 1 -1.539e+03 7.191e+02 4.480e+02
|    ( QUESTION15 -1 3.533e+01 1.409e+02 5.805e+01
|        ( QUESTION16 -1 2.263e+02 1.014e+02 3.415e+01
|            ( - 2.158e+02 1 0)
|            ( - 1.120e+02 1 0))
|        ( QUESTION0 -1 -5.005e+01 1.293e+02 2.390e+01
|            ( - 9.978e+01 1 0)
|            ( - -2.055e+01 4 0)))
|    ( - -8.550e+02 3 0))
s>    ( QUESTION0_0_R 1 -1.539e+03 7.191e+02 4.480e+02
s>        ( QUESTION15 -1 3.533e+01 1.409e+02 5.805e+01
s>            ( QUESTION16 -1 2.263e+02 1.014e+02 3.415e+01
s>                ( - 2.158e+02 1 0)
s>                ( - 1.120e+02 1 0))
s>            ( QUESTION0 -1 -5.005e+01 1.293e+02 2.390e+01
s>                ( - 9.978e+01 1 0)
s>                ( - -2.055e+01 4 0)))
s>        ( - -8.550e+02 3 0))INFO: dtree.c(1524): Final simple tree
|( QUESTION20 -1 -3.557e+03 4.445e+02 9.197e+02
|    ( - -9.788e+01 2 0)
|    ( QUESTION0_0_R 1 -3.014e+03 2.376e+02 7.460e+02
|        ( QUESTION0_4_R 1 -1.190e+02 1.776e+02 1.300e+01
|            ( - 1.654e+02 1 0)
|            ( QUESTION0_8_R 1 -1.069e+02 1.656e+02 1.100e+01
|                ( QUESTION2_18_L -1 -9.029e+01 1.493e+02 9.000e+00
|                    ( - 8.743e+01 1 0)
|                    ( - -2.844e+01 2 0))
|                ( - 1.490e+02 1 0)))
|        ( QUESTION2_20_L -1 -2.658e+03 1.587e+02 7.330e+02
|            ( - -1.429e+02 3 0)
|            ( QUESTION2_14_L -1 -2.356e+03 1.319e+02 6.832e+02
|                ( - 2.742e+01 2 0)
|                ( - -2.252e+03 15 0 QUESTION2_16_L -1 1.427e+02 6.502e+02)))))
s>    ( QUESTION20 -1 -3.557e+03 4.445e+02 9.197e+02
s>        ( - -9.788e+01 2 0)
s>        ( QUESTION0_0_R 1 -3.014e+03 2.376e+02 7.460e+02
s>            ( QUESTION0_4_R 1 -1.190e+02 1.776e+02 1.300e+01
s>                ( - 1.654e+02 1 0)
s>                ( QUESTION0_8_R 1 -1.069e+02 1.656e+02 1.100e+01
s>                    ( QUESTION2_18_L -1 -9.029e+01 1.493e+02 9.000e+00
s>                        ( - 8.743e+01 1 0)
s>                        ( - -2.844e+01 2 0))
s>                    ( - 1.490e+02 1 0)))
s>            ( QUESTION2_20_L -1 -2.658e+03 1.587e+02 7.330e+02
s>                ( - -1.429e+02 3 0)
s>                ( QUESTION2_14_L -1 -2.356e+03 1.319e+02 6.832e+02
s>                    ( - 2.742e+01 2 0)
s>                    ( - -2.252e+03 15 0 QUESTION2_16_L -1 1.427e+02 6.502e+02)))))INFO: dtree.c(1351): Comp split 5
INFO: dtree.c(1483): stop. leaf nodes are specific
INFO: dtree.c(1524): Final simple tree
|( QUESTION0 -1 -5.406e+03 1.566e+02 8.515e+02
|    ( - -3.359e+02 3 0)
|    ( - -4.913e+03 9 0))
s>    ( QUESTION0 -1 -5.406e+03 1.566e+02 8.515e+02
s>        ( - -3.359e+02 3 0)
s>        ( - -4.913e+03 9 0))INFO: dtree.c(1524): Final simple tree
|( QUESTION2_17_L -1 -2.530e+04 6.208e+02 4.050e+03
|    ( QUESTION14 -1 -2.803e+03 2.023e+02 4.325e+02
|        ( - -8.135e+02 10 0)
|        ( - -1.787e+03 7 0))
|    ( QUESTION7 -1 -2.187e+04 4.639e+02 3.618e+03
|        ( QUESTION2_3_L -1 -2.598e+03 2.305e+02 3.407e+02
|            ( - -7.502e+02 4 0)
|            ( QUESTION2_12_L -1 -1.617e+03 1.761e+02 1.612e+02
|                ( - -1.338e+02 4 0)
|                ( - -1.307e+03 6 0 QUESTION8 -1 1.120e+02 1.372e+02)))
|        ( QUESTION6 -1 -1.881e+04 1.287e+02 3.277e+03
|            ( - 1.275e+02 1 0)
|            ( QUESTION5 -1 -1.881e+04 1.467e+02 3.275e+03
|                ( - 1.364e+02 1 0)
|                ( - -1.880e+04 28 0 QUESTION0 -1 9.626e+01 3.273e+03)))))
s>    ( QUESTION2_17_L -1 -2.530e+04 6.208e+02 4.050e+03
s>        ( QUESTION14 -1 -2.803e+03 2.023e+02 4.325e+02
s>            ( - -8.135e+02 10 0)
s>            ( - -1.787e+03 7 0))
s>        ( QUESTION7 -1 -2.187e+04 4.639e+02 3.618e+03
s>            ( QUESTION2_3_L -1 -2.598e+03 2.305e+02 3.407e+02
s>                ( - -7.502e+02 4 0)
s>                ( QUESTION2_12_L -1 -1.617e+03 1.761e+02 1.612e+02
s>                    ( - -1.338e+02 4 0)
s>                    ( - -1.307e+03 6 0 QUESTION8 -1 1.120e+02 1.372e+02)))
s>            ( QUESTION6 -1 -1.881e+04 1.287e+02 3.277e+03
s>                ( - 1.275e+02 1 0)
s>                ( QUESTION5 -1 -1.881e+04 1.467e+02 3.275e+03
s>                    ( - 1.364e+02 1 0)
s>                    ( - -1.880e+04 28 0 QUESTION0 -1 9.626e+01 3.273e+03)))))INFO: dtree.c(1351): Comp split 6
INFO: dtree.c(1483): stop. leaf nodes are specific
INFO: dtree.c(1524): Final simple tree
|( QUESTION15 -1 3.533e+01 1.409e+02 5.805e+01
|    ( QUESTION16 -1 2.263e+02 1.014e+02 3.415e+01
|        ( - 2.158e+02 1 0)
|        ( - 1.120e+02 1 0))
|    ( QUESTION0 -1 -5.005e+01 1.293e+02 2.390e+01
|        ( - 9.978e+01 1 0)
|        ( - -2.055e+01 4 0)))
s>    ( QUESTION15 -1 3.533e+01 1.409e+02 5.805e+01
s>        ( QUESTION16 -1 2.263e+02 1.014e+02 3.415e+01
s>            ( - 2.158e+02 1 0)
s>            ( - 1.120e+02 1 0))
s>        ( QUESTION0 -1 -5.005e+01 1.293e+02 2.390e+01
s>            ( - 9.978e+01 1 0)
s>            ( - -2.055e+01 4 0)))INFO: dtree.c(1351): Comp split 7
INFO: dtree.c(1483): stop. leaf nodes are specific
INFO: dtree.c(1524): Final simple tree
|( QUESTION14 -1 -2.803e+03 2.023e+02 4.325e+02
|    ( - -8.135e+02 10 0)
|    ( - -1.787e+03 7 0))
s>    ( QUESTION14 -1 -2.803e+03 2.023e+02 4.325e+02
s>        ( - -8.135e+02 10 0)
s>        ( - -1.787e+03 7 0))INFO: dtree.c(1524): Final simple tree
|( QUESTION7 -1 -2.187e+04 4.639e+02 3.618e+03
|    ( QUESTION2_3_L -1 -2.598e+03 2.305e+02 3.407e+02
|        ( - -7.502e+02 4 0)
|        ( QUESTION2_12_L -1 -1.617e+03 1.761e+02 1.612e+02
|            ( - -1.338e+02 4 0)
|            ( QUESTION8 -1 -1.307e+03 1.120e+02 1.372e+02
|                ( - -1.301e+03 5 0)
|                ( - 1.053e+02 1 0))))
|    ( QUESTION6 -1 -1.881e+04 1.287e+02 3.277e+03
|        ( - 1.275e+02 1 0)
|        ( QUESTION5 -1 -1.881e+04 1.467e+02 3.275e+03
|            ( - 1.364e+02 1 0)
|            ( QUESTION0 -1 -1.880e+04 9.626e+01 3.273e+03
|                ( - 3.460e+01 4 0)
|                ( - -1.874e+04 24 0)))))
s>    ( QUESTION7 -1 -2.187e+04 4.639e+02 3.618e+03
s>        ( QUESTION2_3_L -1 -2.598e+03 2.305e+02 3.407e+02
s>            ( - -7.502e+02 4 0)
s>            ( QUESTION2_12_L -1 -1.617e+03 1.761e+02 1.612e+02
s>                ( - -1.338e+02 4 0)
s>                ( QUESTION8 -1 -1.307e+03 1.120e+02 1.372e+02
s>                    ( - -1.301e+03 5 0)
s>                    ( - 1.053e+02 1 0))))
s>        ( QUESTION6 -1 -1.881e+04 1.287e+02 3.277e+03
s>            ( - 1.275e+02 1 0)
s>            ( QUESTION5 -1 -1.881e+04 1.467e+02 3.275e+03
s>                ( - 1.364e+02 1 0)
s>                ( QUESTION0 -1 -1.880e+04 9.626e+01 3.273e+03
s>                    ( - 3.460e+01 4 0)
s>                    ( - -1.874e+04 24 0)))))INFO: dtree.c(1351): Comp split 8
INFO: dtree.c(1483): stop. leaf nodes are specific
INFO: dtree.c(1524): Final simple tree
|( QUESTION7 -1 -1.881e+04 1.117e+02 3.276e+03
|    ( - 1.053e+02 1 0)
|    ( QUESTION0 -1 -1.880e+04 9.626e+01 3.273e+03
|        ( - 3.460e+01 4 0)
|        ( - -1.874e+04 24 0)))
s>    ( QUESTION7 -1 -1.881e+04 1.117e+02 3.276e+03
s>        ( - 1.053e+02 1 0)
s>        ( QUESTION0 -1 -1.880e+04 9.626e+01 3.273e+03
s>            ( - 3.460e+01 4 0)
s>            ( - -1.874e+04 24 0)))INFO: dtree.c(1483): stop. leaf nodes are specific
INFO: dtree.c(1524): Final simple tree
|( QUESTION8 -1 -2.597e+03 2.318e+02 3.417e+02
|    ( QUESTION2_12_L -1 -1.607e+03 1.725e+02 1.582e+02
|        ( - -1.338e+02 4 0)
|        ( - -1.301e+03 5 0))
|    ( QUESTION6 -1 -7.580e+02 1.237e+02 1.835e+02
|        ( - 1.275e+02 1 0)
|        ( QUESTION3 -1 -7.619e+02 1.481e+02 1.815e+02
|            ( - 1.364e+02 1 0)
|            ( - -7.502e+02 4 0))))
s>    ( QUESTION8 -1 -2.597e+03 2.318e+02 3.417e+02
s>        ( QUESTION2_12_L -1 -1.607e+03 1.725e+02 1.582e+02
s>            ( - -1.338e+02 4 0)
s>            ( - -1.301e+03 5 0))
s>        ( QUESTION6 -1 -7.580e+02 1.237e+02 1.835e+02
s>            ( - 1.275e+02 1 0)
s>            ( QUESTION3 -1 -7.619e+02 1.481e+02 1.815e+02
s>                ( - 1.364e+02 1 0)
s>                ( - -7.502e+02 4 0))))INFO: dtree.c(1351): Comp split 9
INFO: dtree.c(1524): Final simple tree
|( QUESTION0_0_R 1 -3.014e+03 2.376e+02 7.460e+02
|    ( QUESTION0_4_R 1 -1.190e+02 1.776e+02 1.300e+01
|        ( - 1.654e+02 1 0)
|        ( QUESTION0_8_R 1 -1.069e+02 1.656e+02 1.100e+01
|            ( QUESTION2_18_L -1 -9.029e+01 1.493e+02 9.000e+00
|                ( - 8.743e+01 1 0)
|                ( - -2.844e+01 2 0))
|            ( - 1.490e+02 1 0)))
|    ( QUESTION2_20_L -1 -2.658e+03 1.587e+02 7.330e+02
|        ( - -1.429e+02 3 0)
|        ( QUESTION2_14_L -1 -2.356e+03 1.319e+02 6.832e+02
|            ( - 2.742e+01 2 0)
|            ( QUESTION2_16_L -1 -2.252e+03 1.427e+02 6.502e+02
|                ( - -2.064e+03 9 0 QUESTION0 -1 2.057e+02 5.797e+02)
|                ( - -4.490e+01 6 0 QUESTION15 -1 9.806e+01 7.048e+01)))))
s>    ( QUESTION0_0_R 1 -3.014e+03 2.376e+02 7.460e+02
s>        ( QUESTION0_4_R 1 -1.190e+02 1.776e+02 1.300e+01
s>            ( - 1.654e+02 1 0)
s>            ( QUESTION0_8_R 1 -1.069e+02 1.656e+02 1.100e+01
s>                ( QUESTION2_18_L -1 -9.029e+01 1.493e+02 9.000e+00
s>                    ( - 8.743e+01 1 0)
s>                    ( - -2.844e+01 2 0))
s>                ( - 1.490e+02 1 0)))
s>        ( QUESTION2_20_L -1 -2.658e+03 1.587e+02 7.330e+02
s>            ( - -1.429e+02 3 0)
s>            ( QUESTION2_14_L -1 -2.356e+03 1.319e+02 6.832e+02
s>                ( - 2.742e+01 2 0)
s>                ( QUESTION2_16_L -1 -2.252e+03 1.427e+02 6.502e+02
s>                    ( - -2.064e+03 9 0 QUESTION0 -1 2.057e+02 5.797e+02)
s>                    ( - -4.490e+01 6 0 QUESTION15 -1 9.806e+01 7.048e+01)))))INFO: dtree.c(1351): Comp split 10
INFO: dtree.c(1483): stop. leaf nodes are specific
INFO: dtree.c(1524): Final simple tree
|( QUESTION0 -1 2.512e+04 1.411e+02 2.213e+03
|    ( - 1.927e+02 1 0)
|    ( QUESTION14 -1 2.507e+04 1.108e+02 2.211e+03
|        ( - 7.541e+03 3 0)
|        ( - 1.764e+04 2 0)))
s>    ( QUESTION0 -1 2.512e+04 1.411e+02 2.213e+03
s>        ( - 1.927e+02 1 0)
s>        ( QUESTION14 -1 2.507e+04 1.108e+02 2.211e+03
s>            ( - 7.541e+03 3 0)
s>            ( - 1.764e+04 2 0)))INFO: dtree.c(1483): stop. leaf nodes are specific
INFO: dtree.c(1524): Final simple tree
|( QUESTION19 -1 4.256e+03 1.883e+02 4.834e+02
|    ( - 4.887e+02 1 0)
|    ( QUESTION0 -1 3.956e+03 1.806e+02 4.164e+02
|        ( QUESTION3 -1 2.226e+03 1.269e+02 2.176e+02
|            ( - 7.705e+02 1 0)
|            ( - 1.583e+03 1 0))
|        ( QUESTION16 -1 1.910e+03 1.591e+02 1.988e+02
|            ( - 1.119e+03 1 0)
|            ( QUESTION2_20_L -1 9.506e+02 1.264e+02 1.110e+02
|                ( - 3.890e+02 1 0)
|                ( QUESTION14 -1 6.880e+02 8.325e+01 8.500e+01
|                    ( - 4.804e+02 1 0)
|                    ( - 2.909e+02 1 0))))))
s>    ( QUESTION19 -1 4.256e+03 1.883e+02 4.834e+02
s>        ( - 4.887e+02 1 0)
s>        ( QUESTION0 -1 3.956e+03 1.806e+02 4.164e+02
s>            ( QUESTION3 -1 2.226e+03 1.269e+02 2.176e+02
s>                ( - 7.705e+02 1 0)
s>                ( - 1.583e+03 1 0))
s>            ( QUESTION16 -1 1.910e+03 1.591e+02 1.988e+02
s>                ( - 1.119e+03 1 0)
s>                ( QUESTION2_20_L -1 9.506e+02 1.264e+02 1.110e+02
s>                    ( - 3.890e+02 1 0)
s>                    ( QUESTION14 -1 6.880e+02 8.325e+01 8.500e+01
s>                        ( - 4.804e+02 1 0)
s>                        ( - 2.909e+02 1 0))))))INFO: dtree.c(1351): Comp split 11
INFO: dtree.c(1351): Comp split 12
INFO: dtree.c(1524): Final simple tree
|( QUESTION2_20_L -1 -2.800e+03 1.620e+02 7.400e+02
|    ( QUESTION0_0_R 1 -2.819e+02 1.106e+02 5.681e+01
|        ( - -2.844e+01 2 0)
|        ( - -1.429e+02 3 0))
|    ( QUESTION2_14_L -1 -2.356e+03 1.319e+02 6.832e+02
|        ( - 2.742e+01 2 0)
|        ( QUESTION2_16_L -1 -2.252e+03 1.427e+02 6.502e+02
|            ( QUESTION0 -1 -2.064e+03 2.057e+02 5.797e+02
|                ( - 8.558e+01 2 0)
|                ( - -1.944e+03 7 0))
|            ( QUESTION15 -1 -4.490e+01 9.806e+01 7.048e+01
|                ( - 1.969e+01 1 0)
|                ( QUESTION9 -1 3.347e+01 1.054e+02 5.149e+01
|                    ( - 6.303e+01 1 0)
|                    ( - 7.580e+01 4 0 QUESTION2_12_L -1 1.014e+02 4.749e+01))))))
s>    ( QUESTION2_20_L -1 -2.800e+03 1.620e+02 7.400e+02
s>        ( QUESTION0_0_R 1 -2.819e+02 1.106e+02 5.681e+01
s>            ( - -2.844e+01 2 0)
s>            ( - -1.429e+02 3 0))
s>        ( QUESTION2_14_L -1 -2.356e+03 1.319e+02 6.832e+02
s>            ( - 2.742e+01 2 0)
s>            ( QUESTION2_16_L -1 -2.252e+03 1.427e+02 6.502e+02
s>                ( QUESTION0 -1 -2.064e+03 2.057e+02 5.797e+02
s>                    ( - 8.558e+01 2 0)
s>                    ( - -1.944e+03 7 0))
s>                ( QUESTION15 -1 -4.490e+01 9.806e+01 7.048e+01
s>                    ( - 1.969e+01 1 0)
s>                    ( QUESTION9 -1 3.347e+01 1.054e+02 5.149e+01
s>                        ( - 6.303e+01 1 0)
s>                        ( - 7.580e+01 4 0 QUESTION2_12_L -1 1.014e+02 4.749e+01))))))INFO: dtree.c(1483): stop. leaf nodes are specific
INFO: dtree.c(1524): Final simple tree
|( QUESTION0_4_R 1 3.193e+01 1.879e+02 6.000e+00
|    ( - 1.654e+02 1 0)
|    ( QUESTION0_8_R 1 5.437e+01 1.821e+02 4.000e+00
|        ( - 8.743e+01 1 0)
|        ( - 1.490e+02 1 0)))
s>    ( QUESTION0_4_R 1 3.193e+01 1.879e+02 6.000e+00
s>        ( - 1.654e+02 1 0)
s>        ( QUESTION0_8_R 1 5.437e+01 1.821e+02 4.000e+00
s>            ( - 8.743e+01 1 0)
s>            ( - 1.490e+02 1 0)))INFO: dtree.c(1351): Comp split 13
INFO: dtree.c(1483): stop. leaf nodes are specific
INFO: dtree.c(1524): Final simple tree
|( QUESTION2_12_L -1 -1.616e+03 1.717e+02 1.602e+02
|    ( - -1.338e+02 4 0)
|    ( QUESTION3 -1 -1.311e+03 1.465e+02 1.362e+02
|        ( - 1.364e+02 1 0)
|        ( - -1.301e+03 5 0)))
s>    ( QUESTION2_12_L -1 -1.616e+03 1.717e+02 1.602e+02
s>        ( - -1.338e+02 4 0)
s>        ( QUESTION3 -1 -1.311e+03 1.465e+02 1.362e+02
s>            ( - 1.364e+02 1 0)
s>            ( - -1.301e+03 5 0)))INFO: dtree.c(1483): stop. leaf nodes are specific
INFO: dtree.c(1524): Final simple tree
|( QUESTION3 -1 -7.464e+02 1.238e+02 1.815e+02
|    ( - 1.275e+02 1 0)
|    ( - -7.502e+02 4 0))
s>    ( QUESTION3 -1 -7.464e+02 1.238e+02 1.815e+02
s>        ( - 1.275e+02 1 0)
s>        ( - -7.502e+02 4 0))INFO: dtree.c(1351): Comp split 14
INFO: dtree.c(1483): stop. leaf nodes are specific
INFO: dtree.c(1524): Final simple tree
|( QUESTION0 -1 -2.028e+02 1.455e+02 6.481e+01
|    ( - 8.558e+01 2 0)
|    ( - -1.429e+02 3 0))
s>    ( QUESTION0 -1 -2.028e+02 1.455e+02 6.481e+01
s>        ( - 8.558e+01 2 0)
s>        ( - -1.429e+02 3 0))INFO: dtree.c(1524): Final simple tree
|( QUESTION2_14_L -1 -2.373e+03 1.341e+02 6.752e+02
|    ( - 2.742e+01 2 0)
|    ( QUESTION2_16_L -1 -2.266e+03 1.377e+02 6.422e+02
|        ( - -1.944e+03 7 0)
|        ( QUESTION0_0_R 1 -1.844e+02 1.110e+02 7.748e+01
|            ( - -2.844e+01 2 0)
|            ( QUESTION15 -1 -4.490e+01 9.806e+01 7.048e+01
|                ( - 1.969e+01 1 0)
|                ( QUESTION9 -1 3.347e+01 1.054e+02 5.149e+01
|                    ( - 6.303e+01 1 0)
|                    ( QUESTION2_12_L -1 7.580e+01 1.014e+02 4.749e+01
|                        ( - 7.682e+01 1 0)
|                        ( QUESTION7 -1 1.004e+02 9.353e+01 4.449e+01
|                            ( - 1.291e+02 1 0)
|                            ( - 6.487e+01 2 0 QUESTION0 -1 6.923e+01 2.273e+01))))))))
s>    ( QUESTION2_14_L -1 -2.373e+03 1.341e+02 6.752e+02
s>        ( - 2.742e+01 2 0)
s>        ( QUESTION2_16_L -1 -2.266e+03 1.377e+02 6.422e+02
s>            ( - -1.944e+03 7 0)
s>            ( QUESTION0_0_R 1 -1.844e+02 1.110e+02 7.748e+01
s>                ( - -2.844e+01 2 0)
s>                ( QUESTION15 -1 -4.490e+01 9.806e+01 7.048e+01
s>                    ( - 1.969e+01 1 0)
s>                    ( QUESTION9 -1 3.347e+01 1.054e+02 5.149e+01
s>                        ( - 6.303e+01 1 0)
s>                        ( QUESTION2_12_L -1 7.580e+01 1.014e+02 4.749e+01
s>                            ( - 7.682e+01 1 0)
s>                            ( QUESTION7 -1 1.004e+02 9.353e+01 4.449e+01
s>                                ( - 1.291e+02 1 0)
s>                                ( - 6.487e+01 2 0 QUESTION0 -1 6.923e+01 2.273e+01))))))))INFO: dtree.c(1351): Comp split 15
INFO: dtree.c(1483): stop. leaf nodes are specific
INFO: dtree.c(1524): Final simple tree
|( QUESTION14 -1 1.406e+03 1.014e+02 1.138e+02
|    ( - 3.890e+02 1 0)
|    ( - 1.119e+03 1 0))
s>    ( QUESTION14 -1 1.406e+03 1.014e+02 1.138e+02
s>        ( - 3.890e+02 1 0)
s>        ( - 1.119e+03 1 0))INFO: dtree.c(1483): stop. leaf nodes are specific
INFO: dtree.c(1524): Final simple tree
|( QUESTION0 -1 3.062e+03 1.932e+02 3.696e+02
|    ( QUESTION3 -1 2.226e+03 1.269e+02 2.176e+02
|        ( - 7.705e+02 1 0)
|        ( - 1.583e+03 1 0))
|    ( QUESTION16 -1 1.029e+03 1.476e+02 1.520e+02
|        ( - 4.887e+02 1 0)
|        ( QUESTION14 -1 6.880e+02 8.325e+01 8.500e+01
|            ( - 4.804e+02 1 0)
|            ( - 2.909e+02 1 0))))
s>    ( QUESTION0 -1 3.062e+03 1.932e+02 3.696e+02
s>        ( QUESTION3 -1 2.226e+03 1.269e+02 2.176e+02
s>            ( - 7.705e+02 1 0)
s>            ( - 1.583e+03 1 0))
s>        ( QUESTION16 -1 1.029e+03 1.476e+02 1.520e+02
s>            ( - 4.887e+02 1 0)
s>            ( QUESTION14 -1 6.880e+02 8.325e+01 8.500e+01
s>                ( - 4.804e+02 1 0)
s>                ( - 2.909e+02 1 0))))INFO: dtree.c(1351): Comp split 16
INFO: dtree.c(1351): Comp split 17
INFO: dtree.c(1483): stop. leaf nodes are specific
INFO: dtree.c(1524): Final simple tree
|( QUESTION16 -1 1.029e+03 1.476e+02 1.520e+02
|    ( - 4.887e+02 1 0)
|    ( QUESTION14 -1 6.880e+02 8.325e+01 8.500e+01
|        ( - 4.804e+02 1 0)
|        ( - 2.909e+02 1 0)))
s>    ( QUESTION16 -1 1.029e+03 1.476e+02 1.520e+02
s>        ( - 4.887e+02 1 0)
s>        ( QUESTION14 -1 6.880e+02 8.325e+01 8.500e+01
s>            ( - 4.804e+02 1 0)
s>            ( - 2.909e+02 1 0)))INFO: dtree.c(1483): stop. leaf nodes are specific
INFO: dtree.c(1524): Final simple tree
|( QUESTION3 -1 2.226e+03 1.269e+02 2.176e+02
|    ( - 7.705e+02 1 0)
|    ( - 1.583e+03 1 0))
s>    ( QUESTION3 -1 2.226e+03 1.269e+02 2.176e+02
s>        ( - 7.705e+02 1 0)
s>        ( - 1.583e+03 1 0))INFO: dtree.c(1351): Comp split 18
INFO: dtree.c(1483): stop. leaf nodes are specific
INFO: dtree.c(1524): Final simple tree
|( QUESTION0_8_R 1 5.437e+01 1.821e+02 4.000e+00
|    ( - 8.743e+01 1 0)
|    ( - 1.490e+02 1 0))
s>    ( QUESTION0_8_R 1 5.437e+01 1.821e+02 4.000e+00
s>        ( - 8.743e+01 1 0)
s>        ( - 1.490e+02 1 0))INFO: dtree.c(1351): Comp split 19
INFO: dtree.c(1351): Comp split 20
INFO: dtree.c(1483): stop. leaf nodes are specific
INFO: dtree.c(1524): Final simple tree
|( QUESTION3 -1 -1.311e+03 1.465e+02 1.362e+02
|    ( - 1.364e+02 1 0)
|    ( - -1.301e+03 5 0))
s>    ( QUESTION3 -1 -1.311e+03 1.465e+02 1.362e+02
s>        ( - 1.364e+02 1 0)
s>        ( - -1.301e+03 5 0))INFO: dtree.c(1351): Comp split 21
INFO: dtree.c(1351): Comp split 22
INFO: dtree.c(1483): stop. leaf nodes are specific
INFO: dtree.c(1524): Final simple tree
|( QUESTION9 -1 3.347e+01 1.054e+02 5.149e+01
|    ( - 6.303e+01 1 0)
|    ( QUESTION2_12_L -1 7.580e+01 1.014e+02 4.749e+01
|        ( - 7.682e+01 1 0)
|        ( QUESTION7 -1 1.004e+02 9.353e+01 4.449e+01
|            ( - 1.291e+02 1 0)
|            ( QUESTION0 -1 6.487e+01 6.923e+01 2.273e+01
|                ( - 4.698e+01 1 0)
|                ( - 8.713e+01 1 0)))))
s>    ( QUESTION9 -1 3.347e+01 1.054e+02 5.149e+01
s>        ( - 6.303e+01 1 0)
s>        ( QUESTION2_12_L -1 7.580e+01 1.014e+02 4.749e+01
s>            ( - 7.682e+01 1 0)
s>            ( QUESTION7 -1 1.004e+02 9.353e+01 4.449e+01
s>                ( - 1.291e+02 1 0)
s>                ( QUESTION0 -1 6.487e+01 6.923e+01 2.273e+01
s>                    ( - 4.698e+01 1 0)
s>                    ( - 8.713e+01 1 0)))))INFO: dtree.c(1483): stop. leaf nodes are specific
INFO: dtree.c(1524): Final simple tree
|( QUESTION2_14_L -1 -2.257e+03 1.333e+02 6.237e+02
|    ( - 2.742e+01 2 0)
|    ( QUESTION0_0_R 1 -2.151e+03 1.126e+02 5.907e+02
|        ( - -2.844e+01 2 0)
|        ( QUESTION14 -1 -2.010e+03 8.548e+01 5.837e+02
|            ( - -1.944e+03 7 0)
|            ( - 1.969e+01 1 0))))
s>    ( QUESTION2_14_L -1 -2.257e+03 1.333e+02 6.237e+02
s>        ( - 2.742e+01 2 0)
s>        ( QUESTION0_0_R 1 -2.151e+03 1.126e+02 5.907e+02
s>            ( - -2.844e+01 2 0)
s>            ( QUESTION14 -1 -2.010e+03 8.548e+01 5.837e+02
s>                ( - -1.944e+03 7 0)
s>                ( - 1.969e+01 1 0))))INFO: dtree.c(1351): Comp split 23
INFO: dtree.c(1483): stop. leaf nodes are specific
INFO: dtree.c(1524): Final simple tree
|( QUESTION14 -1 6.880e+02 8.325e+01 8.500e+01
|    ( - 4.804e+02 1 0)
|    ( - 2.909e+02 1 0))
s>    ( QUESTION14 -1 6.880e+02 8.325e+01 8.500e+01
s>        ( - 4.804e+02 1 0)
s>        ( - 2.909e+02 1 0))INFO: dtree.c(1351): Comp split 24
INFO: dtree.c(1351): Comp split 25
INFO: dtree.c(1351): Comp split 26
INFO: dtree.c(1483): stop. leaf nodes are specific
INFO: dtree.c(1524): Final simple tree
|( QUESTION14 -1 2.507e+04 1.108e+02 2.211e+03
|    ( - 7.541e+03 3 0)
|    ( - 1.764e+04 2 0))
s>    ( QUESTION14 -1 2.507e+04 1.108e+02 2.211e+03
s>        ( - 7.541e+03 3 0)
s>        ( - 1.764e+04 2 0))INFO: dtree.c(1351): Comp split 27
INFO: dtree.c(1483): stop. leaf nodes are specific
INFO: dtree.c(1524): Final simple tree
|( QUESTION0 -1 -5.005e+01 1.293e+02 2.390e+01
|    ( - 9.978e+01 1 0)
|    ( - -2.055e+01 4 0))
s>    ( QUESTION0 -1 -5.005e+01 1.293e+02 2.390e+01
s>        ( - 9.978e+01 1 0)
s>        ( - -2.055e+01 4 0))INFO: dtree.c(1483): stop. leaf nodes are specific
INFO: dtree.c(1524): Final simple tree
|( QUESTION16 -1 2.263e+02 1.014e+02 3.415e+01
|    ( - 2.158e+02 1 0)
|    ( - 1.120e+02 1 0))
s>    ( QUESTION16 -1 2.263e+02 1.014e+02 3.415e+01
s>        ( - 2.158e+02 1 0)
s>        ( - 1.120e+02 1 0))INFO: dtree.c(1351): Comp split 28
INFO: dtree.c(1483): stop. leaf nodes are specific
INFO: dtree.c(1524): Final simple tree
|( QUESTION0_0_R 1 -2.151e+03 1.126e+02 5.907e+02
|    ( - -2.844e+01 2 0)
|    ( QUESTION14 -1 -2.010e+03 8.548e+01 5.837e+02
|        ( - -1.944e+03 7 0)
|        ( - 1.969e+01 1 0)))
s>    ( QUESTION0_0_R 1 -2.151e+03 1.126e+02 5.907e+02
s>        ( - -2.844e+01 2 0)
s>        ( QUESTION14 -1 -2.010e+03 8.548e+01 5.837e+02
s>            ( - -1.944e+03 7 0)
s>            ( - 1.969e+01 1 0)))INFO: dtree.c(1351): Comp split 29
INFO: dtree.c(1351): Comp split 30
INFO: dtree.c(1351): Comp split 31
INFO: dtree.c(1351): Comp split 32
INFO: dtree.c(1483): stop. leaf nodes are specific
INFO: dtree.c(1524): Final simple tree
|( QUESTION14 -1 -2.010e+03 8.548e+01 5.837e+02
|    ( - -1.944e+03 7 0)
|    ( - 1.969e+01 1 0))
s>    ( QUESTION14 -1 -2.010e+03 8.548e+01 5.837e+02
s>        ( - -1.944e+03 7 0)
s>        ( - 1.969e+01 1 0))INFO: dtree.c(1351): Comp split 33
INFO: dtree.c(1483): stop. leaf nodes are specific
INFO: dtree.c(1524): Final simple tree
|( QUESTION0 -1 -1.880e+04 9.626e+01 3.273e+03
|    ( - 3.460e+01 4 0)
|    ( - -1.874e+04 24 0))
s>    ( QUESTION0 -1 -1.880e+04 9.626e+01 3.273e+03
s>        ( - 3.460e+01 4 0)
s>        ( - -1.874e+04 24 0))INFO: dtree.c(1351): Comp split 34
INFO: dtree.c(1351): Comp split 35
INFO: dtree.c(1483): stop. leaf nodes are specific
INFO: dtree.c(1524): Final simple tree
|( QUESTION7 -1 1.004e+02 9.353e+01 4.449e+01
|    ( - 1.291e+02 1 0)
|    ( QUESTION0 -1 6.487e+01 6.923e+01 2.273e+01
|        ( - 4.698e+01 1 0)
|        ( - 8.713e+01 1 0)))
s>    ( QUESTION7 -1 1.004e+02 9.353e+01 4.449e+01
s>        ( - 1.291e+02 1 0)
s>        ( QUESTION0 -1 6.487e+01 6.923e+01 2.273e+01
s>            ( - 4.698e+01 1 0)
s>            ( - 8.713e+01 1 0)))INFO: dtree.c(1483): stop. leaf nodes are specific
INFO: dtree.c(1524): Final simple tree
|( QUESTION8 -1 3.994e+01 9.991e+01 7.000e+00
|    ( - 7.682e+01 1 0)
|    ( - 6.303e+01 1 0))
s>    ( QUESTION8 -1 3.994e+01 9.991e+01 7.000e+00
s>        ( - 7.682e+01 1 0)
s>        ( - 6.303e+01 1 0))INFO: dtree.c(1351): Comp split 36
INFO: dtree.c(1351): Comp split 37
INFO: dtree.c(1351): Comp split 38
INFO: dtree.c(1351): Comp split 39
INFO: dtree.c(1351): Comp split 40
INFO: dtree.c(1483): stop. leaf nodes are specific
INFO: dtree.c(1524): Final simple tree
|( QUESTION0 -1 6.487e+01 6.923e+01 2.273e+01
|    ( - 4.698e+01 1 0)
|    ( - 8.713e+01 1 0))
s>    ( QUESTION0 -1 6.487e+01 6.923e+01 2.273e+01
s>        ( - 4.698e+01 1 0)
s>        ( - 8.713e+01 1 0))INFO: dtree.c(1351): Comp split 41
INFO: dtree.c(1351): Comp split 42
INFO: dtree.c(1351): Comp split 43
INFO: dtree.c(1351): Comp split 44
INFO: dtree.c(1354): stop. leaf nodes are specific
Mon May  6 20:57:16 2013
