INFO: cmd_ln.c(691): Parsing command line:
/home/ssitaram/projects/tts_no_text/English/accEngCB/bin/norm \
	-accumdir /home/ssitaram/projects/tts_no_text/English/accEngCB/bwaccumdir/accEngCB_buff_1 \
	-mixwfn /home/ssitaram/projects/tts_no_text/English/accEngCB//model_parameters/accEngCB.cd_cont_untied/mixture_weights \
	-tmatfn /home/ssitaram/projects/tts_no_text/English/accEngCB//model_parameters/accEngCB.cd_cont_untied/transition_matrices \
	-meanfn /home/ssitaram/projects/tts_no_text/English/accEngCB//model_parameters/accEngCB.cd_cont_untied/means \
	-varfn /home/ssitaram/projects/tts_no_text/English/accEngCB//model_parameters/accEngCB.cd_cont_untied/variances \
	-fullvar no 

Current configuration:
[NAME]		[DEFLT]	[VALUE]
-accumdir		/home/ssitaram/projects/tts_no_text/English/accEngCB/bwaccumdir/accEngCB_buff_1,
-constE		3.0	3.000000e+00
-dcountfn		
-example	no	no
-fullvar	no	no
-help		no	no
-inmeanfn		
-inmixwfn		
-invarfn		
-meanfn			/home/ssitaram/projects/tts_no_text/English/accEngCB//model_parameters/accEngCB.cd_cont_untied/means
-mixwfn			/home/ssitaram/projects/tts_no_text/English/accEngCB//model_parameters/accEngCB.cd_cont_untied/mixture_weights
-mmie		no	no
-oaccumdir		
-regmatfn		
-tiedvar	no	no
-tmatfn			/home/ssitaram/projects/tts_no_text/English/accEngCB//model_parameters/accEngCB.cd_cont_untied/transition_matrices
-varfn			/home/ssitaram/projects/tts_no_text/English/accEngCB//model_parameters/accEngCB.cd_cont_untied/variances

INFO: main.c(223): Reading and accumulating counts from /home/ssitaram/projects/tts_no_text/English/accEngCB/bwaccumdir/accEngCB_buff_1
INFO: s3mixw_io.c(116): Read /home/ssitaram/projects/tts_no_text/English/accEngCB/bwaccumdir/accEngCB_buff_1/mixw_counts [24789x1x1 array]
INFO: s3tmat_io.c(115): Read /home/ssitaram/projects/tts_no_text/English/accEngCB/bwaccumdir/accEngCB_buff_1/tmat_counts [33x3x4 array]
INFO: s3gau_io.c(379): Read /home/ssitaram/projects/tts_no_text/English/accEngCB/bwaccumdir/accEngCB_buff_1/gauden_counts with means with vars (2pass) [24789x1x1 vector arrays]
INFO: main.c(337): -2passvar yes
INFO: main.c(433): Normalizing mean for n_mgau= 24789, n_stream= 1, n_density= 1
INFO: main.c(457): Normalizing var
INFO: s3mixw_io.c(232): Wrote /home/ssitaram/projects/tts_no_text/English/accEngCB//model_parameters/accEngCB.cd_cont_untied/mixture_weights [24789x1x1 array]
INFO: s3tmat_io.c(174): Wrote /home/ssitaram/projects/tts_no_text/English/accEngCB//model_parameters/accEngCB.cd_cont_untied/transition_matrices [33x3x4 array]
INFO: s3gau_io.c(226): Wrote /home/ssitaram/projects/tts_no_text/English/accEngCB//model_parameters/accEngCB.cd_cont_untied/means [24789x1x1 array]
INFO: s3gau_io.c(226): Wrote /home/ssitaram/projects/tts_no_text/English/accEngCB//model_parameters/accEngCB.cd_cont_untied/variances [24789x1x1 array]
Mon May  6 20:54:30 2013
Current Overall Likelihood Per Frame = 0.539505097538946
Convergence ratio = 1.72235486425745
