INFO: cmd_ln.c(691): Parsing command line:
/home/ssitaram/projects/tts_no_text/English/accEngCB/bin/bldtree \
	-treefn /home/ssitaram/projects/tts_no_text/English/accEngCB//trees/accEngCB.unpruned/NG-0.dtree \
	-moddeffn /home/ssitaram/projects/tts_no_text/English/accEngCB//model_architecture/accEngCB.untied.mdef \
	-mixwfn /home/ssitaram/projects/tts_no_text/English/accEngCB//model_parameters/accEngCB.cd_cont_untied/mixture_weights \
	-ts2cbfn .cont. \
	-mwfloor 1e-08 \
	-psetfn /home/ssitaram/projects/tts_no_text/English/accEngCB//model_architecture/accEngCB.tree_questions \
	-phone NG \
	-state 0 \
	-stwt 1.0,0.05,0.0 \
	-meanfn /home/ssitaram/projects/tts_no_text/English/accEngCB//model_parameters/accEngCB.cd_cont_untied/means \
	-varfn /home/ssitaram/projects/tts_no_text/English/accEngCB//model_parameters/accEngCB.cd_cont_untied/variances \
	-fullvar no \
	-ssplitmin 1 \
	-ssplitmax 7 \
	-ssplitthr 0 \
	-csplitmin 1 \
	-csplitmax 2000 \
	-csplitthr 0 

Current configuration:
[NAME]		[DEFLT]	[VALUE]
-allphones	no	no
-cntthresh	0.00001	1.000000e-05
-csplitmax	100	2000
-csplitmin	1	1
-csplitthr	8e-4	0.000000e+00
-example	no	no
-fullvar	no	no
-help		no	no
-meanfn			/home/ssitaram/projects/tts_no_text/English/accEngCB//model_parameters/accEngCB.cd_cont_untied/means
-mixwfn			/home/ssitaram/projects/tts_no_text/English/accEngCB//model_parameters/accEngCB.cd_cont_untied/mixture_weights
-moddeffn		/home/ssitaram/projects/tts_no_text/English/accEngCB//model_architecture/accEngCB.untied.mdef
-mwfloor	1e-4	1.000000e-08
-phone			NG
-psetfn			/home/ssitaram/projects/tts_no_text/English/accEngCB//model_architecture/accEngCB.tree_questions
-ssplitmax	5	7
-ssplitmin	1	1
-ssplitthr	8e-4	0.000000e+00
-state			0
-stwt			1.0,0.05,0.0,
-treefn			/home/ssitaram/projects/tts_no_text/English/accEngCB//trees/accEngCB.unpruned/NG-0.dtree
-ts2cbfn	.semi.	.cont.
-varfloor	0.00001	1.000000e-05
-varfn			/home/ssitaram/projects/tts_no_text/English/accEngCB//model_parameters/accEngCB.cd_cont_untied/variances

INFO: main.c(228): Reading: /home/ssitaram/projects/tts_no_text/English/accEngCB//model_architecture/accEngCB.untied.mdef
INFO: model_def_io.c(587): Model definition info:
INFO: model_def_io.c(588): 8263 total models defined (33 base, 8230 tri)
INFO: model_def_io.c(589): 33052 total states
INFO: model_def_io.c(590): 24789 total tied states
INFO: model_def_io.c(591): 99 total tied CI states
INFO: model_def_io.c(592): 33 total tied transition matrices
INFO: model_def_io.c(593): 4 max state/model
INFO: model_def_io.c(594): 4 min state/model
INFO: main.c(247): Building trees for [NG AH AH s] through [NG UW Z s]
INFO: main.c(275): Covering states |[15975 16262]| == 288
INFO: main.c(282): Reading: /home/ssitaram/projects/tts_no_text/English/accEngCB//model_parameters/accEngCB.cd_cont_untied/mixture_weights
INFO: s3mixw_io.c(172): Read /home/ssitaram/projects/tts_no_text/English/accEngCB//model_parameters/accEngCB.cd_cont_untied/mixture_weights [288x1x1 array]
INFO: main.c(320): 96 of 96 models have observation count greater than 0.000010
INFO: main.c(94): nrm stwt: 0.952 0.048 0.000 
INFO: s3gau_io.c(166): Read /home/ssitaram/projects/tts_no_text/English/accEngCB//model_parameters/accEngCB.cd_cont_untied/means [24789x1x1 array]
INFO: s3gau_io.c(166): Read /home/ssitaram/projects/tts_no_text/English/accEngCB//model_parameters/accEngCB.cd_cont_untied/variances [24789x1x1 array]
INFO: main.c(576): Reading: /home/ssitaram/projects/tts_no_text/English/accEngCB//model_architecture/accEngCB.tree_questions
INFO: main.c(619): 180 total simple questions (172 phone; 8 word bndry)
INFO: main.c(621): 42 Left Only questions, and 42 Right Only questions
INFO: dtree.c(1524): Final simple tree
|( QUESTION2_16_L -1 -4.331e+03 6.412e+03 6.129e+03
|    ( QUESTION0_3_R 1 -5.072e+02 5.137e+02 9.346e+02
|        ( - 3.378e+01 16 0 QUESTION6 1 2.680e+02 5.175e+02)
|        ( - -2.729e+01 21 0 SILENCE 1 3.016e+02 4.171e+02))
|    ( QUESTION2_20_L -1 2.588e+03 1.415e+03 5.194e+03
|        ( QUESTION0_20_R 1 3.769e+03 1.301e+03 4.441e+03
|            ( - 8.371e+02 9 0 QUESTION14 1 1.881e+02 1.309e+03)
|            ( QUESTION18 1 4.234e+03 6.504e+02 3.132e+03
|                ( - 8.632e+02 3 0 QUESTION0_18_R 1 2.465e+02 4.280e+02)
|                ( SILENCE 1 4.021e+03 4.581e+02 2.704e+03
|                    ( - 6.183e+02 1 0)
|                    ( - 3.860e+03 14 0 QUESTION0_1_R 1 4.326e+02 2.647e+03))))
|        ( QUESTION14 1 2.340e+02 5.077e+02 7.532e+02
|            ( - 8.808e+02 6 0)
|            ( - -1.390e+02 26 0 QUESTION0_2_R 1 2.619e+02 4.106e+02))))
s>    ( QUESTION2_16_L -1 -4.331e+03 6.412e+03 6.129e+03
s>        ( QUESTION0_3_R 1 -5.072e+02 5.137e+02 9.346e+02
s>            ( - 3.378e+01 16 0 QUESTION6 1 2.680e+02 5.175e+02)
s>            ( - -2.729e+01 21 0 SILENCE 1 3.016e+02 4.171e+02))
s>        ( QUESTION2_20_L -1 2.588e+03 1.415e+03 5.194e+03
s>            ( QUESTION0_20_R 1 3.769e+03 1.301e+03 4.441e+03
s>                ( - 8.371e+02 9 0 QUESTION14 1 1.881e+02 1.309e+03)
s>                ( QUESTION18 1 4.234e+03 6.504e+02 3.132e+03
s>                    ( - 8.632e+02 3 0 QUESTION0_18_R 1 2.465e+02 4.280e+02)
s>                    ( SILENCE 1 4.021e+03 4.581e+02 2.704e+03
s>                        ( - 6.183e+02 1 0)
s>                        ( - 3.860e+03 14 0 QUESTION0_1_R 1 4.326e+02 2.647e+03))))
s>            ( QUESTION14 1 2.340e+02 5.077e+02 7.532e+02
s>                ( - 8.808e+02 6 0)
s>                ( - -1.390e+02 26 0 QUESTION0_2_R 1 2.619e+02 4.106e+02))))INFO: dtree.c(1351): Comp split 0
INFO: dtree.c(1524): Final simple tree
|( QUESTION2_20_L -1 2.588e+03 1.415e+03 5.194e+03
|    ( QUESTION0_20_R 1 3.769e+03 1.301e+03 4.441e+03
|        ( - 8.371e+02 9 0 QUESTION14 1 1.881e+02 1.309e+03)
|        ( QUESTION18 1 4.234e+03 6.504e+02 3.132e+03
|            ( - 8.632e+02 3 0 QUESTION0_18_R 1 2.465e+02 4.280e+02)
|            ( SILENCE 1 4.021e+03 4.581e+02 2.704e+03
|                ( - 6.183e+02 1 0)
|                ( QUESTION0_1_R 1 3.860e+03 4.326e+02 2.647e+03
|                    ( - 1.314e+03 2 0)
|                    ( QUESTION1 1 2.979e+03 3.214e+02 2.125e+03
|                        ( - 1.095e+03 1 0)
|                        ( - 2.205e+03 11 0 QUESTION0_11_R 1 3.074e+02 1.886e+03))))))
|    ( QUESTION14 1 2.340e+02 5.077e+02 7.532e+02
|        ( - 8.808e+02 6 0)
|        ( - -1.390e+02 26 0 QUESTION0_2_R 1 2.619e+02 4.106e+02)))
s>    ( QUESTION2_20_L -1 2.588e+03 1.415e+03 5.194e+03
s>        ( QUESTION0_20_R 1 3.769e+03 1.301e+03 4.441e+03
s>            ( - 8.371e+02 9 0 QUESTION14 1 1.881e+02 1.309e+03)
s>            ( QUESTION18 1 4.234e+03 6.504e+02 3.132e+03
s>                ( - 8.632e+02 3 0 QUESTION0_18_R 1 2.465e+02 4.280e+02)
s>                ( SILENCE 1 4.021e+03 4.581e+02 2.704e+03
s>                    ( - 6.183e+02 1 0)
s>                    ( QUESTION0_1_R 1 3.860e+03 4.326e+02 2.647e+03
s>                        ( - 1.314e+03 2 0)
s>                        ( QUESTION1 1 2.979e+03 3.214e+02 2.125e+03
s>                            ( - 1.095e+03 1 0)
s>                            ( - 2.205e+03 11 0 QUESTION0_11_R 1 3.074e+02 1.886e+03))))))
s>        ( QUESTION14 1 2.340e+02 5.077e+02 7.532e+02
s>            ( - 8.808e+02 6 0)
s>            ( - -1.390e+02 26 0 QUESTION0_2_R 1 2.619e+02 4.106e+02)))INFO: dtree.c(1524): Final simple tree
|( QUESTION0_3_R 1 -5.072e+02 5.137e+02 9.346e+02
|    ( QUESTION6 1 3.378e+01 2.680e+02 5.175e+02
|        ( - 3.912e+02 2 0)
|        ( QUESTION0_8_R 1 -8.941e+01 2.517e+02 4.965e+02
|            ( - 1.714e+02 3 0)
|            ( QUESTION11 1 -9.106e+00 1.812e+02 4.215e+02
|                ( QUESTION0_10_R 1 9.353e+01 1.659e+02 7.723e+01
|                    ( - 1.791e+02 1 0)
|                    ( - 8.036e+01 3 0))
|                ( - 7.859e+01 7 0 QUESTION0_10_R 1 1.600e+02 3.443e+02))))
|    ( SILENCE 1 -2.729e+01 3.016e+02 4.171e+02
|        ( - 3.626e+02 2 0)
|        ( QUESTION14 1 -8.833e+01 2.178e+02 3.788e+02
|            ( - 2.441e+02 6 0)
|            ( - -1.146e+02 13 0 QUESTION0_19_R 1 1.411e+02 2.186e+02))))
s>    ( QUESTION0_3_R 1 -5.072e+02 5.137e+02 9.346e+02
s>        ( QUESTION6 1 3.378e+01 2.680e+02 5.175e+02
s>            ( - 3.912e+02 2 0)
s>            ( QUESTION0_8_R 1 -8.941e+01 2.517e+02 4.965e+02
s>                ( - 1.714e+02 3 0)
s>                ( QUESTION11 1 -9.106e+00 1.812e+02 4.215e+02
s>                    ( QUESTION0_10_R 1 9.353e+01 1.659e+02 7.723e+01
s>                        ( - 1.791e+02 1 0)
s>                        ( - 8.036e+01 3 0))
s>                    ( - 7.859e+01 7 0 QUESTION0_10_R 1 1.600e+02 3.443e+02))))
s>        ( SILENCE 1 -2.729e+01 3.016e+02 4.171e+02
s>            ( - 3.626e+02 2 0)
s>            ( QUESTION14 1 -8.833e+01 2.178e+02 3.788e+02
s>                ( - 2.441e+02 6 0)
s>                ( - -1.146e+02 13 0 QUESTION0_19_R 1 1.411e+02 2.186e+02))))INFO: dtree.c(1351): Comp split 1
INFO: dtree.c(1483): stop. leaf nodes are specific
INFO: dtree.c(1524): Final simple tree
|( QUESTION14 1 8.371e+02 1.881e+02 1.309e+03
|    ( - 1.282e+03 7 0)
|    ( - -2.563e+02 2 0))
s>    ( QUESTION14 1 8.371e+02 1.881e+02 1.309e+03
s>        ( - 1.282e+03 7 0)
s>        ( - -2.563e+02 2 0))INFO: dtree.c(1524): Final simple tree
|( QUESTION2_20_L -1 3.234e+03 1.233e+03 3.885e+03
|    ( QUESTION18 1 4.234e+03 6.504e+02 3.132e+03
|        ( - 8.632e+02 3 0 QUESTION0_18_R 1 2.465e+02 4.280e+02)
|        ( SILENCE 1 4.021e+03 4.581e+02 2.704e+03
|            ( - 6.183e+02 1 0)
|            ( QUESTION0_1_R 1 3.860e+03 4.326e+02 2.647e+03
|                ( - 1.314e+03 2 0)
|                ( QUESTION1 1 2.979e+03 3.214e+02 2.125e+03
|                    ( - 1.095e+03 1 0)
|                    ( QUESTION0_11_R 1 2.205e+03 3.074e+02 1.886e+03
|                        ( - 4.271e+02 2 0 QUESTION0_12_R 1 1.880e+02 6.236e+02)
|                        ( - 2.086e+03 9 0 QUESTION10 1 2.652e+02 1.262e+03))))))
|    ( QUESTION14 1 2.340e+02 5.077e+02 7.532e+02
|        ( - 8.808e+02 6 0)
|        ( - -1.390e+02 26 0 QUESTION0_2_R 1 2.619e+02 4.106e+02)))
s>    ( QUESTION2_20_L -1 3.234e+03 1.233e+03 3.885e+03
s>        ( QUESTION18 1 4.234e+03 6.504e+02 3.132e+03
s>            ( - 8.632e+02 3 0 QUESTION0_18_R 1 2.465e+02 4.280e+02)
s>            ( SILENCE 1 4.021e+03 4.581e+02 2.704e+03
s>                ( - 6.183e+02 1 0)
s>                ( QUESTION0_1_R 1 3.860e+03 4.326e+02 2.647e+03
s>                    ( - 1.314e+03 2 0)
s>                    ( QUESTION1 1 2.979e+03 3.214e+02 2.125e+03
s>                        ( - 1.095e+03 1 0)
s>                        ( QUESTION0_11_R 1 2.205e+03 3.074e+02 1.886e+03
s>                            ( - 4.271e+02 2 0 QUESTION0_12_R 1 1.880e+02 6.236e+02)
s>                            ( - 2.086e+03 9 0 QUESTION10 1 2.652e+02 1.262e+03))))))
s>        ( QUESTION14 1 2.340e+02 5.077e+02 7.532e+02
s>            ( - 8.808e+02 6 0)
s>            ( - -1.390e+02 26 0 QUESTION0_2_R 1 2.619e+02 4.106e+02)))INFO: dtree.c(1351): Comp split 2
INFO: dtree.c(1524): Final simple tree
|( QUESTION18 1 4.089e+03 6.346e+02 3.075e+03
|    ( QUESTION0_18_R 1 8.632e+02 2.465e+02 4.280e+02
|        ( - 4.780e+02 1 0)
|        ( - 6.317e+02 2 0 QUESTION0_0_R 1 1.006e+02 2.480e+02))
|    ( QUESTION0_1_R 1 3.860e+03 4.326e+02 2.647e+03
|        ( - 1.314e+03 2 0)
|        ( QUESTION1 1 2.979e+03 3.214e+02 2.125e+03
|            ( - 1.095e+03 1 0)
|            ( QUESTION0_11_R 1 2.205e+03 3.074e+02 1.886e+03
|                ( - 4.271e+02 2 0 QUESTION0_12_R 1 1.880e+02 6.236e+02)
|                ( QUESTION10 1 2.086e+03 2.652e+02 1.262e+03
|                    ( - 6.877e+02 1 0)
|                    ( QUESTION0_4_R 1 1.663e+03 2.203e+02 1.194e+03
|                        ( - 3.493e+02 3 0 QUESTION0_5_R 1 2.074e+02 2.813e+02)
|                        ( - 1.534e+03 5 0 QUESTION0_9_R 1 1.925e+02 9.124e+02)))))))
s>    ( QUESTION18 1 4.089e+03 6.346e+02 3.075e+03
s>        ( QUESTION0_18_R 1 8.632e+02 2.465e+02 4.280e+02
s>            ( - 4.780e+02 1 0)
s>            ( - 6.317e+02 2 0 QUESTION0_0_R 1 1.006e+02 2.480e+02))
s>        ( QUESTION0_1_R 1 3.860e+03 4.326e+02 2.647e+03
s>            ( - 1.314e+03 2 0)
s>            ( QUESTION1 1 2.979e+03 3.214e+02 2.125e+03
s>                ( - 1.095e+03 1 0)
s>                ( QUESTION0_11_R 1 2.205e+03 3.074e+02 1.886e+03
s>                    ( - 4.271e+02 2 0 QUESTION0_12_R 1 1.880e+02 6.236e+02)
s>                    ( QUESTION10 1 2.086e+03 2.652e+02 1.262e+03
s>                        ( - 6.877e+02 1 0)
s>                        ( QUESTION0_4_R 1 1.663e+03 2.203e+02 1.194e+03
s>                            ( - 3.493e+02 3 0 QUESTION0_5_R 1 2.074e+02 2.813e+02)
s>                            ( - 1.534e+03 5 0 QUESTION0_9_R 1 1.925e+02 9.124e+02)))))))INFO: dtree.c(1524): Final simple tree
|( QUESTION14 1 3.834e+02 5.744e+02 8.103e+02
|    ( - 8.808e+02 6 0)
|    ( SILENCE 1 7.705e+01 4.772e+02 4.678e+02
|        ( QUESTION16 -1 6.225e+02 2.493e+02 7.671e+01
|            ( - 2.464e+02 1 0)
|            ( - 6.254e+02 3 0 QUESTION2_18_L -1 1.642e+02 7.571e+01))
|        ( QUESTION14 -1 -6.828e+01 2.888e+02 3.911e+02
|            ( - 2.404e+02 1 0)
|            ( QUESTION0_2_R 1 -1.989e+01 2.729e+02 3.901e+02
|                ( QUESTION0_3_R 1 -7.504e+01 2.249e+02 1.648e+02
|                    ( - -2.098e+02 9 0 QUESTION6 1 1.790e+02 1.226e+02)
|                    ( - 3.597e+02 4 0 QUESTION0_15_R 1 1.204e+02 4.221e+01))
|                ( QUESTION0_19_R 1 3.281e+02 1.972e+02 2.253e+02
|                    ( - 1.837e+02 2 0)
|                    ( - 3.415e+02 7 0 QUESTION0_20_R 1 1.757e+02 1.405e+02))))))
s>    ( QUESTION14 1 3.834e+02 5.744e+02 8.103e+02
s>        ( - 8.808e+02 6 0)
s>        ( SILENCE 1 7.705e+01 4.772e+02 4.678e+02
s>            ( QUESTION16 -1 6.225e+02 2.493e+02 7.671e+01
s>                ( - 2.464e+02 1 0)
s>                ( - 6.254e+02 3 0 QUESTION2_18_L -1 1.642e+02 7.571e+01))
s>            ( QUESTION14 -1 -6.828e+01 2.888e+02 3.911e+02
s>                ( - 2.404e+02 1 0)
s>                ( QUESTION0_2_R 1 -1.989e+01 2.729e+02 3.901e+02
s>                    ( QUESTION0_3_R 1 -7.504e+01 2.249e+02 1.648e+02
s>                        ( - -2.098e+02 9 0 QUESTION6 1 1.790e+02 1.226e+02)
s>                        ( - 3.597e+02 4 0 QUESTION0_15_R 1 1.204e+02 4.221e+01))
s>                    ( QUESTION0_19_R 1 3.281e+02 1.972e+02 2.253e+02
s>                        ( - 1.837e+02 2 0)
s>                        ( - 3.415e+02 7 0 QUESTION0_20_R 1 1.757e+02 1.405e+02))))))INFO: dtree.c(1351): Comp split 3
INFO: dtree.c(1483): stop. leaf nodes are specific
INFO: dtree.c(1524): Final simple tree
|( QUESTION0_1_R 1 7.963e+02 2.855e+02 1.199e+02
|    ( - 2.404e+02 1 0)
|    ( QUESTION16 -1 8.413e+02 2.496e+02 1.189e+02
|        ( - 2.464e+02 1 0)
|        ( QUESTION2_18_L -1 8.446e+02 1.656e+02 1.179e+02
|            ( - 1.388e+02 1 0)
|            ( SILENCE 1 8.713e+02 1.391e+02 1.159e+02
|                ( QUESTION14 -1 6.507e+02 1.043e+02 7.371e+01
|                    ( - 6.183e+02 1 0)
|                    ( - 1.368e+02 1 0))
|                ( QUESTION0_15_R 1 3.597e+02 1.204e+02 4.221e+01
|                    ( - 1.814e+02 2 0)
|                    ( - 2.986e+02 2 0))))))
s>    ( QUESTION0_1_R 1 7.963e+02 2.855e+02 1.199e+02
s>        ( - 2.404e+02 1 0)
s>        ( QUESTION16 -1 8.413e+02 2.496e+02 1.189e+02
s>            ( - 2.464e+02 1 0)
s>            ( QUESTION2_18_L -1 8.446e+02 1.656e+02 1.179e+02
s>                ( - 1.388e+02 1 0)
s>                ( SILENCE 1 8.713e+02 1.391e+02 1.159e+02
s>                    ( QUESTION14 -1 6.507e+02 1.043e+02 7.371e+01
s>                        ( - 6.183e+02 1 0)
s>                        ( - 1.368e+02 1 0))
s>                    ( QUESTION0_15_R 1 3.597e+02 1.204e+02 4.221e+01
s>                        ( - 1.814e+02 2 0)
s>                        ( - 2.986e+02 2 0))))))INFO: dtree.c(1524): Final simple tree
|( QUESTION14 1 2.930e+02 4.467e+02 6.904e+02
|    ( - 8.808e+02 6 0)
|    ( QUESTION0_1_R 1 -1.411e+02 2.613e+02 3.479e+02
|        ( - 4.785e+02 4 0)
|        ( QUESTION0_19_R 1 -3.583e+02 2.529e+02 2.204e+02
|            ( - 1.837e+02 2 0)
|            ( QUESTION6 1 -2.891e+02 1.755e+02 1.356e+02
|                ( - 1.276e+02 1 0)
|                ( QUESTION0_20_R 1 -2.411e+02 1.337e+02 1.336e+02
|                    ( - 7.556e+01 2 0)
|                    ( QUESTION0_12_R 1 -1.829e+02 1.149e+02 1.286e+02
|                        ( - 1.181e+02 1 0)
|                        ( QUESTION11 1 -1.862e+02 1.273e+02 1.216e+02
|                            ( - 1.136e+02 1 0)
|                            ( - -1.725e+02 7 0 QUESTION0_10_R 1 1.115e+02 1.186e+02))))))))
s>    ( QUESTION14 1 2.930e+02 4.467e+02 6.904e+02
s>        ( - 8.808e+02 6 0)
s>        ( QUESTION0_1_R 1 -1.411e+02 2.613e+02 3.479e+02
s>            ( - 4.785e+02 4 0)
s>            ( QUESTION0_19_R 1 -3.583e+02 2.529e+02 2.204e+02
s>                ( - 1.837e+02 2 0)
s>                ( QUESTION6 1 -2.891e+02 1.755e+02 1.356e+02
s>                    ( - 1.276e+02 1 0)
s>                    ( QUESTION0_20_R 1 -2.411e+02 1.337e+02 1.336e+02
s>                        ( - 7.556e+01 2 0)
s>                        ( QUESTION0_12_R 1 -1.829e+02 1.149e+02 1.286e+02
s>                            ( - 1.181e+02 1 0)
s>                            ( QUESTION11 1 -1.862e+02 1.273e+02 1.216e+02
s>                                ( - 1.136e+02 1 0)
s>                                ( - -1.725e+02 7 0 QUESTION0_10_R 1 1.115e+02 1.186e+02))))))))INFO: dtree.c(1351): Comp split 4
INFO: dtree.c(1524): Final simple tree
|( QUESTION0_1_R 1 3.860e+03 4.326e+02 2.647e+03
|    ( - 1.314e+03 2 0)
|    ( QUESTION1 1 2.979e+03 3.214e+02 2.125e+03
|        ( - 1.095e+03 1 0)
|        ( QUESTION0_11_R 1 2.205e+03 3.074e+02 1.886e+03
|            ( - 4.271e+02 2 0 QUESTION0_12_R 1 1.880e+02 6.236e+02)
|            ( QUESTION10 1 2.086e+03 2.652e+02 1.262e+03
|                ( - 6.877e+02 1 0)
|                ( QUESTION0_4_R 1 1.663e+03 2.203e+02 1.194e+03
|                    ( QUESTION0_5_R 1 3.493e+02 2.074e+02 2.813e+02
|                        ( - 3.229e+02 2 0 QUESTION0_6_R 1 1.163e+02 2.131e+02)
|                        ( - 2.337e+02 1 0))
|                    ( QUESTION0_9_R 1 1.534e+03 1.925e+02 9.124e+02
|                        ( - 3.168e+02 1 0)
|                        ( - 1.410e+03 4 0 QUESTION0_0_R 1 1.791e+02 8.241e+02)))))))
s>    ( QUESTION0_1_R 1 3.860e+03 4.326e+02 2.647e+03
s>        ( - 1.314e+03 2 0)
s>        ( QUESTION1 1 2.979e+03 3.214e+02 2.125e+03
s>            ( - 1.095e+03 1 0)
s>            ( QUESTION0_11_R 1 2.205e+03 3.074e+02 1.886e+03
s>                ( - 4.271e+02 2 0 QUESTION0_12_R 1 1.880e+02 6.236e+02)
s>                ( QUESTION10 1 2.086e+03 2.652e+02 1.262e+03
s>                    ( - 6.877e+02 1 0)
s>                    ( QUESTION0_4_R 1 1.663e+03 2.203e+02 1.194e+03
s>                        ( QUESTION0_5_R 1 3.493e+02 2.074e+02 2.813e+02
s>                            ( - 3.229e+02 2 0 QUESTION0_6_R 1 1.163e+02 2.131e+02)
s>                            ( - 2.337e+02 1 0))
s>                        ( QUESTION0_9_R 1 1.534e+03 1.925e+02 9.124e+02
s>                            ( - 3.168e+02 1 0)
s>                            ( - 1.410e+03 4 0 QUESTION0_0_R 1 1.791e+02 8.241e+02)))))))INFO: dtree.c(1483): stop. leaf nodes are specific
INFO: dtree.c(1524): Final simple tree
|( QUESTION0_18_R 1 8.632e+02 2.465e+02 4.280e+02
|    ( - 4.780e+02 1 0)
|    ( QUESTION0_0_R 1 6.317e+02 1.006e+02 2.480e+02
|        ( - 1.450e+02 1 0)
|        ( - 5.873e+02 1 0)))
s>    ( QUESTION0_18_R 1 8.632e+02 2.465e+02 4.280e+02
s>        ( - 4.780e+02 1 0)
s>        ( QUESTION0_0_R 1 6.317e+02 1.006e+02 2.480e+02
s>            ( - 1.450e+02 1 0)
s>            ( - 5.873e+02 1 0)))INFO: dtree.c(1351): Comp split 5
INFO: dtree.c(1483): stop. leaf nodes are specific
INFO: dtree.c(1524): Final simple tree
|( QUESTION6 1 3.378e+01 2.680e+02 5.175e+02
|    ( - 3.912e+02 2 0)
|    ( QUESTION0_8_R 1 -8.941e+01 2.517e+02 4.965e+02
|        ( - 1.714e+02 3 0)
|        ( QUESTION11 1 -9.106e+00 1.812e+02 4.215e+02
|            ( QUESTION0_10_R 1 9.353e+01 1.659e+02 7.723e+01
|                ( - 1.791e+02 1 0)
|                ( - 8.036e+01 3 0))
|            ( QUESTION0_10_R 1 7.859e+01 1.600e+02 3.443e+02
|                ( - 1.067e+02 1 0)
|                ( QUESTION0_4_R 1 1.319e+02 9.036e+01 3.363e+02
|                    ( - 2.352e+02 2 0)
|                    ( - -1.298e+01 4 0))))))
s>    ( QUESTION6 1 3.378e+01 2.680e+02 5.175e+02
s>        ( - 3.912e+02 2 0)
s>        ( QUESTION0_8_R 1 -8.941e+01 2.517e+02 4.965e+02
s>            ( - 1.714e+02 3 0)
s>            ( QUESTION11 1 -9.106e+00 1.812e+02 4.215e+02
s>                ( QUESTION0_10_R 1 9.353e+01 1.659e+02 7.723e+01
s>                    ( - 1.791e+02 1 0)
s>                    ( - 8.036e+01 3 0))
s>                ( QUESTION0_10_R 1 7.859e+01 1.600e+02 3.443e+02
s>                    ( - 1.067e+02 1 0)
s>                    ( QUESTION0_4_R 1 1.319e+02 9.036e+01 3.363e+02
s>                        ( - 2.352e+02 2 0)
s>                        ( - -1.298e+01 4 0))))))INFO: dtree.c(1524): Final simple tree
|( SILENCE 1 -2.729e+01 3.016e+02 4.171e+02
|    ( - 3.626e+02 2 0)
|    ( QUESTION14 1 -8.833e+01 2.178e+02 3.788e+02
|        ( - 2.441e+02 6 0)
|        ( QUESTION0_19_R 1 -1.146e+02 1.411e+02 2.186e+02
|            ( - -5.116e+01 2 0)
|            ( QUESTION0_1_R 1 7.771e+01 1.461e+02 1.455e+02
|                ( - -3.325e+01 4 0)
|                ( QUESTION1 1 2.571e+02 1.263e+02 1.026e+02
|                    ( - 1.315e+02 1 0)
|                    ( QUESTION0_20_R 1 2.519e+02 1.175e+02 8.453e+01
|                        ( - 1.536e+02 2 0)
|                        ( QUESTION17 1 2.157e+02 1.005e+02 7.232e+01
|                            ( - 9.812e+01 1 0)
|                            ( - 2.181e+02 3 0 QUESTION0_0_R 1 8.379e+01 6.538e+01))))))))
s>    ( SILENCE 1 -2.729e+01 3.016e+02 4.171e+02
s>        ( - 3.626e+02 2 0)
s>        ( QUESTION14 1 -8.833e+01 2.178e+02 3.788e+02
s>            ( - 2.441e+02 6 0)
s>            ( QUESTION0_19_R 1 -1.146e+02 1.411e+02 2.186e+02
s>                ( - -5.116e+01 2 0)
s>                ( QUESTION0_1_R 1 7.771e+01 1.461e+02 1.455e+02
s>                    ( - -3.325e+01 4 0)
s>                    ( QUESTION1 1 2.571e+02 1.263e+02 1.026e+02
s>                        ( - 1.315e+02 1 0)
s>                        ( QUESTION0_20_R 1 2.519e+02 1.175e+02 8.453e+01
s>                            ( - 1.536e+02 2 0)
s>                            ( QUESTION17 1 2.157e+02 1.005e+02 7.232e+01
s>                                ( - 9.812e+01 1 0)
s>                                ( - 2.181e+02 3 0 QUESTION0_0_R 1 8.379e+01 6.538e+01))))))))INFO: dtree.c(1351): Comp split 6
INFO: dtree.c(1524): Final simple tree
|( QUESTION0_11_R 1 1.792e+03 2.980e+02 1.817e+03
|    ( QUESTION0_12_R 1 4.271e+02 1.880e+02 6.236e+02
|        ( - -3.986e+01 1 0)
|        ( - 6.550e+02 1 0))
|    ( QUESTION0_4_R 1 1.663e+03 2.203e+02 1.194e+03
|        ( QUESTION0_5_R 1 3.493e+02 2.074e+02 2.813e+02
|            ( - 3.229e+02 2 0 QUESTION0_6_R 1 1.163e+02 2.131e+02)
|            ( - 2.337e+02 1 0))
|        ( QUESTION0_9_R 1 1.534e+03 1.925e+02 9.124e+02
|            ( - 3.168e+02 1 0)
|            ( QUESTION0_0_R 1 1.410e+03 1.791e+02 8.241e+02
|                ( QUESTION0_3_R 1 1.732e+03 1.712e+02 7.513e+02
|                    ( - 6.894e+02 1 0)
|                    ( - 1.214e+03 1 0))
|                ( - -1.434e+02 2 0 QUESTION0_18_R 1 1.419e+02 7.275e+01)))))
s>    ( QUESTION0_11_R 1 1.792e+03 2.980e+02 1.817e+03
s>        ( QUESTION0_12_R 1 4.271e+02 1.880e+02 6.236e+02
s>            ( - -3.986e+01 1 0)
s>            ( - 6.550e+02 1 0))
s>        ( QUESTION0_4_R 1 1.663e+03 2.203e+02 1.194e+03
s>            ( QUESTION0_5_R 1 3.493e+02 2.074e+02 2.813e+02
s>                ( - 3.229e+02 2 0 QUESTION0_6_R 1 1.163e+02 2.131e+02)
s>                ( - 2.337e+02 1 0))
s>            ( QUESTION0_9_R 1 1.534e+03 1.925e+02 9.124e+02
s>                ( - 3.168e+02 1 0)
s>                ( QUESTION0_0_R 1 1.410e+03 1.791e+02 8.241e+02
s>                    ( QUESTION0_3_R 1 1.732e+03 1.712e+02 7.513e+02
s>                        ( - 6.894e+02 1 0)
s>                        ( - 1.214e+03 1 0))
s>                    ( - -1.434e+02 2 0 QUESTION0_18_R 1 1.419e+02 7.275e+01)))))INFO: dtree.c(1483): stop. leaf nodes are specific
INFO: dtree.c(1524): Final simple tree
|( QUESTION0_1_R 1 2.576e+03 3.653e+02 8.298e+02
|    ( - 1.314e+03 2 0)
|    ( QUESTION0_3_R 1 1.628e+03 1.551e+02 3.076e+02
|        ( - 6.877e+02 1 0)
|        ( - 1.095e+03 1 0)))
s>    ( QUESTION0_1_R 1 2.576e+03 3.653e+02 8.298e+02
s>        ( - 1.314e+03 2 0)
s>        ( QUESTION0_3_R 1 1.628e+03 1.551e+02 3.076e+02
s>            ( - 6.877e+02 1 0)
s>            ( - 1.095e+03 1 0)))INFO: dtree.c(1351): Comp split 7
INFO: dtree.c(1524): Final simple tree
|( QUESTION0_1_R 1 -1.411e+02 2.613e+02 3.479e+02
|    ( - 4.785e+02 4 0)
|    ( QUESTION0_19_R 1 -3.583e+02 2.529e+02 2.204e+02
|        ( - 1.837e+02 2 0)
|        ( QUESTION6 1 -2.891e+02 1.755e+02 1.356e+02
|            ( - 1.276e+02 1 0)
|            ( QUESTION0_20_R 1 -2.411e+02 1.337e+02 1.336e+02
|                ( - 7.556e+01 2 0)
|                ( QUESTION0_12_R 1 -1.829e+02 1.149e+02 1.286e+02
|                    ( - 1.181e+02 1 0)
|                    ( QUESTION11 1 -1.862e+02 1.273e+02 1.216e+02
|                        ( - 1.136e+02 1 0)
|                        ( QUESTION0_10_R 1 -1.725e+02 1.115e+02 1.186e+02
|                            ( - 1.079e+02 1 0)
|                            ( - -1.689e+02 6 0 QUESTION0_0_R 1 1.101e+02 1.136e+02))))))))
s>    ( QUESTION0_1_R 1 -1.411e+02 2.613e+02 3.479e+02
s>        ( - 4.785e+02 4 0)
s>        ( QUESTION0_19_R 1 -3.583e+02 2.529e+02 2.204e+02
s>            ( - 1.837e+02 2 0)
s>            ( QUESTION6 1 -2.891e+02 1.755e+02 1.356e+02
s>                ( - 1.276e+02 1 0)
s>                ( QUESTION0_20_R 1 -2.411e+02 1.337e+02 1.336e+02
s>                    ( - 7.556e+01 2 0)
s>                    ( QUESTION0_12_R 1 -1.829e+02 1.149e+02 1.286e+02
s>                        ( - 1.181e+02 1 0)
s>                        ( QUESTION11 1 -1.862e+02 1.273e+02 1.216e+02
s>                            ( - 1.136e+02 1 0)
s>                            ( QUESTION0_10_R 1 -1.725e+02 1.115e+02 1.186e+02
s>                                ( - 1.079e+02 1 0)
s>                                ( - -1.689e+02 6 0 QUESTION0_0_R 1 1.101e+02 1.136e+02))))))))INFO: dtree.c(1351): Comp split 8
INFO: dtree.c(1483): stop. leaf nodes are specific
INFO: dtree.c(1524): Final simple tree
|( QUESTION0_3_R 1 1.628e+03 1.551e+02 3.076e+02
|    ( - 6.877e+02 1 0)
|    ( - 1.095e+03 1 0))
s>    ( QUESTION0_3_R 1 1.628e+03 1.551e+02 3.076e+02
s>        ( - 6.877e+02 1 0)
s>        ( - 1.095e+03 1 0))INFO: dtree.c(1351): Comp split 9
INFO: dtree.c(1483): stop. leaf nodes are specific
INFO: dtree.c(1524): Final simple tree
|( QUESTION0_4_R 1 1.507e+03 2.262e+02 1.037e+03
|    ( QUESTION0_6_R 1 3.229e+02 1.163e+02 2.131e+02
|        ( - 1.220e+02 1 0)
|        ( - 3.172e+02 1 0))
|    ( QUESTION0_0_R 1 1.410e+03 1.791e+02 8.241e+02
|        ( QUESTION0_3_R 1 1.732e+03 1.712e+02 7.513e+02
|            ( - 6.894e+02 1 0)
|            ( - 1.214e+03 1 0))
|        ( QUESTION0_18_R 1 -1.434e+02 1.419e+02 7.275e+01
|            ( - -1.330e+02 1 0)
|            ( - 1.315e+02 1 0))))
s>    ( QUESTION0_4_R 1 1.507e+03 2.262e+02 1.037e+03
s>        ( QUESTION0_6_R 1 3.229e+02 1.163e+02 2.131e+02
s>            ( - 1.220e+02 1 0)
s>            ( - 3.172e+02 1 0))
s>        ( QUESTION0_0_R 1 1.410e+03 1.791e+02 8.241e+02
s>            ( QUESTION0_3_R 1 1.732e+03 1.712e+02 7.513e+02
s>                ( - 6.894e+02 1 0)
s>                ( - 1.214e+03 1 0))
s>            ( QUESTION0_18_R 1 -1.434e+02 1.419e+02 7.275e+01
s>                ( - -1.330e+02 1 0)
s>                ( - 1.315e+02 1 0))))INFO: dtree.c(1483): stop. leaf nodes are specific
INFO: dtree.c(1524): Final simple tree
|( QUESTION10 1 6.342e+02 2.332e+02 7.801e+02
|    ( - 6.550e+02 1 0)
|    ( QUESTION0_10_R 1 2.125e+02 1.551e+02 2.287e+02
|        ( - 3.168e+02 1 0)
|        ( QUESTION0_4_R 1 5.078e+01 1.431e+02 1.404e+02
|            ( - 2.337e+02 1 0)
|            ( - -3.986e+01 1 0))))
s>    ( QUESTION10 1 6.342e+02 2.332e+02 7.801e+02
s>        ( - 6.550e+02 1 0)
s>        ( QUESTION0_10_R 1 2.125e+02 1.551e+02 2.287e+02
s>            ( - 3.168e+02 1 0)
s>            ( QUESTION0_4_R 1 5.078e+01 1.431e+02 1.404e+02
s>                ( - 2.337e+02 1 0)
s>                ( - -3.986e+01 1 0))))INFO: dtree.c(1351): Comp split 10
INFO: dtree.c(1524): Final simple tree
|( QUESTION6 1 -2.891e+02 1.755e+02 1.356e+02
|    ( - 1.276e+02 1 0)
|    ( QUESTION0_20_R 1 -2.411e+02 1.337e+02 1.336e+02
|        ( - 7.556e+01 2 0)
|        ( QUESTION0_12_R 1 -1.829e+02 1.149e+02 1.286e+02
|            ( - 1.181e+02 1 0)
|            ( QUESTION11 1 -1.862e+02 1.273e+02 1.216e+02
|                ( - 1.136e+02 1 0)
|                ( QUESTION0_10_R 1 -1.725e+02 1.115e+02 1.186e+02
|                    ( - 1.079e+02 1 0)
|                    ( QUESTION0_0_R 1 -1.689e+02 1.101e+02 1.136e+02
|                        ( QUESTION0_4_R 1 -1.433e+02 9.762e+01 1.056e+02
|                            ( - 1.210e+02 2 0)
|                            ( - -1.667e+02 3 0 QUESTION0_8_R 1 9.296e+01 8.868e+01))
|                        ( - 8.452e+01 1 0)))))))
s>    ( QUESTION6 1 -2.891e+02 1.755e+02 1.356e+02
s>        ( - 1.276e+02 1 0)
s>        ( QUESTION0_20_R 1 -2.411e+02 1.337e+02 1.336e+02
s>            ( - 7.556e+01 2 0)
s>            ( QUESTION0_12_R 1 -1.829e+02 1.149e+02 1.286e+02
s>                ( - 1.181e+02 1 0)
s>                ( QUESTION11 1 -1.862e+02 1.273e+02 1.216e+02
s>                    ( - 1.136e+02 1 0)
s>                    ( QUESTION0_10_R 1 -1.725e+02 1.115e+02 1.186e+02
s>                        ( - 1.079e+02 1 0)
s>                        ( QUESTION0_0_R 1 -1.689e+02 1.101e+02 1.136e+02
s>                            ( QUESTION0_4_R 1 -1.433e+02 9.762e+01 1.056e+02
s>                                ( - 1.210e+02 2 0)
s>                                ( - -1.667e+02 3 0 QUESTION0_8_R 1 9.296e+01 8.868e+01))
s>                            ( - 8.452e+01 1 0)))))))INFO: dtree.c(1483): stop. leaf nodes are specific
INFO: dtree.c(1524): Final simple tree
|( QUESTION0_0_R 1 4.610e+02 2.012e+02 2.123e+02
|    ( - 4.785e+02 4 0)
|    ( - 1.837e+02 2 0))
s>    ( QUESTION0_0_R 1 4.610e+02 2.012e+02 2.123e+02
s>        ( - 4.785e+02 4 0)
s>        ( - 1.837e+02 2 0))INFO: dtree.c(1351): Comp split 11
INFO: dtree.c(1524): Final simple tree
|( QUESTION14 1 -8.833e+01 2.178e+02 3.788e+02
|    ( - 2.441e+02 6 0)
|    ( QUESTION0_19_R 1 -1.146e+02 1.411e+02 2.186e+02
|        ( - -5.116e+01 2 0)
|        ( QUESTION0_1_R 1 7.771e+01 1.461e+02 1.455e+02
|            ( - -3.325e+01 4 0)
|            ( QUESTION1 1 2.571e+02 1.263e+02 1.026e+02
|                ( - 1.315e+02 1 0)
|                ( QUESTION0_20_R 1 2.519e+02 1.175e+02 8.453e+01
|                    ( - 1.536e+02 2 0)
|                    ( QUESTION17 1 2.157e+02 1.005e+02 7.232e+01
|                        ( - 9.812e+01 1 0)
|                        ( QUESTION0_0_R 1 2.181e+02 8.379e+01 6.538e+01
|                            ( - 2.045e+02 2 0)
|                            ( - 9.735e+01 1 0))))))))
s>    ( QUESTION14 1 -8.833e+01 2.178e+02 3.788e+02
s>        ( - 2.441e+02 6 0)
s>        ( QUESTION0_19_R 1 -1.146e+02 1.411e+02 2.186e+02
s>            ( - -5.116e+01 2 0)
s>            ( QUESTION0_1_R 1 7.771e+01 1.461e+02 1.455e+02
s>                ( - -3.325e+01 4 0)
s>                ( QUESTION1 1 2.571e+02 1.263e+02 1.026e+02
s>                    ( - 1.315e+02 1 0)
s>                    ( QUESTION0_20_R 1 2.519e+02 1.175e+02 8.453e+01
s>                        ( - 1.536e+02 2 0)
s>                        ( QUESTION17 1 2.157e+02 1.005e+02 7.232e+01
s>                            ( - 9.812e+01 1 0)
s>                            ( QUESTION0_0_R 1 2.181e+02 8.379e+01 6.538e+01
s>                                ( - 2.045e+02 2 0)
s>                                ( - 9.735e+01 1 0))))))))INFO: dtree.c(1351): Comp split 12
INFO: dtree.c(1483): stop. leaf nodes are specific
INFO: dtree.c(1524): Final simple tree
|( QUESTION0_12_R 1 -1.277e+01 1.717e+02 4.175e+02
|    ( - 8.036e+01 3 0)
|    ( QUESTION0_10_R 1 7.859e+01 1.600e+02 3.443e+02
|        ( - 1.067e+02 1 0)
|        ( QUESTION0_4_R 1 1.319e+02 9.036e+01 3.363e+02
|            ( - 2.352e+02 2 0)
|            ( - -1.298e+01 4 0))))
s>    ( QUESTION0_12_R 1 -1.277e+01 1.717e+02 4.175e+02
s>        ( - 8.036e+01 3 0)
s>        ( QUESTION0_10_R 1 7.859e+01 1.600e+02 3.443e+02
s>            ( - 1.067e+02 1 0)
s>            ( QUESTION0_4_R 1 1.319e+02 9.036e+01 3.363e+02
s>                ( - 2.352e+02 2 0)
s>                ( - -1.298e+01 4 0))))INFO: dtree.c(1483): stop. leaf nodes are specific
INFO: dtree.c(1524): Final simple tree
|( QUESTION0_4_R 1 3.425e+02 2.312e+02 9.997e+01
|    ( - 3.912e+02 2 0)
|    ( QUESTION0_8_R 1 1.825e+02 1.680e+02 7.904e+01
|        ( - 1.714e+02 3 0)
|        ( - 1.791e+02 1 0)))
s>    ( QUESTION0_4_R 1 3.425e+02 2.312e+02 9.997e+01
s>        ( - 3.912e+02 2 0)
s>        ( QUESTION0_8_R 1 1.825e+02 1.680e+02 7.904e+01
s>            ( - 1.714e+02 3 0)
s>            ( - 1.791e+02 1 0)))INFO: dtree.c(1351): Comp split 13
INFO: dtree.c(1483): stop. leaf nodes are specific
INFO: dtree.c(1524): Final simple tree
|( QUESTION16 -1 8.413e+02 2.496e+02 1.189e+02
|    ( - 2.464e+02 1 0)
|    ( QUESTION2_18_L -1 8.446e+02 1.656e+02 1.179e+02
|        ( - 1.388e+02 1 0)
|        ( SILENCE 1 8.713e+02 1.391e+02 1.159e+02
|            ( QUESTION14 -1 6.507e+02 1.043e+02 7.371e+01
|                ( - 6.183e+02 1 0)
|                ( - 1.368e+02 1 0))
|            ( QUESTION0_15_R 1 3.597e+02 1.204e+02 4.221e+01
|                ( - 1.814e+02 2 0)
|                ( - 2.986e+02 2 0)))))
s>    ( QUESTION16 -1 8.413e+02 2.496e+02 1.189e+02
s>        ( - 2.464e+02 1 0)
s>        ( QUESTION2_18_L -1 8.446e+02 1.656e+02 1.179e+02
s>            ( - 1.388e+02 1 0)
s>            ( SILENCE 1 8.713e+02 1.391e+02 1.159e+02
s>                ( QUESTION14 -1 6.507e+02 1.043e+02 7.371e+01
s>                    ( - 6.183e+02 1 0)
s>                    ( - 1.368e+02 1 0))
s>                ( QUESTION0_15_R 1 3.597e+02 1.204e+02 4.221e+01
s>                    ( - 1.814e+02 2 0)
s>                    ( - 2.986e+02 2 0)))))INFO: dtree.c(1351): Comp split 14
INFO: dtree.c(1483): stop. leaf nodes are specific
INFO: dtree.c(1524): Final simple tree
|( QUESTION2_18_L -1 8.446e+02 1.656e+02 1.179e+02
|    ( - 1.388e+02 1 0)
|    ( SILENCE 1 8.713e+02 1.391e+02 1.159e+02
|        ( QUESTION14 -1 6.507e+02 1.043e+02 7.371e+01
|            ( - 6.183e+02 1 0)
|            ( - 1.368e+02 1 0))
|        ( QUESTION0_15_R 1 3.597e+02 1.204e+02 4.221e+01
|            ( - 1.814e+02 2 0)
|            ( - 2.986e+02 2 0))))
s>    ( QUESTION2_18_L -1 8.446e+02 1.656e+02 1.179e+02
s>        ( - 1.388e+02 1 0)
s>        ( SILENCE 1 8.713e+02 1.391e+02 1.159e+02
s>            ( QUESTION14 -1 6.507e+02 1.043e+02 7.371e+01
s>                ( - 6.183e+02 1 0)
s>                ( - 1.368e+02 1 0))
s>            ( QUESTION0_15_R 1 3.597e+02 1.204e+02 4.221e+01
s>                ( - 1.814e+02 2 0)
s>                ( - 2.986e+02 2 0))))INFO: dtree.c(1351): Comp split 15
INFO: dtree.c(1483): stop. leaf nodes are specific
INFO: dtree.c(1524): Final simple tree
|( QUESTION0_0_R 1 6.317e+02 1.006e+02 2.480e+02
|    ( - 1.450e+02 1 0)
|    ( - 5.873e+02 1 0))
s>    ( QUESTION0_0_R 1 6.317e+02 1.006e+02 2.480e+02
s>        ( - 1.450e+02 1 0)
s>        ( - 5.873e+02 1 0))INFO: dtree.c(1351): Comp split 16
INFO: dtree.c(1483): stop. leaf nodes are specific
INFO: dtree.c(1524): Final simple tree
|( QUESTION0_10_R 1 2.125e+02 1.551e+02 2.287e+02
|    ( - 3.168e+02 1 0)
|    ( QUESTION0_4_R 1 5.078e+01 1.431e+02 1.404e+02
|        ( - 2.337e+02 1 0)
|        ( - -3.986e+01 1 0)))
s>    ( QUESTION0_10_R 1 2.125e+02 1.551e+02 2.287e+02
s>        ( - 3.168e+02 1 0)
s>        ( QUESTION0_4_R 1 5.078e+01 1.431e+02 1.404e+02
s>            ( - 2.337e+02 1 0)
s>            ( - -3.986e+01 1 0)))INFO: dtree.c(1351): Comp split 17
INFO: dtree.c(1483): stop. leaf nodes are specific
INFO: dtree.c(1524): Final simple tree
|( QUESTION0_8_R 1 1.825e+02 1.680e+02 7.904e+01
|    ( - 1.714e+02 3 0)
|    ( - 1.791e+02 1 0))
s>    ( QUESTION0_8_R 1 1.825e+02 1.680e+02 7.904e+01
s>        ( - 1.714e+02 3 0)
s>        ( - 1.791e+02 1 0))INFO: dtree.c(1351): Comp split 18
INFO: dtree.c(1483): stop. leaf nodes are specific
INFO: dtree.c(1524): Final simple tree
|( QUESTION0_3_R 1 1.732e+03 1.712e+02 7.513e+02
|    ( - 6.894e+02 1 0)
|    ( - 1.214e+03 1 0))
s>    ( QUESTION0_3_R 1 1.732e+03 1.712e+02 7.513e+02
s>        ( - 6.894e+02 1 0)
s>        ( - 1.214e+03 1 0))INFO: dtree.c(1483): stop. leaf nodes are specific
INFO: dtree.c(1524): Final simple tree
|( QUESTION0_0_R 1 1.982e+00 1.776e+02 2.858e+02
|    ( QUESTION0_6_R 1 3.229e+02 1.163e+02 2.131e+02
|        ( - 1.220e+02 1 0)
|        ( - 3.172e+02 1 0))
|    ( QUESTION0_18_R 1 -1.434e+02 1.419e+02 7.275e+01
|        ( - -1.330e+02 1 0)
|        ( - 1.315e+02 1 0)))
s>    ( QUESTION0_0_R 1 1.982e+00 1.776e+02 2.858e+02
s>        ( QUESTION0_6_R 1 3.229e+02 1.163e+02 2.131e+02
s>            ( - 1.220e+02 1 0)
s>            ( - 3.172e+02 1 0))
s>        ( QUESTION0_18_R 1 -1.434e+02 1.419e+02 7.275e+01
s>            ( - -1.330e+02 1 0)
s>            ( - 1.315e+02 1 0)))INFO: dtree.c(1351): Comp split 19
INFO: dtree.c(1483): stop. leaf nodes are specific
INFO: dtree.c(1524): Final simple tree
|( QUESTION0_0_R 1 2.415e+02 1.334e+02 1.852e+02
|    ( - 1.315e+02 1 0)
|    ( QUESTION0_17_R 1 2.433e+02 9.887e+01 1.672e+02
|        ( - 9.812e+01 1 0)
|        ( - 2.441e+02 6 0)))
s>    ( QUESTION0_0_R 1 2.415e+02 1.334e+02 1.852e+02
s>        ( - 1.315e+02 1 0)
s>        ( QUESTION0_17_R 1 2.433e+02 9.887e+01 1.672e+02
s>            ( - 9.812e+01 1 0)
s>            ( - 2.441e+02 6 0)))INFO: dtree.c(1483): stop. leaf nodes are specific
INFO: dtree.c(1524): Final simple tree
|( QUESTION0_1_R 1 -1.036e+02 1.385e+02 1.936e+02
|    ( - -3.325e+01 4 0)
|    ( QUESTION0_20_R 1 6.815e+01 1.412e+02 1.506e+02
|        ( - 1.536e+02 2 0)
|        ( QUESTION0_0_R 1 5.575e+01 1.147e+02 1.384e+02
|            ( - 2.045e+02 2 0)
|            ( QUESTION0_18_R 1 -3.413e+01 8.032e+01 9.038e+01
|                ( - 9.735e+01 1 0)
|                ( - -5.116e+01 2 0)))))
s>    ( QUESTION0_1_R 1 -1.036e+02 1.385e+02 1.936e+02
s>        ( - -3.325e+01 4 0)
s>        ( QUESTION0_20_R 1 6.815e+01 1.412e+02 1.506e+02
s>            ( - 1.536e+02 2 0)
s>            ( QUESTION0_0_R 1 5.575e+01 1.147e+02 1.384e+02
s>                ( - 2.045e+02 2 0)
s>                ( QUESTION0_18_R 1 -3.413e+01 8.032e+01 9.038e+01
s>                    ( - 9.735e+01 1 0)
s>                    ( - -5.116e+01 2 0)))))INFO: dtree.c(1351): Comp split 20
INFO: dtree.c(1351): Comp split 21
INFO: dtree.c(1351): Comp split 22
INFO: dtree.c(1483): stop. leaf nodes are specific
INFO: dtree.c(1524): Final simple tree
|( QUESTION0_6_R 1 3.229e+02 1.163e+02 2.131e+02
|    ( - 1.220e+02 1 0)
|    ( - 3.172e+02 1 0))
s>    ( QUESTION0_6_R 1 3.229e+02 1.163e+02 2.131e+02
s>        ( - 1.220e+02 1 0)
s>        ( - 3.172e+02 1 0))INFO: dtree.c(1483): stop. leaf nodes are specific
INFO: dtree.c(1524): Final simple tree
|( QUESTION0_18_R 1 -1.434e+02 1.419e+02 7.275e+01
|    ( - -1.330e+02 1 0)
|    ( - 1.315e+02 1 0))
s>    ( QUESTION0_18_R 1 -1.434e+02 1.419e+02 7.275e+01
s>        ( - -1.330e+02 1 0)
s>        ( - 1.315e+02 1 0))INFO: dtree.c(1351): Comp split 23
INFO: dtree.c(1524): Final simple tree
|( QUESTION0_20_R 1 -2.411e+02 1.337e+02 1.336e+02
|    ( - 7.556e+01 2 0)
|    ( QUESTION0_12_R 1 -1.829e+02 1.149e+02 1.286e+02
|        ( - 1.181e+02 1 0)
|        ( QUESTION11 1 -1.862e+02 1.273e+02 1.216e+02
|            ( - 1.136e+02 1 0)
|            ( QUESTION0_10_R 1 -1.725e+02 1.115e+02 1.186e+02
|                ( - 1.079e+02 1 0)
|                ( QUESTION0_0_R 1 -1.689e+02 1.101e+02 1.136e+02
|                    ( QUESTION0_4_R 1 -1.433e+02 9.762e+01 1.056e+02
|                        ( - 1.210e+02 2 0)
|                        ( QUESTION0_8_R 1 -1.667e+02 9.296e+01 8.868e+01
|                            ( - 7.399e+01 1 0)
|                            ( - -1.477e+02 2 0)))
|                    ( - 8.452e+01 1 0))))))
s>    ( QUESTION0_20_R 1 -2.411e+02 1.337e+02 1.336e+02
s>        ( - 7.556e+01 2 0)
s>        ( QUESTION0_12_R 1 -1.829e+02 1.149e+02 1.286e+02
s>            ( - 1.181e+02 1 0)
s>            ( QUESTION11 1 -1.862e+02 1.273e+02 1.216e+02
s>                ( - 1.136e+02 1 0)
s>                ( QUESTION0_10_R 1 -1.725e+02 1.115e+02 1.186e+02
s>                    ( - 1.079e+02 1 0)
s>                    ( QUESTION0_0_R 1 -1.689e+02 1.101e+02 1.136e+02
s>                        ( QUESTION0_4_R 1 -1.433e+02 9.762e+01 1.056e+02
s>                            ( - 1.210e+02 2 0)
s>                            ( QUESTION0_8_R 1 -1.667e+02 9.296e+01 8.868e+01
s>                                ( - 7.399e+01 1 0)
s>                                ( - -1.477e+02 2 0)))
s>                        ( - 8.452e+01 1 0))))))INFO: dtree.c(1351): Comp split 24
INFO: dtree.c(1483): stop. leaf nodes are specific
INFO: dtree.c(1524): Final simple tree
|( QUESTION0_10_R 1 7.859e+01 1.600e+02 3.443e+02
|    ( - 1.067e+02 1 0)
|    ( QUESTION0_4_R 1 1.319e+02 9.036e+01 3.363e+02
|        ( - 2.352e+02 2 0)
|        ( - -1.298e+01 4 0)))
s>    ( QUESTION0_10_R 1 7.859e+01 1.600e+02 3.443e+02
s>        ( - 1.067e+02 1 0)
s>        ( QUESTION0_4_R 1 1.319e+02 9.036e+01 3.363e+02
s>            ( - 2.352e+02 2 0)
s>            ( - -1.298e+01 4 0)))INFO: dtree.c(1351): Comp split 25
INFO: dtree.c(1351): Comp split 26
INFO: dtree.c(1351): Comp split 27
INFO: dtree.c(1483): stop. leaf nodes are specific
INFO: dtree.c(1524): Final simple tree
|( SILENCE 1 8.713e+02 1.391e+02 1.159e+02
|    ( QUESTION14 -1 6.507e+02 1.043e+02 7.371e+01
|        ( - 6.183e+02 1 0)
|        ( - 1.368e+02 1 0))
|    ( QUESTION0_15_R 1 3.597e+02 1.204e+02 4.221e+01
|        ( - 1.814e+02 2 0)
|        ( - 2.986e+02 2 0)))
s>    ( SILENCE 1 8.713e+02 1.391e+02 1.159e+02
s>        ( QUESTION14 -1 6.507e+02 1.043e+02 7.371e+01
s>            ( - 6.183e+02 1 0)
s>            ( - 1.368e+02 1 0))
s>        ( QUESTION0_15_R 1 3.597e+02 1.204e+02 4.221e+01
s>            ( - 1.814e+02 2 0)
s>            ( - 2.986e+02 2 0)))INFO: dtree.c(1351): Comp split 28
INFO: dtree.c(1483): stop. leaf nodes are specific
INFO: dtree.c(1524): Final simple tree
|( QUESTION0_4_R 1 1.319e+02 9.036e+01 3.363e+02
|    ( - 2.352e+02 2 0)
|    ( - -1.298e+01 4 0))
s>    ( QUESTION0_4_R 1 1.319e+02 9.036e+01 3.363e+02
s>        ( - 2.352e+02 2 0)
s>        ( - -1.298e+01 4 0))INFO: dtree.c(1351): Comp split 29
INFO: dtree.c(1483): stop. leaf nodes are specific
INFO: dtree.c(1524): Final simple tree
|( QUESTION0_0_R 1 9.222e+01 9.126e+01 1.000e+01
|    ( - 1.079e+02 1 0)
|    ( - 7.556e+01 2 0))
s>    ( QUESTION0_0_R 1 9.222e+01 9.126e+01 1.000e+01
s>        ( - 1.079e+02 1 0)
s>        ( - 7.556e+01 2 0))INFO: dtree.c(1483): stop. leaf nodes are specific
INFO: dtree.c(1524): Final simple tree
|( QUESTION0_10_R 1 -1.781e+02 1.262e+02 1.236e+02
|    ( - 1.136e+02 1 0)
|    ( QUESTION0_12_R 1 -1.655e+02 1.147e+02 1.206e+02
|        ( - 1.181e+02 1 0)
|        ( QUESTION0_0_R 1 -1.689e+02 1.101e+02 1.136e+02
|            ( QUESTION0_4_R 1 -1.433e+02 9.762e+01 1.056e+02
|                ( - 1.210e+02 2 0)
|                ( QUESTION0_8_R 1 -1.667e+02 9.296e+01 8.868e+01
|                    ( - 7.399e+01 1 0)
|                    ( - -1.477e+02 2 0)))
|            ( - 8.452e+01 1 0))))
s>    ( QUESTION0_10_R 1 -1.781e+02 1.262e+02 1.236e+02
s>        ( - 1.136e+02 1 0)
s>        ( QUESTION0_12_R 1 -1.655e+02 1.147e+02 1.206e+02
s>            ( - 1.181e+02 1 0)
s>            ( QUESTION0_0_R 1 -1.689e+02 1.101e+02 1.136e+02
s>                ( QUESTION0_4_R 1 -1.433e+02 9.762e+01 1.056e+02
s>                    ( - 1.210e+02 2 0)
s>                    ( QUESTION0_8_R 1 -1.667e+02 9.296e+01 8.868e+01
s>                        ( - 7.399e+01 1 0)
s>                        ( - -1.477e+02 2 0)))
s>                ( - 8.452e+01 1 0))))INFO: dtree.c(1351): Comp split 30
INFO: dtree.c(1483): stop. leaf nodes are specific
INFO: dtree.c(1524): Final simple tree
|( QUESTION0_4_R 1 5.078e+01 1.431e+02 1.404e+02
|    ( - 2.337e+02 1 0)
|    ( - -3.986e+01 1 0))
s>    ( QUESTION0_4_R 1 5.078e+01 1.431e+02 1.404e+02
s>        ( - 2.337e+02 1 0)
s>        ( - -3.986e+01 1 0))INFO: dtree.c(1351): Comp split 31
INFO: dtree.c(1351): Comp split 32
INFO: dtree.c(1483): stop. leaf nodes are specific
INFO: dtree.c(1524): Final simple tree
|( QUESTION0_0_R 1 5.575e+01 1.147e+02 1.384e+02
|    ( - 2.045e+02 2 0)
|    ( QUESTION0_18_R 1 -3.413e+01 8.032e+01 9.038e+01
|        ( - 9.735e+01 1 0)
|        ( - -5.116e+01 2 0)))
s>    ( QUESTION0_0_R 1 5.575e+01 1.147e+02 1.384e+02
s>        ( - 2.045e+02 2 0)
s>        ( QUESTION0_18_R 1 -3.413e+01 8.032e+01 9.038e+01
s>            ( - 9.735e+01 1 0)
s>            ( - -5.116e+01 2 0)))INFO: dtree.c(1483): stop. leaf nodes are specific
INFO: dtree.c(1524): Final simple tree
|( QUESTION0_0_R 1 -6.407e+00 1.268e+02 5.520e+01
|    ( - -3.325e+01 4 0)
|    ( - 1.536e+02 2 0))
s>    ( QUESTION0_0_R 1 -6.407e+00 1.268e+02 5.520e+01
s>        ( - -3.325e+01 4 0)
s>        ( - 1.536e+02 2 0))INFO: dtree.c(1351): Comp split 33
INFO: dtree.c(1351): Comp split 34
INFO: dtree.c(1351): Comp split 35
INFO: dtree.c(1483): stop. leaf nodes are specific
INFO: dtree.c(1524): Final simple tree
|( QUESTION0_15_R 1 3.597e+02 1.204e+02 4.221e+01
|    ( - 1.814e+02 2 0)
|    ( - 2.986e+02 2 0))
s>    ( QUESTION0_15_R 1 3.597e+02 1.204e+02 4.221e+01
s>        ( - 1.814e+02 2 0)
s>        ( - 2.986e+02 2 0))INFO: dtree.c(1483): stop. leaf nodes are specific
INFO: dtree.c(1524): Final simple tree
|( QUESTION14 -1 6.507e+02 1.043e+02 7.371e+01
|    ( - 6.183e+02 1 0)
|    ( - 1.368e+02 1 0))
s>    ( QUESTION14 -1 6.507e+02 1.043e+02 7.371e+01
s>        ( - 6.183e+02 1 0)
s>        ( - 1.368e+02 1 0))INFO: dtree.c(1351): Comp split 36
INFO: dtree.c(1483): stop. leaf nodes are specific
INFO: dtree.c(1524): Final simple tree
|( QUESTION0_17_R 1 2.433e+02 9.887e+01 1.672e+02
|    ( - 9.812e+01 1 0)
|    ( - 2.441e+02 6 0))
s>    ( QUESTION0_17_R 1 2.433e+02 9.887e+01 1.672e+02
s>        ( - 9.812e+01 1 0)
s>        ( - 2.441e+02 6 0))INFO: dtree.c(1351): Comp split 37
INFO: dtree.c(1351): Comp split 38
INFO: dtree.c(1483): stop. leaf nodes are specific
INFO: dtree.c(1524): Final simple tree
|( QUESTION0_12_R 1 -1.655e+02 1.147e+02 1.206e+02
|    ( - 1.181e+02 1 0)
|    ( QUESTION0_0_R 1 -1.689e+02 1.101e+02 1.136e+02
|        ( QUESTION0_4_R 1 -1.433e+02 9.762e+01 1.056e+02
|            ( - 1.210e+02 2 0)
|            ( QUESTION0_8_R 1 -1.667e+02 9.296e+01 8.868e+01
|                ( - 7.399e+01 1 0)
|                ( - -1.477e+02 2 0)))
|        ( - 8.452e+01 1 0)))
s>    ( QUESTION0_12_R 1 -1.655e+02 1.147e+02 1.206e+02
s>        ( - 1.181e+02 1 0)
s>        ( QUESTION0_0_R 1 -1.689e+02 1.101e+02 1.136e+02
s>            ( QUESTION0_4_R 1 -1.433e+02 9.762e+01 1.056e+02
s>                ( - 1.210e+02 2 0)
s>                ( QUESTION0_8_R 1 -1.667e+02 9.296e+01 8.868e+01
s>                    ( - 7.399e+01 1 0)
s>                    ( - -1.477e+02 2 0)))
s>            ( - 8.452e+01 1 0)))INFO: dtree.c(1351): Comp split 39
INFO: dtree.c(1351): Comp split 40
INFO: dtree.c(1351): Comp split 41
INFO: dtree.c(1483): stop. leaf nodes are specific
INFO: dtree.c(1524): Final simple tree
|( QUESTION0_0_R 1 -1.689e+02 1.101e+02 1.136e+02
|    ( QUESTION0_4_R 1 -1.433e+02 9.762e+01 1.056e+02
|        ( - 1.210e+02 2 0)
|        ( QUESTION0_8_R 1 -1.667e+02 9.296e+01 8.868e+01
|            ( - 7.399e+01 1 0)
|            ( - -1.477e+02 2 0)))
|    ( - 8.452e+01 1 0))
s>    ( QUESTION0_0_R 1 -1.689e+02 1.101e+02 1.136e+02
s>        ( QUESTION0_4_R 1 -1.433e+02 9.762e+01 1.056e+02
s>            ( - 1.210e+02 2 0)
s>            ( QUESTION0_8_R 1 -1.667e+02 9.296e+01 8.868e+01
s>                ( - 7.399e+01 1 0)
s>                ( - -1.477e+02 2 0)))
s>        ( - 8.452e+01 1 0))INFO: dtree.c(1351): Comp split 42
INFO: dtree.c(1483): stop. leaf nodes are specific
INFO: dtree.c(1524): Final simple tree
|( QUESTION0_18_R 1 -3.413e+01 8.032e+01 9.038e+01
|    ( - 9.735e+01 1 0)
|    ( - -5.116e+01 2 0))
s>    ( QUESTION0_18_R 1 -3.413e+01 8.032e+01 9.038e+01
s>        ( - 9.735e+01 1 0)
s>        ( - -5.116e+01 2 0))INFO: dtree.c(1351): Comp split 43
INFO: dtree.c(1483): stop. leaf nodes are specific
INFO: dtree.c(1524): Final simple tree
|( QUESTION0_4_R 1 -1.433e+02 9.762e+01 1.056e+02
|    ( - 1.210e+02 2 0)
|    ( QUESTION0_8_R 1 -1.667e+02 9.296e+01 8.868e+01
|        ( - 7.399e+01 1 0)
|        ( - -1.477e+02 2 0)))
s>    ( QUESTION0_4_R 1 -1.433e+02 9.762e+01 1.056e+02
s>        ( - 1.210e+02 2 0)
s>        ( QUESTION0_8_R 1 -1.667e+02 9.296e+01 8.868e+01
s>            ( - 7.399e+01 1 0)
s>            ( - -1.477e+02 2 0)))INFO: dtree.c(1351): Comp split 44
INFO: dtree.c(1351): Comp split 45
INFO: dtree.c(1351): Comp split 46
INFO: dtree.c(1351): Comp split 47
INFO: dtree.c(1483): stop. leaf nodes are specific
INFO: dtree.c(1524): Final simple tree
|( QUESTION0_8_R 1 -1.667e+02 9.296e+01 8.868e+01
|    ( - 7.399e+01 1 0)
|    ( - -1.477e+02 2 0))
s>    ( QUESTION0_8_R 1 -1.667e+02 9.296e+01 8.868e+01
s>        ( - 7.399e+01 1 0)
s>        ( - -1.477e+02 2 0))INFO: dtree.c(1351): Comp split 48
INFO: dtree.c(1351): Comp split 49
INFO: dtree.c(1351): Comp split 50
INFO: dtree.c(1351): Comp split 51
INFO: dtree.c(1351): Comp split 52
INFO: dtree.c(1354): stop. leaf nodes are specific
Mon May  6 20:56:05 2013
