INFO: cmd_ln.c(691): Parsing command line:
/home/ssitaram/projects/tts_no_text/English/accEngCB/bin/bldtree \
	-treefn /home/ssitaram/projects/tts_no_text/English/accEngCB//trees/accEngCB.unpruned/JH-2.dtree \
	-moddeffn /home/ssitaram/projects/tts_no_text/English/accEngCB//model_architecture/accEngCB.untied.mdef \
	-mixwfn /home/ssitaram/projects/tts_no_text/English/accEngCB//model_parameters/accEngCB.cd_cont_untied/mixture_weights \
	-ts2cbfn .cont. \
	-mwfloor 1e-08 \
	-psetfn /home/ssitaram/projects/tts_no_text/English/accEngCB//model_architecture/accEngCB.tree_questions \
	-phone JH \
	-state 2 \
	-stwt 1.0,0.05,0.0 \
	-meanfn /home/ssitaram/projects/tts_no_text/English/accEngCB//model_parameters/accEngCB.cd_cont_untied/means \
	-varfn /home/ssitaram/projects/tts_no_text/English/accEngCB//model_parameters/accEngCB.cd_cont_untied/variances \
	-fullvar no \
	-ssplitmin 1 \
	-ssplitmax 7 \
	-ssplitthr 0 \
	-csplitmin 1 \
	-csplitmax 2000 \
	-csplitthr 0 

Current configuration:
[NAME]		[DEFLT]	[VALUE]
-allphones	no	no
-cntthresh	0.00001	1.000000e-05
-csplitmax	100	2000
-csplitmin	1	1
-csplitthr	8e-4	0.000000e+00
-example	no	no
-fullvar	no	no
-help		no	no
-meanfn			/home/ssitaram/projects/tts_no_text/English/accEngCB//model_parameters/accEngCB.cd_cont_untied/means
-mixwfn			/home/ssitaram/projects/tts_no_text/English/accEngCB//model_parameters/accEngCB.cd_cont_untied/mixture_weights
-moddeffn		/home/ssitaram/projects/tts_no_text/English/accEngCB//model_architecture/accEngCB.untied.mdef
-mwfloor	1e-4	1.000000e-08
-phone			JH
-psetfn			/home/ssitaram/projects/tts_no_text/English/accEngCB//model_architecture/accEngCB.tree_questions
-ssplitmax	5	7
-ssplitmin	1	1
-ssplitthr	8e-4	0.000000e+00
-state			2
-stwt			1.0,0.05,0.0,
-treefn			/home/ssitaram/projects/tts_no_text/English/accEngCB//trees/accEngCB.unpruned/JH-2.dtree
-ts2cbfn	.semi.	.cont.
-varfloor	0.00001	1.000000e-05
-varfn			/home/ssitaram/projects/tts_no_text/English/accEngCB//model_parameters/accEngCB.cd_cont_untied/variances

INFO: main.c(228): Reading: /home/ssitaram/projects/tts_no_text/English/accEngCB//model_architecture/accEngCB.untied.mdef
INFO: model_def_io.c(587): Model definition info:
INFO: model_def_io.c(588): 8263 total models defined (33 base, 8230 tri)
INFO: model_def_io.c(589): 33052 total states
INFO: model_def_io.c(590): 24789 total tied states
INFO: model_def_io.c(591): 99 total tied CI states
INFO: model_def_io.c(592): 33 total tied transition matrices
INFO: model_def_io.c(593): 4 max state/model
INFO: model_def_io.c(594): 4 min state/model
INFO: main.c(247): Building trees for [JH AH EH s] through [JH T OW s]
INFO: main.c(275): Covering states |[11148 11315]| == 168
INFO: main.c(282): Reading: /home/ssitaram/projects/tts_no_text/English/accEngCB//model_parameters/accEngCB.cd_cont_untied/mixture_weights
INFO: s3mixw_io.c(172): Read /home/ssitaram/projects/tts_no_text/English/accEngCB//model_parameters/accEngCB.cd_cont_untied/mixture_weights [168x1x1 array]
INFO: main.c(320): 56 of 56 models have observation count greater than 0.000010
INFO: main.c(94): nrm stwt: 0.000 0.048 0.952 
INFO: s3gau_io.c(166): Read /home/ssitaram/projects/tts_no_text/English/accEngCB//model_parameters/accEngCB.cd_cont_untied/means [24789x1x1 array]
INFO: s3gau_io.c(166): Read /home/ssitaram/projects/tts_no_text/English/accEngCB//model_parameters/accEngCB.cd_cont_untied/variances [24789x1x1 array]
INFO: main.c(576): Reading: /home/ssitaram/projects/tts_no_text/English/accEngCB//model_architecture/accEngCB.tree_questions
INFO: main.c(619): 180 total simple questions (172 phone; 8 word bndry)
INFO: main.c(621): 42 Left Only questions, and 42 Right Only questions
INFO: dtree.c(1524): Final simple tree
|( QUESTION20 1 -1.554e+04 7.940e+03 2.988e+03
|    ( QUESTION13 -1 5.260e+03 1.143e+03 1.440e+03
|        ( - -1.503e+02 6 0 QUESTION2_14_L -1 1.189e+02 4.900e+01)
|        ( QUESTION1 -1 6.553e+03 2.674e+02 1.391e+03
|            ( - 4.113e+03 2 0)
|            ( - 2.708e+03 7 0 QUESTION10 -1 1.427e+02 7.310e+02)))
|    ( SILENCE -1 -1.286e+04 1.763e+03 1.548e+03
|        ( QUESTION0_20_R 1 -6.772e+03 2.963e+02 8.719e+02
|            ( - -6.399e+03 5 0)
|            ( - -7.658e+01 6 0 QUESTION0_10_R 1 2.598e+02 1.400e+01))
|        ( QUESTION9 -1 -4.329e+03 7.504e+02 6.758e+02
|            ( - -6.931e+02 2 0)
|            ( QUESTION0_20_R 1 -2.886e+03 2.867e+02 4.610e+02
|                ( - -2.124e+03 21 0 QUESTION0 -1 1.662e+02 4.040e+02)
|                ( - -4.750e+02 7 0 QUESTION0_0_R 1 2.395e+02 5.700e+01)))))
s>    ( QUESTION20 1 -1.554e+04 7.940e+03 2.988e+03
s>        ( QUESTION13 -1 5.260e+03 1.143e+03 1.440e+03
s>            ( - -1.503e+02 6 0 QUESTION2_14_L -1 1.189e+02 4.900e+01)
s>            ( QUESTION1 -1 6.553e+03 2.674e+02 1.391e+03
s>                ( - 4.113e+03 2 0)
s>                ( - 2.708e+03 7 0 QUESTION10 -1 1.427e+02 7.310e+02)))
s>        ( SILENCE -1 -1.286e+04 1.763e+03 1.548e+03
s>            ( QUESTION0_20_R 1 -6.772e+03 2.963e+02 8.719e+02
s>                ( - -6.399e+03 5 0)
s>                ( - -7.658e+01 6 0 QUESTION0_10_R 1 2.598e+02 1.400e+01))
s>            ( QUESTION9 -1 -4.329e+03 7.504e+02 6.758e+02
s>                ( - -6.931e+02 2 0)
s>                ( QUESTION0_20_R 1 -2.886e+03 2.867e+02 4.610e+02
s>                    ( - -2.124e+03 21 0 QUESTION0 -1 1.662e+02 4.040e+02)
s>                    ( - -4.750e+02 7 0 QUESTION0_0_R 1 2.395e+02 5.700e+01)))))INFO: dtree.c(1351): Comp split 0
INFO: dtree.c(1483): stop. leaf nodes are specific
INFO: dtree.c(1524): Final simple tree
|( QUESTION1 -1 6.553e+03 2.674e+02 1.391e+03
|    ( - 4.113e+03 2 0)
|    ( QUESTION10 -1 2.708e+03 1.427e+02 7.310e+02
|        ( - 8.784e+01 1 0)
|        ( SILENCE -1 2.763e+03 1.281e+02 7.250e+02
|            ( - 2.890e+03 3 0)
|            ( - 1.074e+00 3 0))))
s>    ( QUESTION1 -1 6.553e+03 2.674e+02 1.391e+03
s>        ( - 4.113e+03 2 0)
s>        ( QUESTION10 -1 2.708e+03 1.427e+02 7.310e+02
s>            ( - 8.784e+01 1 0)
s>            ( SILENCE -1 2.763e+03 1.281e+02 7.250e+02
s>                ( - 2.890e+03 3 0)
s>                ( - 1.074e+00 3 0))))INFO: dtree.c(1524): Final simple tree
|( SILENCE -1 -1.331e+04 1.858e+03 1.597e+03
|    ( QUESTION0_20_R 1 -6.772e+03 2.963e+02 8.719e+02
|        ( - -6.399e+03 5 0)
|        ( QUESTION0_10_R 1 -7.658e+01 2.598e+02 1.400e+01
|            ( - 2.401e+02 1 0)
|            ( QUESTION0_0_R 1 -5.690e+01 2.528e+02 1.300e+01
|                ( QUESTION0_3_R 1 -4.237e+01 2.509e+02 1.200e+01
|                    ( - -3.109e+01 3 0 QUESTION0_9_R 1 1.893e+02 1.100e+01)
|                    ( - 2.396e+02 1 0))
|                ( - 2.383e+02 1 0))))
|    ( QUESTION9 -1 -4.676e+03 7.417e+02 7.248e+02
|        ( - -6.931e+02 2 0)
|        ( QUESTION0_20_R 1 -3.241e+03 2.761e+02 5.100e+02
|            ( - -2.490e+03 27 0 QUESTION14 1 2.162e+02 4.530e+02)
|            ( - -4.750e+02 7 0 QUESTION0_0_R 1 2.395e+02 5.700e+01))))
s>    ( SILENCE -1 -1.331e+04 1.858e+03 1.597e+03
s>        ( QUESTION0_20_R 1 -6.772e+03 2.963e+02 8.719e+02
s>            ( - -6.399e+03 5 0)
s>            ( QUESTION0_10_R 1 -7.658e+01 2.598e+02 1.400e+01
s>                ( - 2.401e+02 1 0)
s>                ( QUESTION0_0_R 1 -5.690e+01 2.528e+02 1.300e+01
s>                    ( QUESTION0_3_R 1 -4.237e+01 2.509e+02 1.200e+01
s>                        ( - -3.109e+01 3 0 QUESTION0_9_R 1 1.893e+02 1.100e+01)
s>                        ( - 2.396e+02 1 0))
s>                    ( - 2.383e+02 1 0))))
s>        ( QUESTION9 -1 -4.676e+03 7.417e+02 7.248e+02
s>            ( - -6.931e+02 2 0)
s>            ( QUESTION0_20_R 1 -3.241e+03 2.761e+02 5.100e+02
s>                ( - -2.490e+03 27 0 QUESTION14 1 2.162e+02 4.530e+02)
s>                ( - -4.750e+02 7 0 QUESTION0_0_R 1 2.395e+02 5.700e+01))))INFO: dtree.c(1351): Comp split 1
INFO: dtree.c(1483): stop. leaf nodes are specific
INFO: dtree.c(1524): Final simple tree
|( QUESTION0_20_R 1 -6.772e+03 2.963e+02 8.719e+02
|    ( - -6.399e+03 5 0)
|    ( QUESTION0_10_R 1 -7.658e+01 2.598e+02 1.400e+01
|        ( - 2.401e+02 1 0)
|        ( QUESTION0_0_R 1 -5.690e+01 2.528e+02 1.300e+01
|            ( QUESTION0_3_R 1 -4.237e+01 2.509e+02 1.200e+01
|                ( QUESTION0_9_R 1 -3.109e+01 1.893e+02 1.100e+01
|                    ( - 1.529e+02 1 0)
|                    ( QUESTION0_4_R 1 5.346e+00 1.800e+02 9.000e+00
|                        ( - 1.261e+02 1 0)
|                        ( - 5.926e+01 1 0)))
|                ( - 2.396e+02 1 0))
|            ( - 2.383e+02 1 0))))
s>    ( QUESTION0_20_R 1 -6.772e+03 2.963e+02 8.719e+02
s>        ( - -6.399e+03 5 0)
s>        ( QUESTION0_10_R 1 -7.658e+01 2.598e+02 1.400e+01
s>            ( - 2.401e+02 1 0)
s>            ( QUESTION0_0_R 1 -5.690e+01 2.528e+02 1.300e+01
s>                ( QUESTION0_3_R 1 -4.237e+01 2.509e+02 1.200e+01
s>                    ( QUESTION0_9_R 1 -3.109e+01 1.893e+02 1.100e+01
s>                        ( - 1.529e+02 1 0)
s>                        ( QUESTION0_4_R 1 5.346e+00 1.800e+02 9.000e+00
s>                            ( - 1.261e+02 1 0)
s>                            ( - 5.926e+01 1 0)))
s>                    ( - 2.396e+02 1 0))
s>                ( - 2.383e+02 1 0))))INFO: dtree.c(1524): Final simple tree
|( QUESTION9 -1 -4.676e+03 7.417e+02 7.248e+02
|    ( - -6.931e+02 2 0)
|    ( QUESTION0_20_R 1 -3.241e+03 2.761e+02 5.100e+02
|        ( QUESTION14 1 -2.490e+03 2.162e+02 4.530e+02
|            ( QUESTION0 -1 -2.124e+03 1.662e+02 4.040e+02
|                ( QUESTION1 -1 -8.514e+02 1.442e+02 1.491e+02
|                    ( - -2.812e+02 3 0)
|                    ( - -4.261e+02 5 0 QUESTION4 -1 9.248e+01 7.883e+01))
|                ( - -1.106e+03 13 0 QUESTION20 -1 1.262e+02 2.549e+02))
|            ( - -1.503e+02 6 0 QUESTION2_14_L -1 1.189e+02 4.900e+01))
|        ( QUESTION0_0_R 1 -4.750e+02 2.395e+02 5.700e+01
|            ( QUESTION0_4_R 1 -4.179e+01 2.364e+02 2.900e+01
|                ( - 7.668e+01 3 0 QUESTION2 -1 1.316e+02 1.300e+01)
|                ( - 1.179e+02 1 0))
|            ( - -1.937e+02 3 0 QUESTION14 -1 9.814e+01 2.800e+01))))
s>    ( QUESTION9 -1 -4.676e+03 7.417e+02 7.248e+02
s>        ( - -6.931e+02 2 0)
s>        ( QUESTION0_20_R 1 -3.241e+03 2.761e+02 5.100e+02
s>            ( QUESTION14 1 -2.490e+03 2.162e+02 4.530e+02
s>                ( QUESTION0 -1 -2.124e+03 1.662e+02 4.040e+02
s>                    ( QUESTION1 -1 -8.514e+02 1.442e+02 1.491e+02
s>                        ( - -2.812e+02 3 0)
s>                        ( - -4.261e+02 5 0 QUESTION4 -1 9.248e+01 7.883e+01))
s>                    ( - -1.106e+03 13 0 QUESTION20 -1 1.262e+02 2.549e+02))
s>                ( - -1.503e+02 6 0 QUESTION2_14_L -1 1.189e+02 4.900e+01))
s>            ( QUESTION0_0_R 1 -4.750e+02 2.395e+02 5.700e+01
s>                ( QUESTION0_4_R 1 -4.179e+01 2.364e+02 2.900e+01
s>                    ( - 7.668e+01 3 0 QUESTION2 -1 1.316e+02 1.300e+01)
s>                    ( - 1.179e+02 1 0))
s>                ( - -1.937e+02 3 0 QUESTION14 -1 9.814e+01 2.800e+01))))INFO: dtree.c(1351): Comp split 2
INFO: dtree.c(1524): Final simple tree
|( QUESTION0_20_R 1 -3.241e+03 2.761e+02 5.100e+02
|    ( QUESTION14 1 -2.490e+03 2.162e+02 4.530e+02
|        ( QUESTION0 -1 -2.124e+03 1.662e+02 4.040e+02
|            ( QUESTION1 -1 -8.514e+02 1.442e+02 1.491e+02
|                ( - -2.812e+02 3 0)
|                ( - -4.261e+02 5 0 QUESTION4 -1 9.248e+01 7.883e+01))
|            ( - -1.106e+03 13 0 QUESTION20 -1 1.262e+02 2.549e+02))
|        ( - -1.503e+02 6 0 QUESTION2_14_L -1 1.189e+02 4.900e+01))
|    ( QUESTION0_0_R 1 -4.750e+02 2.395e+02 5.700e+01
|        ( QUESTION0_4_R 1 -4.179e+01 2.364e+02 2.900e+01
|            ( QUESTION2 -1 7.668e+01 1.316e+02 1.300e+01
|                ( - 1.459e+02 1 0)
|                ( - 6.235e+01 2 0 QUESTION0 -1 1.118e+02 1.100e+01))
|            ( - 1.179e+02 1 0))
|        ( - -1.937e+02 3 0 QUESTION14 -1 9.814e+01 2.800e+01)))
s>    ( QUESTION0_20_R 1 -3.241e+03 2.761e+02 5.100e+02
s>        ( QUESTION14 1 -2.490e+03 2.162e+02 4.530e+02
s>            ( QUESTION0 -1 -2.124e+03 1.662e+02 4.040e+02
s>                ( QUESTION1 -1 -8.514e+02 1.442e+02 1.491e+02
s>                    ( - -2.812e+02 3 0)
s>                    ( - -4.261e+02 5 0 QUESTION4 -1 9.248e+01 7.883e+01))
s>                ( - -1.106e+03 13 0 QUESTION20 -1 1.262e+02 2.549e+02))
s>            ( - -1.503e+02 6 0 QUESTION2_14_L -1 1.189e+02 4.900e+01))
s>        ( QUESTION0_0_R 1 -4.750e+02 2.395e+02 5.700e+01
s>            ( QUESTION0_4_R 1 -4.179e+01 2.364e+02 2.900e+01
s>                ( QUESTION2 -1 7.668e+01 1.316e+02 1.300e+01
s>                    ( - 1.459e+02 1 0)
s>                    ( - 6.235e+01 2 0 QUESTION0 -1 1.118e+02 1.100e+01))
s>                ( - 1.179e+02 1 0))
s>            ( - -1.937e+02 3 0 QUESTION14 -1 9.814e+01 2.800e+01)))INFO: dtree.c(1351): Comp split 3
INFO: dtree.c(1524): Final simple tree
|( QUESTION0_4_R 1 -2.435e+03 2.717e+02 4.330e+02
|    ( QUESTION2 -1 7.668e+01 1.316e+02 1.300e+01
|        ( - 1.459e+02 1 0)
|        ( - 6.235e+01 2 0 QUESTION0 -1 1.118e+02 1.100e+01))
|    ( QUESTION0_0_R 1 -2.240e+03 2.337e+02 4.200e+02
|        ( - 1.179e+02 1 0)
|        ( QUESTION0 -1 -2.124e+03 1.662e+02 4.040e+02
|            ( QUESTION1 -1 -8.514e+02 1.442e+02 1.491e+02
|                ( - -2.812e+02 3 0)
|                ( - -4.261e+02 5 0 QUESTION4 -1 9.248e+01 7.883e+01))
|            ( QUESTION20 -1 -1.106e+03 1.262e+02 2.549e+02
|                ( - -1.446e+02 4 0)
|                ( QUESTION14 -1 -8.355e+02 1.179e+02 1.840e+02
|                    ( - -7.876e+02 5 0)
|                    ( - 7.002e+01 4 0 QUESTION17 -1 8.433e+01 2.296e+01))))))
s>    ( QUESTION0_4_R 1 -2.435e+03 2.717e+02 4.330e+02
s>        ( QUESTION2 -1 7.668e+01 1.316e+02 1.300e+01
s>            ( - 1.459e+02 1 0)
s>            ( - 6.235e+01 2 0 QUESTION0 -1 1.118e+02 1.100e+01))
s>        ( QUESTION0_0_R 1 -2.240e+03 2.337e+02 4.200e+02
s>            ( - 1.179e+02 1 0)
s>            ( QUESTION0 -1 -2.124e+03 1.662e+02 4.040e+02
s>                ( QUESTION1 -1 -8.514e+02 1.442e+02 1.491e+02
s>                    ( - -2.812e+02 3 0)
s>                    ( - -4.261e+02 5 0 QUESTION4 -1 9.248e+01 7.883e+01))
s>                ( QUESTION20 -1 -1.106e+03 1.262e+02 2.549e+02
s>                    ( - -1.446e+02 4 0)
s>                    ( QUESTION14 -1 -8.355e+02 1.179e+02 1.840e+02
s>                        ( - -7.876e+02 5 0)
s>                        ( - 7.002e+01 4 0 QUESTION17 -1 8.433e+01 2.296e+01))))))INFO: dtree.c(1483): stop. leaf nodes are specific
INFO: dtree.c(1524): Final simple tree
|( QUESTION0_17_R 1 -4.806e+02 1.366e+02 7.699e+01
|    ( QUESTION14 -1 -1.937e+02 9.814e+01 2.800e+01
|        ( - -1.016e+02 2 0)
|        ( - 6.006e+00 1 0))
|    ( QUESTION2_14_L -1 -1.503e+02 1.189e+02 4.900e+01
|        ( QUESTION16 -1 1.809e+01 7.840e+01 2.300e+01
|            ( - 7.542e+01 1 0)
|            ( - 2.107e+01 2 0))
|        ( QUESTION14 -1 -4.940e+01 9.896e+01 2.599e+01
|            ( - 1.943e+00 2 0)
|            ( - 4.762e+01 1 0))))
s>    ( QUESTION0_17_R 1 -4.806e+02 1.366e+02 7.699e+01
s>        ( QUESTION14 -1 -1.937e+02 9.814e+01 2.800e+01
s>            ( - -1.016e+02 2 0)
s>            ( - 6.006e+00 1 0))
s>        ( QUESTION2_14_L -1 -1.503e+02 1.189e+02 4.900e+01
s>            ( QUESTION16 -1 1.809e+01 7.840e+01 2.300e+01
s>                ( - 7.542e+01 1 0)
s>                ( - 2.107e+01 2 0))
s>            ( QUESTION14 -1 -4.940e+01 9.896e+01 2.599e+01
s>                ( - 1.943e+00 2 0)
s>                ( - 4.762e+01 1 0))))INFO: dtree.c(1351): Comp split 4
INFO: dtree.c(1483): stop. leaf nodes are specific
INFO: dtree.c(1524): Final simple tree
|( QUESTION0_10_R 1 -7.658e+01 2.598e+02 1.400e+01
|    ( - 2.401e+02 1 0)
|    ( QUESTION0_0_R 1 -5.690e+01 2.528e+02 1.300e+01
|        ( QUESTION0_3_R 1 -4.237e+01 2.509e+02 1.200e+01
|            ( QUESTION0_9_R 1 -3.109e+01 1.893e+02 1.100e+01
|                ( - 1.529e+02 1 0)
|                ( QUESTION0_4_R 1 5.346e+00 1.800e+02 9.000e+00
|                    ( - 1.261e+02 1 0)
|                    ( - 5.926e+01 1 0)))
|            ( - 2.396e+02 1 0))
|        ( - 2.383e+02 1 0)))
s>    ( QUESTION0_10_R 1 -7.658e+01 2.598e+02 1.400e+01
s>        ( - 2.401e+02 1 0)
s>        ( QUESTION0_0_R 1 -5.690e+01 2.528e+02 1.300e+01
s>            ( QUESTION0_3_R 1 -4.237e+01 2.509e+02 1.200e+01
s>                ( QUESTION0_9_R 1 -3.109e+01 1.893e+02 1.100e+01
s>                    ( - 1.529e+02 1 0)
s>                    ( QUESTION0_4_R 1 5.346e+00 1.800e+02 9.000e+00
s>                        ( - 1.261e+02 1 0)
s>                        ( - 5.926e+01 1 0)))
s>                ( - 2.396e+02 1 0))
s>            ( - 2.383e+02 1 0)))INFO: dtree.c(1351): Comp split 5
INFO: dtree.c(1524): Final simple tree
|( QUESTION0_0_R 1 -2.240e+03 2.337e+02 4.200e+02
|    ( - 1.179e+02 1 0)
|    ( QUESTION0 -1 -2.124e+03 1.662e+02 4.040e+02
|        ( QUESTION1 -1 -8.514e+02 1.442e+02 1.491e+02
|            ( - -2.812e+02 3 0)
|            ( QUESTION4 -1 -4.261e+02 9.248e+01 7.883e+01
|                ( - -1.971e+02 2 0)
|                ( - -1.365e+02 3 0 QUESTION3 -1 8.248e+01 4.428e+01)))
|        ( QUESTION20 -1 -1.106e+03 1.262e+02 2.549e+02
|            ( - -1.446e+02 4 0)
|            ( QUESTION14 -1 -8.355e+02 1.179e+02 1.840e+02
|                ( - -7.876e+02 5 0)
|                ( QUESTION17 -1 7.002e+01 8.433e+01 2.296e+01
|                    ( - 7.581e+01 1 0)
|                    ( - 7.855e+01 3 0 QUESTION19 -1 1.225e+02 1.706e+01))))))
s>    ( QUESTION0_0_R 1 -2.240e+03 2.337e+02 4.200e+02
s>        ( - 1.179e+02 1 0)
s>        ( QUESTION0 -1 -2.124e+03 1.662e+02 4.040e+02
s>            ( QUESTION1 -1 -8.514e+02 1.442e+02 1.491e+02
s>                ( - -2.812e+02 3 0)
s>                ( QUESTION4 -1 -4.261e+02 9.248e+01 7.883e+01
s>                    ( - -1.971e+02 2 0)
s>                    ( - -1.365e+02 3 0 QUESTION3 -1 8.248e+01 4.428e+01)))
s>            ( QUESTION20 -1 -1.106e+03 1.262e+02 2.549e+02
s>                ( - -1.446e+02 4 0)
s>                ( QUESTION14 -1 -8.355e+02 1.179e+02 1.840e+02
s>                    ( - -7.876e+02 5 0)
s>                    ( QUESTION17 -1 7.002e+01 8.433e+01 2.296e+01
s>                        ( - 7.581e+01 1 0)
s>                        ( - 7.855e+01 3 0 QUESTION19 -1 1.225e+02 1.706e+01))))))INFO: dtree.c(1483): stop. leaf nodes are specific
INFO: dtree.c(1524): Final simple tree
|( QUESTION2 -1 7.668e+01 1.316e+02 1.300e+01
|    ( - 1.459e+02 1 0)
|    ( QUESTION0 -1 6.235e+01 1.118e+02 1.100e+01
|        ( - 7.782e+01 1 0)
|        ( - 9.634e+01 1 0)))
s>    ( QUESTION2 -1 7.668e+01 1.316e+02 1.300e+01
s>        ( - 1.459e+02 1 0)
s>        ( QUESTION0 -1 6.235e+01 1.118e+02 1.100e+01
s>            ( - 7.782e+01 1 0)
s>            ( - 9.634e+01 1 0)))INFO: dtree.c(1351): Comp split 6
INFO: dtree.c(1483): stop. leaf nodes are specific
INFO: dtree.c(1524): Final simple tree
|( QUESTION10 -1 2.708e+03 1.427e+02 7.310e+02
|    ( - 8.784e+01 1 0)
|    ( SILENCE -1 2.763e+03 1.281e+02 7.250e+02
|        ( - 2.890e+03 3 0)
|        ( - 1.074e+00 3 0)))
s>    ( QUESTION10 -1 2.708e+03 1.427e+02 7.310e+02
s>        ( - 8.784e+01 1 0)
s>        ( SILENCE -1 2.763e+03 1.281e+02 7.250e+02
s>            ( - 2.890e+03 3 0)
s>            ( - 1.074e+00 3 0)))INFO: dtree.c(1351): Comp split 7
INFO: dtree.c(1483): stop. leaf nodes are specific
INFO: dtree.c(1524): Final simple tree
|( QUESTION0_0_R 1 -5.690e+01 2.528e+02 1.300e+01
|    ( QUESTION0_3_R 1 -4.237e+01 2.509e+02 1.200e+01
|        ( QUESTION0_9_R 1 -3.109e+01 1.893e+02 1.100e+01
|            ( - 1.529e+02 1 0)
|            ( QUESTION0_4_R 1 5.346e+00 1.800e+02 9.000e+00
|                ( - 1.261e+02 1 0)
|                ( - 5.926e+01 1 0)))
|        ( - 2.396e+02 1 0))
|    ( - 2.383e+02 1 0))
s>    ( QUESTION0_0_R 1 -5.690e+01 2.528e+02 1.300e+01
s>        ( QUESTION0_3_R 1 -4.237e+01 2.509e+02 1.200e+01
s>            ( QUESTION0_9_R 1 -3.109e+01 1.893e+02 1.100e+01
s>                ( - 1.529e+02 1 0)
s>                ( QUESTION0_4_R 1 5.346e+00 1.800e+02 9.000e+00
s>                    ( - 1.261e+02 1 0)
s>                    ( - 5.926e+01 1 0)))
s>            ( - 2.396e+02 1 0))
s>        ( - 2.383e+02 1 0))INFO: dtree.c(1351): Comp split 8
INFO: dtree.c(1483): stop. leaf nodes are specific
INFO: dtree.c(1524): Final simple tree
|( QUESTION0_3_R 1 -4.237e+01 2.509e+02 1.200e+01
|    ( QUESTION0_9_R 1 -3.109e+01 1.893e+02 1.100e+01
|        ( - 1.529e+02 1 0)
|        ( QUESTION0_4_R 1 5.346e+00 1.800e+02 9.000e+00
|            ( - 1.261e+02 1 0)
|            ( - 5.926e+01 1 0)))
|    ( - 2.396e+02 1 0))
s>    ( QUESTION0_3_R 1 -4.237e+01 2.509e+02 1.200e+01
s>        ( QUESTION0_9_R 1 -3.109e+01 1.893e+02 1.100e+01
s>            ( - 1.529e+02 1 0)
s>            ( QUESTION0_4_R 1 5.346e+00 1.800e+02 9.000e+00
s>                ( - 1.261e+02 1 0)
s>                ( - 5.926e+01 1 0)))
s>        ( - 2.396e+02 1 0))INFO: dtree.c(1351): Comp split 9
INFO: dtree.c(1483): stop. leaf nodes are specific
INFO: dtree.c(1524): Final simple tree
|( QUESTION0_9_R 1 -3.109e+01 1.893e+02 1.100e+01
|    ( - 1.529e+02 1 0)
|    ( QUESTION0_4_R 1 5.346e+00 1.800e+02 9.000e+00
|        ( - 1.261e+02 1 0)
|        ( - 5.926e+01 1 0)))
s>    ( QUESTION0_9_R 1 -3.109e+01 1.893e+02 1.100e+01
s>        ( - 1.529e+02 1 0)
s>        ( QUESTION0_4_R 1 5.346e+00 1.800e+02 9.000e+00
s>            ( - 1.261e+02 1 0)
s>            ( - 5.926e+01 1 0)))INFO: dtree.c(1351): Comp split 10
INFO: dtree.c(1524): Final simple tree
|( QUESTION0 -1 -2.124e+03 1.662e+02 4.040e+02
|    ( QUESTION1 -1 -8.514e+02 1.442e+02 1.491e+02
|        ( - -2.812e+02 3 0)
|        ( QUESTION4 -1 -4.261e+02 9.248e+01 7.883e+01
|            ( - -1.971e+02 2 0)
|            ( - -1.365e+02 3 0 QUESTION3 -1 8.248e+01 4.428e+01)))
|    ( QUESTION20 -1 -1.106e+03 1.262e+02 2.549e+02
|        ( - -1.446e+02 4 0)
|        ( QUESTION14 -1 -8.355e+02 1.179e+02 1.840e+02
|            ( - -7.876e+02 5 0)
|            ( QUESTION17 -1 7.002e+01 8.433e+01 2.296e+01
|                ( - 7.581e+01 1 0)
|                ( QUESTION19 -1 7.855e+01 1.225e+02 1.706e+01
|                    ( - 6.685e+01 2 0)
|                    ( - 1.342e+02 1 0))))))
s>    ( QUESTION0 -1 -2.124e+03 1.662e+02 4.040e+02
s>        ( QUESTION1 -1 -8.514e+02 1.442e+02 1.491e+02
s>            ( - -2.812e+02 3 0)
s>            ( QUESTION4 -1 -4.261e+02 9.248e+01 7.883e+01
s>                ( - -1.971e+02 2 0)
s>                ( - -1.365e+02 3 0 QUESTION3 -1 8.248e+01 4.428e+01)))
s>        ( QUESTION20 -1 -1.106e+03 1.262e+02 2.549e+02
s>            ( - -1.446e+02 4 0)
s>            ( QUESTION14 -1 -8.355e+02 1.179e+02 1.840e+02
s>                ( - -7.876e+02 5 0)
s>                ( QUESTION17 -1 7.002e+01 8.433e+01 2.296e+01
s>                    ( - 7.581e+01 1 0)
s>                    ( QUESTION19 -1 7.855e+01 1.225e+02 1.706e+01
s>                        ( - 6.685e+01 2 0)
s>                        ( - 1.342e+02 1 0))))))INFO: dtree.c(1351): Comp split 11
INFO: dtree.c(1483): stop. leaf nodes are specific
INFO: dtree.c(1524): Final simple tree
|( QUESTION0_4_R 1 5.346e+00 1.800e+02 9.000e+00
|    ( - 1.261e+02 1 0)
|    ( - 5.926e+01 1 0))
s>    ( QUESTION0_4_R 1 5.346e+00 1.800e+02 9.000e+00
s>        ( - 1.261e+02 1 0)
s>        ( - 5.926e+01 1 0))INFO: dtree.c(1351): Comp split 12
INFO: dtree.c(1351): Comp split 13
INFO: dtree.c(1483): stop. leaf nodes are specific
INFO: dtree.c(1524): Final simple tree
|( QUESTION2 -1 -5.506e+02 1.228e+02 1.204e+02
|    ( QUESTION3 -1 -1.365e+02 8.248e+01 4.428e+01
|        ( - 1.122e+01 1 0)
|        ( - -6.521e+01 2 0))
|    ( QUESTION0 -1 -2.913e+02 8.596e+01 7.613e+01
|        ( - -2.812e+02 3 0)
|        ( - 7.581e+01 1 0)))
s>    ( QUESTION2 -1 -5.506e+02 1.228e+02 1.204e+02
s>        ( QUESTION3 -1 -1.365e+02 8.248e+01 4.428e+01
s>            ( - 1.122e+01 1 0)
s>            ( - -6.521e+01 2 0))
s>        ( QUESTION0 -1 -2.913e+02 8.596e+01 7.613e+01
s>            ( - -2.812e+02 3 0)
s>            ( - 7.581e+01 1 0)))INFO: dtree.c(1483): stop. leaf nodes are specific
INFO: dtree.c(1524): Final simple tree
|( QUESTION2_15_L -1 -1.398e+03 1.268e+02 2.835e+02
|    ( QUESTION14 -1 -8.204e+02 9.961e+01 1.731e+02
|        ( - -7.876e+02 5 0)
|        ( - 6.685e+01 2 0))
|    ( QUESTION16 -1 -4.513e+02 1.398e+02 1.104e+02
|        ( - 1.342e+02 1 0)
|        ( QUESTION0 -1 -4.457e+02 1.040e+02 1.054e+02
|            ( - -1.971e+02 2 0)
|            ( - -1.446e+02 4 0))))
s>    ( QUESTION2_15_L -1 -1.398e+03 1.268e+02 2.835e+02
s>        ( QUESTION14 -1 -8.204e+02 9.961e+01 1.731e+02
s>            ( - -7.876e+02 5 0)
s>            ( - 6.685e+01 2 0))
s>        ( QUESTION16 -1 -4.513e+02 1.398e+02 1.104e+02
s>            ( - 1.342e+02 1 0)
s>            ( QUESTION0 -1 -4.457e+02 1.040e+02 1.054e+02
s>                ( - -1.971e+02 2 0)
s>                ( - -1.446e+02 4 0))))INFO: dtree.c(1351): Comp split 14
INFO: dtree.c(1483): stop. leaf nodes are specific
INFO: dtree.c(1524): Final simple tree
|( QUESTION14 -1 -2.914e+02 1.009e+02 3.900e+01
|    ( QUESTION0_17_R 1 -1.965e+02 9.685e+01 3.100e+01
|        ( - -1.016e+02 2 0)
|        ( - 1.943e+00 2 0))
|    ( - 6.006e+00 1 0))
s>    ( QUESTION14 -1 -2.914e+02 1.009e+02 3.900e+01
s>        ( QUESTION0_17_R 1 -1.965e+02 9.685e+01 3.100e+01
s>            ( - -1.016e+02 2 0)
s>            ( - 1.943e+00 2 0))
s>        ( - 6.006e+00 1 0))INFO: dtree.c(1483): stop. leaf nodes are specific
INFO: dtree.c(1524): Final simple tree
|( QUESTION19 -1 -4.481e+01 1.105e+02 3.800e+01
|    ( - 4.762e+01 1 0)
|    ( QUESTION16 -1 1.809e+01 7.840e+01 2.300e+01
|        ( - 7.542e+01 1 0)
|        ( - 2.107e+01 2 0)))
s>    ( QUESTION19 -1 -4.481e+01 1.105e+02 3.800e+01
s>        ( - 4.762e+01 1 0)
s>        ( QUESTION16 -1 1.809e+01 7.840e+01 2.300e+01
s>            ( - 7.542e+01 1 0)
s>            ( - 2.107e+01 2 0)))INFO: dtree.c(1351): Comp split 15
INFO: dtree.c(1483): stop. leaf nodes are specific
INFO: dtree.c(1524): Final simple tree
|( SILENCE -1 2.763e+03 1.281e+02 7.250e+02
|    ( - 2.890e+03 3 0)
|    ( - 1.074e+00 3 0))
s>    ( SILENCE -1 2.763e+03 1.281e+02 7.250e+02
s>        ( - 2.890e+03 3 0)
s>        ( - 1.074e+00 3 0))INFO: dtree.c(1351): Comp split 16
INFO: dtree.c(1483): stop. leaf nodes are specific
INFO: dtree.c(1524): Final simple tree
|( QUESTION2_15_L -1 -1.393e+03 1.272e+02 2.785e+02
|    ( QUESTION14 -1 -8.204e+02 9.961e+01 1.731e+02
|        ( - -7.876e+02 5 0)
|        ( - 6.685e+01 2 0))
|    ( QUESTION0 -1 -4.457e+02 1.040e+02 1.054e+02
|        ( - -1.971e+02 2 0)
|        ( - -1.446e+02 4 0)))
s>    ( QUESTION2_15_L -1 -1.393e+03 1.272e+02 2.785e+02
s>        ( QUESTION14 -1 -8.204e+02 9.961e+01 1.731e+02
s>            ( - -7.876e+02 5 0)
s>            ( - 6.685e+01 2 0))
s>        ( QUESTION0 -1 -4.457e+02 1.040e+02 1.054e+02
s>            ( - -1.971e+02 2 0)
s>            ( - -1.446e+02 4 0)))INFO: dtree.c(1351): Comp split 17
INFO: dtree.c(1483): stop. leaf nodes are specific
INFO: dtree.c(1524): Final simple tree
|( QUESTION0 -1 6.235e+01 1.118e+02 1.100e+01
|    ( - 7.782e+01 1 0)
|    ( - 9.634e+01 1 0))
s>    ( QUESTION0 -1 6.235e+01 1.118e+02 1.100e+01
s>        ( - 7.782e+01 1 0)
s>        ( - 9.634e+01 1 0))INFO: dtree.c(1351): Comp split 18
INFO: dtree.c(1351): Comp split 19
INFO: dtree.c(1483): stop. leaf nodes are specific
INFO: dtree.c(1524): Final simple tree
|( QUESTION0 -1 -4.457e+02 1.040e+02 1.054e+02
|    ( - -1.971e+02 2 0)
|    ( - -1.446e+02 4 0))
s>    ( QUESTION0 -1 -4.457e+02 1.040e+02 1.054e+02
s>        ( - -1.971e+02 2 0)
s>        ( - -1.446e+02 4 0))INFO: dtree.c(1483): stop. leaf nodes are specific
INFO: dtree.c(1524): Final simple tree
|( QUESTION14 -1 -8.204e+02 9.961e+01 1.731e+02
|    ( - -7.876e+02 5 0)
|    ( - 6.685e+01 2 0))
s>    ( QUESTION14 -1 -8.204e+02 9.961e+01 1.731e+02
s>        ( - -7.876e+02 5 0)
s>        ( - 6.685e+01 2 0))INFO: dtree.c(1351): Comp split 20
INFO: dtree.c(1483): stop. leaf nodes are specific
INFO: dtree.c(1524): Final simple tree
|( QUESTION0 -1 -2.913e+02 8.596e+01 7.613e+01
|    ( - -2.812e+02 3 0)
|    ( - 7.581e+01 1 0))
s>    ( QUESTION0 -1 -2.913e+02 8.596e+01 7.613e+01
s>        ( - -2.812e+02 3 0)
s>        ( - 7.581e+01 1 0))INFO: dtree.c(1483): stop. leaf nodes are specific
INFO: dtree.c(1524): Final simple tree
|( QUESTION3 -1 -1.365e+02 8.248e+01 4.428e+01
|    ( - 1.122e+01 1 0)
|    ( - -6.521e+01 2 0))
s>    ( QUESTION3 -1 -1.365e+02 8.248e+01 4.428e+01
s>        ( - 1.122e+01 1 0)
s>        ( - -6.521e+01 2 0))INFO: dtree.c(1351): Comp split 21
INFO: dtree.c(1351): Comp split 22
INFO: dtree.c(1483): stop. leaf nodes are specific
INFO: dtree.c(1524): Final simple tree
|( QUESTION16 -1 1.809e+01 7.840e+01 2.300e+01
|    ( - 7.542e+01 1 0)
|    ( - 2.107e+01 2 0))
s>    ( QUESTION16 -1 1.809e+01 7.840e+01 2.300e+01
s>        ( - 7.542e+01 1 0)
s>        ( - 2.107e+01 2 0))INFO: dtree.c(1351): Comp split 23
INFO: dtree.c(1351): Comp split 24
INFO: dtree.c(1483): stop. leaf nodes are specific
INFO: dtree.c(1524): Final simple tree
|( QUESTION0_17_R 1 -1.965e+02 9.685e+01 3.100e+01
|    ( - -1.016e+02 2 0)
|    ( - 1.943e+00 2 0))
s>    ( QUESTION0_17_R 1 -1.965e+02 9.685e+01 3.100e+01
s>        ( - -1.016e+02 2 0)
s>        ( - 1.943e+00 2 0))INFO: dtree.c(1351): Comp split 25
INFO: dtree.c(1351): Comp split 26
INFO: dtree.c(1351): Comp split 27
INFO: dtree.c(1351): Comp split 28
INFO: dtree.c(1351): Comp split 29
INFO: dtree.c(1351): Comp split 30
INFO: dtree.c(1354): stop. leaf nodes are specific
Mon May  6 20:56:00 2013
